Name,WeightClassKg,Event,Equipment,Division,Sex,Best3BenchKg,Best3DeadliftKg,TotalKg,Place
Randall Griggs,52,B,Multi-ply,Class I,M,75,,75,1
Jon Corpus,60,B,Multi-ply,Class I,M,137.5,,137.5,2
James Love,60,B,Multi-ply,Class I,M,142.5,,142.5,1
David Flores,67.5,B,Multi-ply,Class I,M,115,,115,10
R. Hilderbrand,67.5,B,Multi-ply,Class I,M,125,,125,9
A. Fernandez,67.5,B,Multi-ply,Class I,M,127.5,,127.5,8
Ian Corpus,67.5,B,Multi-ply,Class I,M,130,,130,7
Jan Corpus,67.5,B,Multi-ply,Class I,M,140,,140,6
Eric Nahorniak,67.5,B,Multi-ply,Class I,M,142.5,,142.5,5
Jonathan Omer,67.5,B,Multi-ply,Class I,M,145,,145,3
Jason Imamura,67.5,B,Multi-ply,Class I,M,145,,145,4
Sam Norris,67.5,B,Multi-ply,Class I,M,157.5,,157.5,2
N. Mansourian,67.5,B,Multi-ply,Class I,M,165,,165,1
Stranghoener,75,B,Multi-ply,Class I,M,125,,125,4
Marloe Mosley,75,B,Multi-ply,Class I,M,125,,125,5
Ferrel Gray,75,B,Multi-ply,Class I,M,130,,130,3
Kenny Bateman,75,B,Multi-ply,Class I,M,157.5,,157.5,2
Paul Silva,75,B,Multi-ply,Class I,M,177.5,,177.5,1
Anthony Kokell,82.5,B,Multi-ply,Class I,M,107.5,,107.5,6
R. Espinoza,82.5,B,Multi-ply,Class I,M,142.5,,142.5,5
Vilmar Oliveira,82.5,B,Multi-ply,Class I,M,145,,145,4
Daniel Chiras,82.5,B,Multi-ply,Class I,M,152.5,,152.5,3
Kenny Rothe,82.5,B,Multi-ply,Class I,M,160,,160,2
Don Linerud,82.5,B,Multi-ply,Class I,M,187.5,,187.5,1
D. McFarland,90,B,Multi-ply,Class I,M,117.5,,117.5,10
Joe Mireles,90,B,Multi-ply,Class I,M,170,,170,8
Joe Hawk,90,B,Multi-ply,Class I,M,170,,170,9
Matt Christie,90,B,Multi-ply,Class I,M,182.5,,182.5,6
D. Bradshaw,90,B,Multi-ply,Class I,M,182.5,,182.5,7
Pablo Arriaga,90,B,Multi-ply,Class I,M,185,,185,5
Bill Cox,90,B,Multi-ply,Class I,M,190,,190,4
John O'Reilly,90,B,Multi-ply,Class I,M,200,,200,3
Ted Kennedy,90,B,Multi-ply,Class I,M,205,,205,1
Cory Dexter,90,B,Multi-ply,Class I,M,205,,205,2
Marc Taylor,100,B,Multi-ply,Class I,M,137.5,,137.5,14
Sean Me Grath,100,B,Multi-ply,Class I,M,140,,140,13
Carlos Chacon,100,B,Multi-ply,Class I,M,160,,160,12
Michael Rainey,100,B,Multi-ply,Class I,M,165,,165,11
Marv Landon,100,B,Multi-ply,Class I,M,182.5,,182.5,10
Mike Berteaux,100,B,Multi-ply,Class I,M,190,,190,8
John Rowland,100,B,Multi-ply,Class I,M,190,,190,9
Thomas Reiher,100,B,Multi-ply,Class I,M,192.5,,192.5,6
Mark Hatfield,100,B,Multi-ply,Class I,M,192.5,,192.5,7
Nicklas Friberg,100,B,Multi-ply,Class I,M,195,,195,5
John Boettger,100,B,Multi-ply,Class I,M,207.5,,207.5,3
T. Humphries,100,B,Multi-ply,Class I,M,207.5,,207.5,4
Robert Harris,100,B,Multi-ply,Class I,M,210,,210,2
Grover Rollins,100,B,Multi-ply,Class I,M,212.5,,212.5,1
Shane Sowers,100,B,Multi-ply,Class I,M,60,,60,15
Robert Bills,110,B,Multi-ply,Class I,M,170,,170,7
H. Barrett,110,B,Multi-ply,Class I,M,170,,170,8
Bruce Huber,110,B,Multi-ply,Class I,M,200,,200,5
Brion Fleak,110,B,Multi-ply,Class I,M,200,,200,6
Ed Barnes,110,B,Multi-ply,Class I,M,210,,210,4
Jason Gibson,110,B,Multi-ply,Class I,M,225,,225,3
Jeff Kim,110,B,Multi-ply,Class I,M,227.5,,227.5,1
D. Arredondo,110,B,Multi-ply,Class I,M,227.5,,227.5,2
Jesse Garza,117.5,B,Multi-ply,Class I,M,177.5,,177.5,6
Shawn Hartley,117.5,B,Multi-ply,Class I,M,185,,185,5
Tim Prince,117.5,B,Multi-ply,Class I,M,187.5,,187.5,4
Patrick Dean,117.5,B,Multi-ply,Class I,M,192.5,,192.5,3
Eric Krych,117.5,B,Multi-ply,Class I,M,200,,200,2
Thomas Kesling,117.5,B,Multi-ply,Class I,M,212.5,,212.5,1
Carl Wimmer,125,B,Multi-ply,Class I,M,187.5,,187.5,2
Gilbert Shibao,125,B,Multi-ply,Class I,M,200,,200,1
David Blanke,140,B,Multi-ply,Class I,M,160,,160,6
William Mott,140,B,Multi-ply,Class I,M,190,,190,5
Leo Contreras,140,B,Multi-ply,Class I,M,197.5,,197.5,4
B. McConnell,140,B,Multi-ply,Class I,M,205,,205,3
Wayne Kaaloa,140,B,Multi-ply,Class I,M,207.5,,207.5,2
Jim Presley,140,B,Multi-ply,Class I,M,240,,240,1
Jeremy Murrell,140,B,Multi-ply,Class I,M,,,,DQ
David Edgell,140+,B,Multi-ply,Class I,M,190,,190,3
Jeffrey Place,140+,B,Multi-ply,Class I,M,230,,230,2
Brett Fleak,140+,B,Multi-ply,Class I,M,235,,235,1
Anthony Kokell,82.5,B,Multi-ply,Disabled,M,110,,110,1
Charles Siddle,100,B,Multi-ply,Disabled,M,127.5,,127.5,2
Sean Me Grath,100,B,Multi-ply,Disabled,M,142.5,,142.5,1
Cody Colchado,110,B,Multi-ply,Disabled,M,205,,205,1
Jerri Lippert,67.5,B,Multi-ply,Guest,M,170,,170,G
Ryan Kennelly,140,B,Multi-ply,Guest,M,342.5,,342.5,G
Ryan Kennedy,140,B,Multi-ply,Guest,M,365,,365,G
Jon Corpus,60,B,Multi-ply,Juniors 20-25,M,137.5,,137.5,1
Ian Corpus,67.5,B,Multi-ply,Juniors 20-25,M,130,,130,2
Jonathan Omer,67.5,B,Multi-ply,Juniors 20-25,M,145,,145,1
J. McWalter,75,B,Multi-ply,Juniors 20-25,M,82.5,,82.5,6
Kyle Herzik,75,B,Multi-ply,Juniors 20-25,M,100,,100,5
Stranghoener,75,B,Multi-ply,Juniors 20-25,M,125,,125,4
J. Benezra,75,B,Multi-ply,Juniors 20-25,M,137.5,,137.5,3
John Alves,75,B,Multi-ply,Juniors 20-25,M,165,,165,2
Joe Luther,75,B,Multi-ply,Juniors 20-25,M,207.5,,207.5,1
Daniel Chiras,82.5,B,Multi-ply,Juniors 20-25,M,152.5,,152.5,2
Ryan Lewis,82.5,B,Multi-ply,Juniors 20-25,M,165,,165,1
Matt Bell,90,B,Multi-ply,Juniors 20-25,M,157.5,,157.5,7
Josh Me Henry,90,B,Multi-ply,Juniors 20-25,M,162.5,,162.5,6
Ryan Losey,90,B,Multi-ply,Juniors 20-25,M,175,,175,5
Matt Christie,90,B,Multi-ply,Juniors 20-25,M,182.5,,182.5,4
Scotty Burge,90,B,Multi-ply,Juniors 20-25,M,185,,185,3
Mike Rubio,90,B,Multi-ply,Juniors 20-25,M,210,,210,1
Ryan McKay,90,B,Multi-ply,Juniors 20-25,M,210,,210,2
Jamie Bennett,100,B,Multi-ply,Juniors 20-25,M,160,,160,6
J. Bachmeier,100,B,Multi-ply,Juniors 20-25,M,205,,205,5
Scott Mecham,100,B,Multi-ply,Juniors 20-25,M,210,,210,4
R. McKeefer,100,B,Multi-ply,Juniors 20-25,M,227.5,,227.5,3
Chad Matthews,100,B,Multi-ply,Juniors 20-25,M,237.5,,237.5,2
Jav Rinehart,100,B,Multi-ply,Juniors 20-25,M,240,,240,1
Dennis Schmidt,110,B,Multi-ply,Juniors 20-25,M,150,,150,4
Jon Leftwich,110,B,Multi-ply,Juniors 20-25,M,167.5,,167.5,3
Josh Nelson,110,B,Multi-ply,Juniors 20-25,M,177.5,,177.5,2
Dusty Bums,110,B,Multi-ply,Juniors 20-25,M,215,,215,1
Patrick Dean,117.5,B,Multi-ply,Juniors 20-25,M,192.5,,192.5,2
B. Lee-Faulk,117.5,B,Multi-ply,Juniors 20-25,M,262.5,,262.5,1
Jerry Pritchett,125,B,Multi-ply,Juniors 20-25,M,212.5,,212.5,3
David Freeland,125,B,Multi-ply,Juniors 20-25,M,240,,240,2
John Erickson,125,B,Multi-ply,Juniors 20-25,M,275,,275,1
M. Matheney,140,B,Multi-ply,Juniors 20-25,M,210,,210,1
S. Wahlstrom,52,B,Multi-ply,Juniors 20-25,F,92.5,,92.5,1
Melissa Leach,56,B,Multi-ply,Juniors 20-25,F,67.5,,67.5,3
S. Hagedorn,56,B,Multi-ply,Juniors 20-25,F,70,,70,1
Erica Haislar,56,B,Multi-ply,Juniors 20-25,F,70,,70,2
Lisa Coleman,56,B,Multi-ply,Juniors 20-25,F,,,,DQ
C. McKeefer,60,B,Multi-ply,Juniors 20-25,F,57.5,,57.5,1
Sara Gwaltney,67.5,B,Multi-ply,Juniors 20-25,F,62.5,,62.5,1
Dana Buxton,75,B,Multi-ply,Juniors 20-25,F,67.5,,67.5,3
S. Armstrong,75,B,Multi-ply,Juniors 20-25,F,85,,85,2
Riikka Ylitalo,75,B,Multi-ply,Juniors 20-25,F,105,,105,1
George Baker,75,B,Multi-ply,Law/Fire Masters 40-47,M,197.5,,197.5,1
Rudy Lopez,82.5,B,Multi-ply,Law/Fire Masters 40-47,M,185,,185,2
LeeRoy Banks,82.5,B,Multi-ply,Law/Fire Masters 40-47,M,197.5,,197.5,1
Craig Palmer,100,B,Multi-ply,Law/Fire Masters 40-47,M,225,,225,1
Craig Bowen,100,B,Multi-ply,Law/Fire Masters 40-47,M,,,,DQ
Carl Nishida,100,B,Multi-ply,Law/Fire Masters 40-47,M,,,,DQ
Duane Fuss,110,B,Multi-ply,Law/Fire Masters 40-47,M,222.5,,222.5,3
Jeff Kim,110,B,Multi-ply,Law/Fire Masters 40-47,M,227.5,,227.5,2
Mike McKenzie,110,B,Multi-ply,Law/Fire Masters 40-47,M,230,,230,1
Ken Eyre,125,B,Multi-ply,Law/Fire Masters 40-47,M,195,,195,2
Tom Ovens,125,B,Multi-ply,Law/Fire Masters 40-47,M,205,,205,1
John Minahan,140,B,Multi-ply,Law/Fire Masters 40-47,M,250,,250,1
Jaime Tovar,140,B,Multi-ply,Law/Fire Masters 40-47,M,250,,250,2
Dennis Schultz,140+,B,Multi-ply,Law/Fire Masters 40-47,M,220,,220,2
Dave Marchant,140+,B,Multi-ply,Law/Fire Masters 40-47,M,275,,275,1
C. McFarland,90,B,Multi-ply,Law/Fire Masters 48+,M,147.5,,147.5,1
D. Martinez,100,B,Multi-ply,Law/Fire Masters 48+,M,187.5,,187.5,1
Johnny Park,110,B,Multi-ply,Law/Fire Masters 48+,M,185,,185,1
Ed Acey,117.5,B,Multi-ply,Law/Fire Masters 48+,M,182.5,,182.5,1
Ron Hood,125,B,Multi-ply,Law/Fire Masters 48+,M,247.5,,247.5,1
Bruce Sabin,125,B,Multi-ply,Law/Fire Masters 48+,M,192.5,,192.5,2
Paul Goodwin,140,B,Multi-ply,Law/Fire Masters 48+,M,192.5,,192.5,1
L. Rosales-Buie,60,B,Multi-ply,Law/Fire Masters 40-47,F,67.5,,67.5,1
Bernice Green,67.5,B,Multi-ply,Law/Fire Masters 40-47,F,110,,110,1
C. Luprete,75,B,Multi-ply,Law/Fire Masters 48+,F,70,,70,1
Louise Jones,82.5,B,Multi-ply,Law/Fire Masters 48+,F,57.5,,57.5,1
M. Santiago,67.5,B,Multi-ply,Law/Fire,M,167.5,,167.5,1
Kenneth Cook,75,B,Multi-ply,Law/Fire,M,177.5,,177.5,1
Darren Carr,82.5,B,Multi-ply,Law/Fire,M,167.5,,167.5,2
Rudv Lopez,82.5,B,Multi-ply,Law/Fire,M,185,,185,1
Pablo Arriaga,90,B,Multi-ply,Law/Fire,M,185,,185,3
Mike Rubio,90,B,Multi-ply,Law/Fire,M,210,,210,2
W. Brantley,90,B,Multi-ply,Law/Fire,M,215,,215,1
Craig Bowen,100,B,Multi-ply,Law/Fire,M,175,,175,3
Joe Guerra,100,B,Multi-ply,Law/Fire,M,230,,230,2
Matt LaMarque,100,B,Multi-ply,Law/Fire,M,285,,285,1
D. Arredondo,110,B,Multi-ply,Law/Fire,M,227.5,,227.5,2
Jason Jackson,110,B,Multi-ply,Law/Fire,M,295,,295,1
Tim Prince,117.5,B,Multi-ply,Law/Fire,M,187.5,,187.5,3
George Sutton,117.5,B,Multi-ply,Law/Fire,M,222.5,,222.5,2
Mike Camlin,117.5,B,Multi-ply,Law/Fire,M,240,,240,1
Carl Wimmer,125,B,Multi-ply,Law/Fire,M,195,,195,1
Jeremy Murrell,140,B,Multi-ply,Law/Fire,M,185,,185,1
Dennis Schultz,140+,B,Multi-ply,Law/Fire,M,220,,220,2
T. Lualemaga,140+,B,Multi-ply,Law/Fire,M,245,,245,1
T. Anthony,90,B,Multi-ply,Law/Fire,F,97.5,,97.5,1
R. Anderson,75,B,Multi-ply,Law/Fire Submasters,M,120,,120,1
James Whitney,90,B,Multi-ply,Law/Fire Submasters,M,217.5,,217.5,1
Larry Hollev,110,B,Multi-ply,Law/Fire Submasters,M,185,,185,3
Craig Mitchell,110,B,Multi-ply,Law/Fire Submasters,M,215,,215,2
F. Wakakuwa,110,B,Multi-ply,Law/Fire Submasters,M,282.5,,282.5,1
Lance Davis,117.5,B,Multi-ply,Law/Fire Submasters,M,167.5,,167.5,1
Gilbert Shibao,125,B,Multi-ply,Law/Fire Submasters,M,202.5,,202.5,2
Wayne Watts,125,B,Multi-ply,Law/Fire Submasters,M,232.5,,232.5,1
Don Kralovetz,140+,B,Multi-ply,Law/Fire Submasters,M,235,,235,1
Karen Gordon,56,B,Multi-ply,Law/Fire Submasters,F,67.5,,67.5,1
G. Jaramillo,52,B,Multi-ply,Masters 40-46,M,125,,125,1
Glenn Murphy,56,B,Multi-ply,Masters 40-46,M,100,,100,1
Marloe Mosley,75,B,Multi-ply,Masters 40-46,M,125,,125,5
Leo Mattoni,75,B,Multi-ply,Masters 40-46,M,157.5,,157.5,4
Tom Cencich,75,B,Multi-ply,Masters 40-46,M,162.5,,162.5,3
Kenneth Cook,75,B,Multi-ply,Masters 40-46,M,177.5,,177.5,2
George Baker,75,B,Multi-ply,Masters 40-46,M,202.5,,202.5,1
David Brekke,82.5,B,Multi-ply,Masters 40-46,M,140,,140,5
Fred Stokes,82.5,B,Multi-ply,Masters 40-46,M,155,,155,4
Greg Brink,82.5,B,Multi-ply,Masters 40-46,M,157.5,,157.5,3
LeeRoy Banks,82.5,B,Multi-ply,Masters 40-46,M,197.5,,197.5,2
Bob Levering,82.5,B,Multi-ply,Masters 40-46,M,205,,205,1
J. Cavanaugh,90,B,Multi-ply,Masters 40-46,M,145,,145,10
M. McCormack,90,B,Multi-ply,Masters 40-46,M,155,,155,9
Frank Johnson,90,B,Multi-ply,Masters 40-46,M,172.5,,172.5,7
Darrell Horn,90,B,Multi-ply,Masters 40-46,M,172.5,,172.5,8
Frank Peters,90,B,Multi-ply,Masters 40-46,M,180,,180,6
Bill Cox,90,B,Multi-ply,Masters 40-46,M,190,,190,5
Allen Berry,90,B,Multi-ply,Masters 40-46,M,195,,195,4
Rick Brewer,90,B,Multi-ply,Masters 40-46,M,205,,205,3
Wendell Omura,90,B,Multi-ply,Masters 40-46,M,215,,215,2
Keith Kanemoto,90,B,Multi-ply,Masters 40-46,M,230,,230,1
Sandy Norton,100,B,Multi-ply,Masters 40-46,M,120,,120,13
George Phipps,100,B,Multi-ply,Masters 40-46,M,162.5,,162.5,12
Bill Webb,100,B,Multi-ply,Masters 40-46,M,167.5,,167.5,11
R. Womack,100,B,Multi-ply,Masters 40-46,M,175,,175,10
Don Rygh Jr,100,B,Multi-ply,Masters 40-46,M,185,,185,9
Mike Bennett,100,B,Multi-ply,Masters 40-46,M,190,,190,8
Tony Luce,100,B,Multi-ply,Masters 40-46,M,195,,195,7
Jerry Tremblay,100,B,Multi-ply,Masters 40-46,M,200,,200,6
Robert Harris,100,B,Multi-ply,Masters 40-46,M,205,,205,4
Fil Dena III,100,B,Multi-ply,Masters 40-46,M,205,,205,5
K. Millrany,100,B,Multi-ply,Masters 40-46,M,207.5,,207.5,3
Bruce Young,100,B,Multi-ply,Masters 40-46,M,220,,220,1
Schoenebeck,100,B,Multi-ply,Masters 40-46,M,220,,220,2
D. Burlingame,100,B,Multi-ply,Masters 40-46,M,,,,DQ
Larry Benner,110,B,Multi-ply,Masters 40-46,M,182.5,,182.5,3
Tony Capps,110,B,Multi-ply,Masters 40-46,M,197.5,,197.5,2
Cody Colchado,110,B,Multi-ply,Masters 40-46,M,205,,205,1
Brad Butler,117.5,B,Multi-ply,Masters 40-46,M,157.5,,157.5,3
T. Christensen,117.5,B,Multi-ply,Masters 40-46,M,240,,240,2
Rich Ludlam,117.5,B,Multi-ply,Masters 40-46,M,242.5,,242.5,1
Rodney Sheetz,125,B,Multi-ply,Masters 40-46,M,175,,175,5
Ron West,125,B,Multi-ply,Masters 40-46,M,177.5,,177.5,4
Ken Eyre,125,B,Multi-ply,Masters 40-46,M,195,,195,3
Carroll Moon,125,B,Multi-ply,Masters 40-46,M,260,,260,2
Jeff Peshek,125,B,Multi-ply,Masters 40-46,M,282.5,,282.5,1
Wayne Kaaloa,140,B,Multi-ply,Masters 40-46,M,207.5,,207.5,9
Joe Mickelson,140,B,Multi-ply,Masters 40-46,M,210,,210,8
Jim Presley,140,B,Multi-ply,Masters 40-46,M,240,,240,6
John Minahan,140,B,Multi-ply,Masters 40-46,M,250,,250,5
J. Cunningham,140,B,Multi-ply,Masters 40-46,M,260,,260,4
Schermerhorn,140,B,Multi-ply,Masters 40-46,M,295,,295,1
David Chase,140+,B,Multi-ply,Masters 40-46,M,237.5,,237.5,7
Mike Hamby,140+,B,Multi-ply,Masters 40-46,M,262.5,,262.5,3
D. Marchant,140+,B,Multi-ply,Masters 40-46,M,275,,275,2
Bill Gillespie,140+,B,Multi-ply,Masters 40-46,M,,,,DQ
Gary Bobrovitz,60,B,Multi-ply,Masters 47-53,M,100,,100,1
David Higgins,67.5,B,Multi-ply,Masters 47-53,M,82.5,,82.5,1
Alan Sheen,75,B,Multi-ply,Masters 47-53,M,87.5,,87.5,5
Tom Corey,75,B,Multi-ply,Masters 47-53,M,102.5,,102.5,4
Ferrel Gray,75,B,Multi-ply,Masters 47-53,M,130,,130,3
Edgar Martinez,75,B,Multi-ply,Masters 47-53,M,137.5,,137.5,2
A. Evangelista,75,B,Multi-ply,Masters 47-53,M,192.5,,192.5,1
Eric Ansberry,82.5,B,Multi-ply,Masters 47-53,M,122.5,,122.5,4
Carl Groves,82.5,B,Multi-ply,Masters 47-53,M,142.5,,142.5,3
Perry Plush,82.5,B,Multi-ply,Masters 47-53,M,157.5,,157.5,2
Byron Beebe,82.5,B,Multi-ply,Masters 47-53,M,192.5,,192.5,1
J. Guardado,90,B,Multi-ply,Masters 47-53,M,107.5,,107.5,6
Cecil Wood,90,B,Multi-ply,Masters 47-53,M,117.5,,117.5,5
Mick Stevens,90,B,Multi-ply,Masters 47-53,M,132.5,,132.5,4
David Bertier,90,B,Multi-ply,Masters 47-53,M,147.5,,147.5,3
Greg Alves,90,B,Multi-ply,Masters 47-53,M,157.5,,157.5,2
Ernest Reyes,90,B,Multi-ply,Masters 47-53,M,165,,165,1
Byron Sanford,100,B,Multi-ply,Masters 47-53,M,147.5,,147.5,9
Ronald Proctor,100,B,Multi-ply,Masters 47-53,M,160,,160,8
Marv Landon,100,B,Multi-ply,Masters 47-53,M,182.5,,182.5,7
W. Orbaueh,100,B,Multi-ply,Masters 47-53,M,185,,185,6
David Martinez #8,100,B,Multi-ply,Masters 47-53,M,187.5,,187.5,5
Mike Berteaux,100,B,Multi-ply,Masters 47-53,M,190,,190,4
Nick Dwinell,100,B,Multi-ply,Masters 47-53,M,192.5,,192.5,3
Robert Hackett,100,B,Multi-ply,Masters 47-53,M,210,,210,2
Kevin Scullv,100,B,Multi-ply,Masters 47-53,M,230,,230,1
Mike Murphy,110,B,Multi-ply,Masters 47-53,M,155,,155,7
S. Mathis,110,B,Multi-ply,Masters 47-53,M,210,,210,6
Tony Leach,110,B,Multi-ply,Masters 47-53,M,212.5,,212.5,5
Duane Fuss,110,B,Multi-ply,Masters 47-53,M,222.5,,222.5,4
Brian Whited,110,B,Multi-ply,Masters 47-53,M,235,,235,3
Bob Gunn,110,B,Multi-ply,Masters 47-53,M,247.5,,247.5,2
Sean Finegan,110,B,Multi-ply,Masters 47-53,M,250,,250,1
J. Hofmeister,110,B,Multi-ply,Masters 47-53,M,,,,DQ
R. Sanchez,117.5,B,Multi-ply,Masters 47-53,M,215,,215,5
Buddy McKee,117.5,B,Multi-ply,Masters 47-53,M,220,,220,4
Rob Carbo,117.5,B,Multi-ply,Masters 47-53,M,227.5,,227.5,3
Forest Hofer,117.5,B,Multi-ply,Masters 47-53,M,232.5,,232.5,2
Bennie Dooley,117.5,B,Multi-ply,Masters 47-53,M,237.5,,237.5,1
Joe Harms,125,B,Multi-ply,Masters 47-53,M,250,,250,1
A. Gonzales,125,B,Multi-ply,Masters 47-53,M,,,,DQ
Leo Contreras,140,B,Multi-ply,Masters 47-53,M,197.5,,197.5,4
Paul Goodwin,140,B,Multi-ply,Masters 47-53,M,205,,205,3
Austin Webb,140,B,Multi-ply,Masters 47-53,M,210,,210,2
Sam Pecktol,140,B,Multi-ply,Masters 47-53,M,230,,230,1
Brian Phillips,140+,B,Multi-ply,Masters 47-53,M,122.5,,122.5,1
T. Feight,67.5,B,Multi-ply,Masters 54-60,M,97.5,,97.5,1
Terry Bohn,75,B,Multi-ply,Masters 54-60,M,100,,100,2
Stefan Lemire,75,B,Multi-ply,Masters 54-60,M,125,,125,1
Richard Hunt,82.5,B,Multi-ply,Masters 54-60,M,120,,120,9
G. Alexander,82.5,B,Multi-ply,Masters 54-60,M,127.5,,127.5,8
Michel Rioland,82.5,B,Multi-ply,Masters 54-60,M,132.5,,132.5,7
Jaime Alvarez,82.5,B,Multi-ply,Masters 54-60,M,137.5,,137.5,5
Ron Jones,82.5,B,Multi-ply,Masters 54-60,M,137.5,,137.5,6
J. McCamman,82.5,B,Multi-ply,Masters 54-60,M,142.5,,142.5,4
Bob Hill,82.5,B,Multi-ply,Masters 54-60,M,145,,145,3
R. Contreras,82.5,B,Multi-ply,Masters 54-60,M,147.5,,147.5,2
D. Hawkinson,82.5,B,Multi-ply,Masters 54-60,M,155,,155,1
T. Haggenmiller,90,B,Multi-ply,Masters 54-60,M,142.5,,142.5,7
Bob Hochstein,90,B,Multi-ply,Masters 54-60,M,142.5,,142.5,8
Ritchie Creevy,90,B,Multi-ply,Masters 54-60,M,142.5,,142.5,9
R. Edwards,90,B,Multi-ply,Masters 54-60,M,145,,145,5
G. Holzinger,90,B,Multi-ply,Masters 54-60,M,145,,145,6
R. Gessmann,90,B,Multi-ply,Masters 54-60,M,155,,155,4
J. Snodgrass,90,B,Multi-ply,Masters 54-60,M,157.5,,157.5,3
Jamail Birring,90,B,Multi-ply,Masters 54-60,M,187.5,,187.5,2
Dan Swift,90,B,Multi-ply,Masters 54-60,M,192.5,,192.5,1
Olicio Filho,100,B,Multi-ply,Masters 54-60,M,155,,155,4
Donald Madere,100,B,Multi-ply,Masters 54-60,M,160,,160,3
Daniel Bell #3,100,B,Multi-ply,Masters 54-60,M,165,,165,2
Steve Ramey,100,B,Multi-ply,Masters 54-60,M,212.5,,212.5,1
C. Lambert,110,B,Multi-ply,Masters 54-60,M,155,,155,5
Doug Ward,110,B,Multi-ply,Masters 54-60,M,172.5,,172.5,4
Johnny Park,110,B,Multi-ply,Masters 54-60,M,185,,185,3
Burt Merriman,110,B,Multi-ply,Masters 54-60,M,190,,190,1
Daniel Smith III,110,B,Multi-ply,Masters 54-60,M,190,,190,2
George Nelson,117.5,B,Multi-ply,Masters 54-60,M,255,,255,1
Gene Knight,125,B,Multi-ply,Masters 54-60,M,202.5,,202.5,2
Colin Bonneau,125,B,Multi-ply,Masters 54-60,M,215,,215,1
John von Rohr,140,B,Multi-ply,Masters 54-60,M,182.5,,182.5,1
P. McKenzie,60,B,Multi-ply,Masters 61-67,M,115,,115,1
R. Gidcumb,67.5,B,Multi-ply,Masters 61-67,M,105,,105,3
Larry Vincent,67.5,B,Multi-ply,Masters 61-67,M,125,,125,2
Hanns Nagerl,67.5,B,Multi-ply,Masters 61-67,M,127.5,,127.5,1
A. Da Silva,75,B,Multi-ply,Masters 61-67,M,95,,95,2
Ron White,75,B,Multi-ply,Masters 61-67,M,122.5,,122.5,1
Ray Skillman,82.5,B,Multi-ply,Masters 61-67,M,127.5,,127.5,2
Rudy Lozano,82.5,B,Multi-ply,Masters 61-67,M,172.5,,172.5,1
John Herbein,90,B,Multi-ply,Masters 61-67,M,120,,120,3
T. Lancaster,90,B,Multi-ply,Masters 61-67,M,145,,145,2
Dale Palmer,90,B,Multi-ply,Masters 61-67,M,157.5,,157.5,1
Ken Anderson,100,B,Multi-ply,Masters 61-67,M,185,,185,1
Mike Bonifield,110,B,Multi-ply,Masters 61-67,M,145,,145,2
Bob Kehl,110,B,Multi-ply,Masters 61-67,M,175,,175,1
Ed Acey,117.5,B,Multi-ply,Masters 61-67,M,182.5,,182.5,1
Dieter Frey,125,B,Multi-ply,Masters 61-67,M,217.5,,217.5,1
M. Herrera,140,B,Multi-ply,Masters 61-67,M,150,,150,3
Gary Johnson,140,B,Multi-ply,Masters 61-67,M,160,,160,2
Robert O Smith,140,B,Multi-ply,Masters 61-67,M,210,,210,1
Wayne Hanson,140+,B,Multi-ply,Masters 61-67,M,140,,140,1
Robert Cortes,67.5,B,Multi-ply,Masters 68-74,M,115,,115,1
Andre Charbit,75,B,Multi-ply,Masters 68-74,M,90,,90,3
Bill Tinkler,75,B,Multi-ply,Masters 68-74,M,102.5,,102.5,2
Ron Goodman,75,B,Multi-ply,Masters 68-74,M,105,,105,1
Bob Stephens,90,B,Multi-ply,Masters 68-74,M,160,,160,1
T. C. Lewis,82.5,B,Multi-ply,Masters 68-74,M,127.5,,127.5,1
Jack Peters,110,B,Multi-ply,Masters 68-74,M,92.5,,92.5,1
A. Whinston,67.5,B,Multi-ply,Masters 75-79,M,50,,50,1
Jim Schall,75,B,Multi-ply,Masters 75-79,M,87.5,,87.5,3
Enrique Garcia,75,B,Multi-ply,Masters 75-79,M,90,,90,2
R. Fornachon,75,B,Multi-ply,Masters 75-79,M,100,,100,1
Bill Grubbs,82.5,B,Multi-ply,Masters 75-79,M,55,,55,2
C. Ferrando,82.5,B,Multi-ply,Masters 75-79,M,122.5,,122.5,1
E. Miranda,100,B,Multi-ply,Masters 75-79,M,107.5,,107.5,1
Jack Heizelman,67.5,B,Multi-ply,Masters 80+,M,80,,80,1
S. Montrose,82.5,B,Multi-ply,Masters 80+,M,60,,60,2
Donald Dreyer,82.5,B,Multi-ply,Masters 80+,M,62.5,,62.5,1
Edwin Free Jr,90,B,Multi-ply,Masters 80+,M,55,,55,1
G. Jaramillo,52,B,Multi-ply,Open,M,125,,125,1
Juan Monoz,60,B,Multi-ply,Open,M,75,,75,3
James Love,60,B,Multi-ply,Open,M,142.5,,142.5,2
Kerwin Unten,60,B,Multi-ply,Open,M,187.5,,187.5,1
Jan Corpus,67.5,B,Multi-ply,Open,M,140,,140,6
Chris Balanga,67.5,B,Multi-ply,Open,M,167.5,,167.5,3
M. Santiago,67.5,B,Multi-ply,Open,M,167.5,,167.5,4
N. Mansourian,67.5,B,Multi-ply,Open,M,167.5,,167.5,5
Taylor Tom,67.5,B,Multi-ply,Open,M,192.5,,192.5,2
D. Matsumoto,67.5,B,Multi-ply,Open,M,202.5,,202.5,1
Tom Cencich,75,B,Multi-ply,Open,M,162.5,,162.5,8
Jonathan Luna,75,B,Multi-ply,Open,M,162.5,,162.5,9
Robert Gernert,75,B,Multi-ply,Open,M,167.5,,167.5,7
Miguel Ruelan,75,B,Multi-ply,Open,M,170,,170,6
Paul Silva,75,B,Multi-ply,Open,M,177.5,,177.5,5
A. Evangelista,75,B,Multi-ply,Open,M,192.5,,192.5,4
Ray Hickman,75,B,Multi-ply,Open,M,195,,195,3
D. Osgood,75,B,Multi-ply,Open,M,197.5,,197.5,2
Joe Luther,75,B,Multi-ply,Open,M,207.5,,207.5,1
Byron Beebe,82.5,B,Multi-ply,Open,M,192.5,,192.5,5
Tolan Furusho,82.5,B,Multi-ply,Open,M,195,,195,3
Jeff Sussman,82.5,B,Multi-ply,Open,M,195,,195,4
Brett Campbell,82.5,B,Multi-ply,Open,M,205,,205,2
M. Coleman,82.5,B,Multi-ply,Open,M,222.5,,222.5,1
Justin Barrett,90,B,Multi-ply,Open,M,122.5,,122.5,9
Delwin Chinn,90,B,Multi-ply,Open,M,175,,175,8
Jeff Hoiby,90,B,Multi-ply,Open,M,185,,185,7
A. Planchon,90,B,Multi-ply,Open,M,215,,215,6
Brant Bishop,90,B,Multi-ply,Open,M,220,,220,5
E. Mil-Homens,90,B,Multi-ply,Open,M,222.5,,222.5,3
Joe Smith,90,B,Multi-ply,Open,M,222.5,,222.5,4
Bill Shalkowski,90,B,Multi-ply,Open,M,230,,230,2
G. Warrington,90,B,Multi-ply,Open,M,240,,240,1
Keith Severson,100,B,Multi-ply,Open,M,152.5,,152.5,8
Joe Guerra,100,B,Multi-ply,Open,M,230,,230,6
John Mendoza,100,B,Multi-ply,Open,M,230,,230,7
Chris Duffin,100,B,Multi-ply,Open,M,232.5,,232.5,5
William Murray,100,B,Multi-ply,Open,M,242.5,,242.5,4
Greg Stephens,100,B,Multi-ply,Open,M,245,,245,3
Brad Neal,100,B,Multi-ply,Open,M,247.5,,247.5,2
Matt LaMarque,100,B,Multi-ply,Open,M,285,,285,1
Eric Wright,110,B,Multi-ply,Open,M,,,,DQ
Ernie Anderson,110,B,Multi-ply,Open,M,182.5,,182.5,8
Dan Tubridy,110,B,Multi-ply,Open,M,207.5,,207.5,7
S. Mathis,110,B,Multi-ply,Open,M,210,,210,6
Malik Adam,110,B,Multi-ply,Open,M,242.5,,242.5,5
Bob Gunn,110,B,Multi-ply,Open,M,247.5,,247.5,4
Russell Kitani,110,B,Multi-ply,Open,M,260,,260,3
F. Wakakuwa,110,B,Multi-ply,Open,M,282.5,,282.5,2
Jason Jackson,110,B,Multi-ply,Open,M,295,,295,1
Thomas Kesling,117.5,B,Multi-ply,Open,M,212.5,,212.5,8
Pat Holloway,117.5,B,Multi-ply,Open,M,220,,220,7
George Sutton,117.5,B,Multi-ply,Open,M,222.5,,222.5,6
Mike Camlin,117.5,B,Multi-ply,Open,M,240,,240,4
Mike Castillo,117.5,B,Multi-ply,Open,M,240,,240,5
Rich Ludlam,117.5,B,Multi-ply,Open,M,242.5,,242.5,3
George Nelson,117.5,B,Multi-ply,Open,M,255,,255,2
Paul Vargo,117.5,B,Multi-ply,Open,M,265,,265,1
Norman Rial,125,B,Multi-ply,Open,M,217.5,,217.5,6
David Freeland,125,B,Multi-ply,Open,M,240,,240,5
D. Thompson,125,B,Multi-ply,Open,M,262.5,,262.5,4
John Erickson,125,B,Multi-ply,Open,M,275,,275,2
Nils Sjödin,125,B,Multi-ply,Open,M,275,,275,3
Jeff Peshek,125,B,Multi-ply,Open,M,282.5,,282.5,1
R. La Rocca,140,B,Multi-ply,Open,M,240,,240,8
Dave Forstner,140,B,Multi-ply,Open,M,250,,250,6
Steve Wong,140,B,Multi-ply,Open,M,272.5,,272.5,4
Tiny Meeker,140,B,Multi-ply,Open,M,282.5,,282.5,3
Schermerhorn,140,B,Multi-ply,Open,M,295,,295,2
David Edgell,140+,B,Multi-ply,Open,M,190,,190,11
David Chase,140+,B,Multi-ply,Open,M,237.5,,237.5,9
Joaquin Diaz de Leon,140+,B,Multi-ply,Open,M,237.5,,237.5,10
T. Lualemaga,140+,B,Multi-ply,Open,M,245,,245,7
J. Crawford,140+,B,Multi-ply,Open,M,260,,260,5
Bill Gillespie,140+,B,Multi-ply,Open,M,310,,310,1
Nick Szanyi,82.5,B,Multi-ply,Special Olympics,M,57.5,,57.5,3
Thomas Schone,82.5,B,Multi-ply,Special Olympics,M,62.5,,62.5,2
Graeme Gibson,82.5,B,Multi-ply,Special Olympics,M,72.5,,72.5,1
A. Belavilas,90,B,Multi-ply,Special Olympics,M,70,,70,3
A. Markham,90,B,Multi-ply,Special Olympics,M,85,,85,2
Nick Ceglia,90,B,Multi-ply,Special Olympics,M,105,,105,1
Brady Tanner,110,B,Multi-ply,Special Olympics,M,140,,140,1
J. Fernandez,60,B,Multi-ply,Submasters 34-39,M,110,,110,1
R. Harrahill,67.5,B,Multi-ply,Submasters 34-39,M,107.5,,107.5,7
R. Hilderbrand,67.5,B,Multi-ply,Submasters 34-39,M,125,,125,6
M. Thomas,67.5,B,Multi-ply,Submasters 34-39,M,130,,130,5
M. Haynes,67.5,B,Multi-ply,Submasters 34-39,M,142.5,,142.5,4
B. Montague,67.5,B,Multi-ply,Submasters 34-39,M,152.5,,152.5,3
Sam Norris,67.5,B,Multi-ply,Submasters 34-39,M,157.5,,157.5,2
D. Matsumoto,67.5,B,Multi-ply,Submasters 34-39,M,202.5,,202.5,1
R. Anderson,75,B,Multi-ply,Submasters 34-39,M,120,,120,2
M. Hokoana,75,B,Multi-ply,Submasters 34-39,M,160,,160,1
R. Espinoza,82.5,B,Multi-ply,Submasters 34-39,M,142.5,,142.5,9
K. Rothe,82.5,B,Multi-ply,Submasters 34-39,M,160,,160,8
Alex Zorbas,82.5,B,Multi-ply,Submasters 34-39,M,165,,165,7
Darren Carr,82.5,B,Multi-ply,Submasters 34-39,M,167.5,,167.5,6
Keith Daniels,82.5,B,Multi-ply,Submasters 34-39,M,185,,185,5
Charles Phillips,82.5,B,Multi-ply,Submasters 34-39,M,187.5,,187.5,4
Tolan Furusho,82.5,B,Multi-ply,Submasters 34-39,M,195,,195,3
Brett Campbell,82.5,B,Multi-ply,Submasters 34-39,M,205,,205,1
J. Cunningham,82.5,B,Multi-ply,Submasters 34-39,M,205,,205,2
Todd Smith,90,B,Multi-ply,Submasters 34-39,M,,,,DQ
M. Happach,90,B,Multi-ply,Submasters 34-39,M,157.5,,157.5,6
D. Sugimoto,90,B,Multi-ply,Submasters 34-39,M,177.5,,177.5,5
Don Moser,90,B,Multi-ply,Submasters 34-39,M,185,,185,4
A. Planchon,90,B,Multi-ply,Submasters 34-39,M,215,,215,3
James Whitney,90,B,Multi-ply,Submasters 34-39,M,217.5,,217.5,2
Bill Shalkowski,90,B,Multi-ply,Submasters 34-39,M,230,,230,1
Mark Hatfield,100,B,Multi-ply,Submasters 34-39,M,192.5,,192.5,6
David Jacobson,100,B,Multi-ply,Submasters 34-39,M,197.5,,197.5,5
C. Humphries,100,B,Multi-ply,Submasters 34-39,M,207.5,,207.5,4
John Mendoza,100,B,Multi-ply,Submasters 34-39,M,230,,230,3
Mike Ludovico,100,B,Multi-ply,Submasters 34-39,M,235,,235,2
Ed Wilkinson,100,B,Multi-ply,Submasters 34-39,M,242.5,,242.5,1
Robert Bills,110,B,Multi-ply,Submasters 34-39,M,170,,170,3
Craig Mitchell,110,B,Multi-ply,Submasters 34-39,M,215,,215,2
Russell Kitani,110,B,Multi-ply,Submasters 34-39,M,260,,260,1
Lance Davis,117.5,B,Multi-ply,Submasters 34-39,M,167.5,,167.5,3
Pat Holloway,117.5,B,Multi-ply,Submasters 34-39,M,220,,220,2
Scott Hoekstra,117.5,B,Multi-ply,Submasters 34-39,M,267.5,,267.5,1
Jim Yoder,125,B,Multi-ply,Submasters 34-39,M,202.5,,202.5,3
Wayne Watts,125,B,Multi-ply,Submasters 34-39,M,232.5,,232.5,2
D. Thompson,125,B,Multi-ply,Submasters 34-39,M,262.5,,262.5,1
Ray Gandeza,140,B,Multi-ply,Submasters 34-39,M,172.5,,172.5,3
Steve Wong,140,B,Multi-ply,Submasters 34-39,M,272.5,,272.5,2
Bobby Leitz,140,B,Multi-ply,Submasters 34-39,M,317.5,,317.5,1
V. Eldridge,140+,B,Multi-ply,Submasters 34-39,M,215,,215,1
Carmela Baqui,44,B,Multi-ply,Submasters 34-39,F,57.5,,57.5,1
Claudia Salo,52,B,Multi-ply,Submasters 34-39,F,55,,55,1
Julie Green,56,B,Multi-ply,Submasters 34-39,F,75,,75,1
J. Braguine,56,B,Multi-ply,Submasters 34-39,F,75,,75,2
Sara Hill,60,B,Multi-ply,Submasters 34-39,F,70,,70,2
Lisa Balestrini,60,B,Multi-ply,Submasters 34-39,F,70,,70,3
L. Montenegro,60,B,Multi-ply,Submasters 34-39,F,92.5,,92.5,1
Lisa Saunders,67.5,B,Multi-ply,Submasters 34-39,F,47.5,,47.5,2
Jeanne Watts,67.5,B,Multi-ply,Submasters 34-39,F,97.5,,97.5,1
K. Mahoney,75,B,Multi-ply,Submasters 34-39,F,75,,75,1
Gave England,90,B,Multi-ply,Submasters 34-39,F,82.5,,82.5,2
Kari Sabin,90,B,Multi-ply,Submasters 34-39,F,125,,125,1
Marilyn Wilber,90+,B,Multi-ply,Submasters 34-39,F,75,,75,4
M. Williamson,90+,B,Multi-ply,Submasters 34-39,F,97.5,,97.5,3
Jane Costa,90+,B,Multi-ply,Submasters 34-39,F,105,,105,2
Kelly Franklin,90+,B,Multi-ply,Submasters 34-39,F,160,,160,1
S. Karapetyan,52,B,Multi-ply,Teen 13-15,M,67.5,,67.5,3
Richard Hunt,52,B,Multi-ply,Teen 13-15,M,70,,70,2
Keoki Akina,52,B,Multi-ply,Teen 13-15,M,87.5,,87.5,1
Tim Clendaniel,52,B,Multi-ply,Teen 13-15,M,,,,DQ
S. Pyakurel,56,B,Multi-ply,Teen 13-15,M,65,,65,2
Trent Corey,56,B,Multi-ply,Teen 13-15,M,77.5,,77.5,1
Justin Berman,82.5,B,Multi-ply,Teen 13-15,M,77.5,,77.5,4
Aaron Clovsky,82.5,B,Multi-ply,Teen 13-15,M,102.5,,102.5,3
Roland McNeil,82.5,B,Multi-ply,Teen 13-15,M,110,,110,2
Eli Howard,82.5,B,Multi-ply,Teen 13-15,M,137.5,,137.5,1
Clayton Pinson,90,B,Multi-ply,Teen 13-15,M,137.5,,137.5,1
Stefen Hudson,48,B,Multi-ply,Teen 16-19,M,40,,40,1
Randall Griggs,52,B,Multi-ply,Teen 16-19,M,75,,75,1
A. Karapetyan,60,B,Multi-ply,Teen 16-19,M,105,,105,1
Mike Thomas,67.5,B,Multi-ply,Teen 16-19,M,52.5,,52.5,4
Cory Johnson,67.5,B,Multi-ply,Teen 16-19,M,85,,85,3
Brvant Watson,67.5,B,Multi-ply,Teen 16-19,M,115,,115,2
Kyle Chiodo,67.5,B,Multi-ply,Teen 16-19,M,150,,150,1
Thomas Horne,75,B,Multi-ply,Teen 16-19,M,100,,100,6
Francisco Ruiz,75,B,Multi-ply,Teen 16-19,M,100,,100,7
Manuel Montes,75,B,Multi-ply,Teen 16-19,M,120,,120,5
Coty Hargett,75,B,Multi-ply,Teen 16-19,M,122.5,,122.5,4
C. Whittaker,75,B,Multi-ply,Teen 16-19,M,135,,135,2
C. Cederholm,75,B,Multi-ply,Teen 16-19,M,135,,135,3
Derek Chiodo,75,B,Multi-ply,Teen 16-19,M,147.5,,147.5,1
Kevin Knack,82.5,B,Multi-ply,Teen 16-19,M,110,,110,5
M. Minahan,82.5,B,Multi-ply,Teen 16-19,M,127.5,,127.5,4
Jason Perez,82.5,B,Multi-ply,Teen 16-19,M,137.5,,137.5,3
Curtis Watson,82.5,B,Multi-ply,Teen 16-19,M,140,,140,2
Bobby Hackett,82.5,B,Multi-ply,Teen 16-19,M,187.5,,187.5,1
Andy Munsey,90,B,Multi-ply,Teen 16-19,M,100,,100,6
D. McFarland,90,B,Multi-ply,Teen 16-19,M,120,,120,5
Sean Mahoney,90,B,Multi-ply,Teen 16-19,M,122.5,,122.5,4
Benny Farias,90,B,Multi-ply,Teen 16-19,M,132.5,,132.5,3
David Rogers,90,B,Multi-ply,Teen 16-19,M,142.5,,142.5,2
S. Herrmann,90,B,Multi-ply,Teen 16-19,M,175,,175,1
A. Contreras,100,B,Multi-ply,Teen 16-19,M,105,,105,4
Tim Peterson,100,B,Multi-ply,Teen 16-19,M,120,,120,3
Josh Black,100,B,Multi-ply,Teen 16-19,M,155,,155,2
Chad Anderson,100,B,Multi-ply,Teen 16-19,M,170,,170,1
Jim Pritchett,110,B,Multi-ply,Teen 16-19,M,130,,130,2
Brian Hamilton,110,B,Multi-ply,Teen 16-19,M,232.5,,232.5,1
Rabun Proctor,117.5,B,Multi-ply,Teen 16-19,M,127.5,,127.5,2
Tyler George,117.5,B,Multi-ply,Teen 16-19,M,192.5,,192.5,1
J. Van Kolck,56,B,Multi-ply,Teen 13-15,F,40,,40,2
Karina Phipps,56,B,Multi-ply,Teen 13-15,F,50,,50,1
Kristy Brown,60,B,Multi-ply,Teen 13-15,F,72.5,,72.5,1
A. Van Zandt,67.5,B,Multi-ply,Teen 13-15,F,55,,55,1
Nikki Williams,75,B,Multi-ply,Teen 13-15,F,72.5,,72.5,1
Hoku Nohara,90,B,Multi-ply,Teen 13-15,F,110,,110,1
Christian Day,67.5,B,Multi-ply,Teen 16-19,F,60,,60,1
A. Proctor,75,B,Multi-ply,Teen 16-19,F,55,,55,2
Kelly Buschke,75,B,Multi-ply,Teen 16-19,F,62.5,,62.5,1
B. Brown,90,B,Multi-ply,Teen 16-19,F,62.5,,62.5,1
Jana Prothman,90+,B,Multi-ply,Teen 16-19,F,80,,80,1
C. Fernandez,44,B,Multi-ply,Open,F,80,,80,1
Kelly LaCour,48,B,Multi-ply,Open,F,42.5,,42.5,1
L. Christopher,52,B,Multi-ply,Open,F,60,,60,4
Danna Snow,52,B,Multi-ply,Open,F,67.5,,67.5,3
Betty Lafferty,52,B,Multi-ply,Open,F,70,,70,2
S. Wahlstrom,52,B,Multi-ply,Open,F,92.5,,92.5,1
Donna Arndt,56,B,Multi-ply,Open,F,87.5,,87.5,2
Jill Yamashita,56,B,Multi-ply,Open,F,87.5,,87.5,3
Carol Ann Myers,56,B,Multi-ply,Open,F,90,,90,1
Jessica Miller,60,B,Multi-ply,Open,F,57.5,,57.5,2
Lynn Hunter,60,B,Multi-ply,Open,F,65,,65,1
Kim Stolz,67.5,B,Multi-ply,Open,F,52.5,,52.5,3
Jeanne Watts,67.5,B,Multi-ply,Open,F,97.5,,97.5,2
Victoria Reese,67.5,B,Multi-ply,Open,F,112.5,,112.5,1
Sandra Segal,75,B,Multi-ply,Open,F,37.5,,37.5,5
Cindy Weber,75,B,Multi-ply,Open,F,77.5,,77.5,4
S. Armstrong,75,B,Multi-ply,Open,F,85,,85,3
C. Camlin,75,B,Multi-ply,Open,F,112.5,,112.5,2
Lyn Silbert,75,B,Multi-ply,Open,F,142.5,,142.5,1
Gladys Barrera,82.5,B,Multi-ply,Open,F,32.5,,32.5,3
C. Sterling,82.5,B,Multi-ply,Open,F,95,,95,2
M. Caballeros,82.5,B,Multi-ply,Open,F,122.5,,122.5,1
R. Nohara,90,B,Multi-ply,Open,F,110,,110,2
M. Ichiyama,90,B,Multi-ply,Open,F,112.5,,112.5,1
Dawn Richards,90+,B,Multi-ply,Open,F,95,,95,3
Brooke Bourg,90+,B,Multi-ply,Open,F,122.5,,122.5,2
Kelly Franklin,90+,B,Multi-ply,Open,F,160,,160,1
S. Stowers,44,B,Multi-ply,Masters 40-46,F,45,,45,1
Desiree Brown,48,B,Multi-ply,Masters 40-46,F,67.5,,67.5,1
L. Christopher,52,B,Multi-ply,Masters 40-46,F,60,,60,1
Jeanne Morris,56,B,Multi-ply,Masters 40-46,F,37.5,,37.5,3
Karen Olson,56,B,Multi-ply,Masters 40-46,F,50,,50,2
Donna Arndt,56,B,Multi-ply,Masters 40-46,F,87.5,,87.5,1
L. Rosales-Buie,60,B,Multi-ply,Masters 40-46,F,67.5,,67.5,4
Jill Deuser,60,B,Multi-ply,Masters 40-46,F,80,,80,3
Alene Brisbane,60,B,Multi-ply,Masters 40-46,F,87.5,,87.5,2
S. Gomez-Leon,60,B,Multi-ply,Masters 40-46,F,102.5,,102.5,1
Julie Tippets,67.5,B,Multi-ply,Masters 40-46,F,47.5,,47.5,5
Aura Paz,67.5,B,Multi-ply,Masters 40-46,F,70,,70,3
Silvia Maher,67.5,B,Multi-ply,Masters 40-46,F,70,,70,4
Brenda Nolen,67.5,B,Multi-ply,Masters 40-46,F,85,,85,2
S. Hedman,67.5,B,Multi-ply,Masters 40-46,F,90,,90,1
Shelley Moore,75,B,Multi-ply,Masters 40-46,F,50,,50,3
Cindy Weber,75,B,Multi-ply,Masters 40-46,F,77.5,,77.5,2
Sheri Klocke,75,B,Multi-ply,Masters 40-46,F,107.5,,107.5,1
A. Valenzuela,82.5,B,Multi-ply,Masters 40-46,F,62.5,,62.5,3
Carla Ugarte,82.5,B,Multi-ply,Masters 40-46,F,77.5,,77.5,2
A.Sozzi-Dangel,82.5,B,Multi-ply,Masters 40-46,F,85,,85,1
Diana Plank,90,B,Multi-ply,Masters 40-46,F,65,,65,2
Kelli Sandoval,90,B,Multi-ply,Masters 40-46,F,87.5,,87.5,1
Janet Hase,90+,B,Multi-ply,Masters 40-46,F,87.5,,87.5,2
Chervl Williams,90+,B,Multi-ply,Masters 40-46,F,90,,90,1
Anna James,48,B,Multi-ply,Masters 47-53,F,72.5,,72.5,1
Carrie Maha,56,B,Multi-ply,Masters 47-53,F,65,,65,2
Carol Ann Myers,56,B,Multi-ply,Masters 47-53,F,90,,90,1
Donna Sanford,60,B,Multi-ply,Masters 47-53,F,67.5,,67.5,2
K. C. Inlow,60,B,Multi-ply,Masters 47-53,F,80,,80,1
Kim Davis,67.5,B,Multi-ply,Masters 47-53,F,50,,50,1
Jane Henner,75,B,Multi-ply,Masters 47-53,F,65,,65,2
C. Luprete,75,B,Multi-ply,Masters 47-53,F,70,,70,1
Maria Richards,82.5,B,Multi-ply,Masters 47-53,F,60,,60,2
Julie Orr,82.5,B,Multi-ply,Masters 47-53,F,100,,100,1
Kathy Cash,90,B,Multi-ply,Masters 47-53,F,60,,60,1
Margie Huston,90+,B,Multi-ply,Masters 47-53,F,62.5,,62.5,2
Sue Vaterlaus,90+,B,Multi-ply,Masters 47-53,F,87.5,,87.5,1
H. Rodriguez,52,B,Multi-ply,Masters 54-60,F,67.5,,67.5,1
Merle Montani,60,B,Multi-ply,Masters 54-60,F,40,,40,1
Barbara Gay,67.5,B,Multi-ply,Masters 54-60,F,45,,45,3
C. Heckathorn,67.5,B,Multi-ply,Masters 54-60,F,57.5,,57.5,2
B. Anderson,67.5,B,Multi-ply,Masters 54-60,F,67.5,,67.5,1
Louise Jones,82.5,B,Multi-ply,Masters 54-60,F,57.5,,57.5,1
D. Ivev-Vick,90,B,Multi-ply,Masters 54-60,F,40,,40,3
Pat Robey,90,B,Multi-ply,Masters 54-60,F,82.5,,82.5,1
Karen Polansky,90,B,Multi-ply,Masters 54-60,F,82.5,,82.5,2
Delia Chilgren,90+,B,Multi-ply,Masters 54-60,F,45,,45,1
Betty Lafferty,52,B,Multi-ply,Masters 61-67,F,67.5,,67.5,1
Sue Clark,67.5,B,Multi-ply,Masters 61-67,F,42.5,,42.5,1
Sandra Segal,75,B,Multi-ply,Masters 61-67,F,37.5,,37.5,1
Marcia Turner,67.5,B,Multi-ply,Masters 68-74,F,62.5,,62.5,1
Daisy Chase,75,B,Multi-ply,Masters 68-74,F,40,,40,1
M. Whinston,60,B,Multi-ply,Masters 75-79,F,32.5,,32.5,1
Randall Griggs,52,D,Multi-ply,Class I,M,,155,155,1
Jon Corpus,60,D,Multi-ply,Class I,M,,170,170,1
Eric Nahorniak,67.5,D,Multi-ply,Class I,M,,195,195,5
A. Fernandez,67.5,D,Multi-ply,Class I,M,,205,205,4
David Flores,67.5,D,Multi-ply,Class I,M,,210,210,3
Ian Corpus,67.5,D,Multi-ply,Class I,M,,217.5,217.5,2
Jan Corpus,67.5,D,Multi-ply,Class I,M,,222.5,222.5,1
Francisco Ruiz,75,D,Multi-ply,Class I,M,,180,180,5
Doug Knudsen,75,D,Multi-ply,Class I,M,,200,200,4
Marloe Mosley,75,D,Multi-ply,Class I,M,,205,205,3
James Christian,75,D,Multi-ply,Class I,M,,210,210,2
Manuel Montes,75,D,Multi-ply,Class I,M,,240,240,1
Lamon Bater,82.5,D,Multi-ply,Class I,M,,182.5,182.5,6
Vilmar Oliveira,82.5,D,Multi-ply,Class I,M,,200,200,5
R. Espinoza,82.5,D,Multi-ply,Class I,M,,212.5,212.5,4
Kenny Rothe,82.5,D,Multi-ply,Class I,M,,245,245,3
AndersonLujan,82.5,D,Multi-ply,Class I,M,,247.5,247.5,2
Daniel Chiras,82.5,D,Multi-ply,Class I,M,,257.5,257.5,1
Aaron Pina,82.5,D,Multi-ply,Class I,M,,,,DQ
D. McFarland,90,D,Multi-ply,Class I,M,,220,220,5
Pablo Arriaga,90,D,Multi-ply,Class I,M,,225,225,4
Matt Christie,90,D,Multi-ply,Class I,M,,245,245,2
Al Tortorelli,90,D,Multi-ply,Class I,M,,245,245,3
Mark Pearce,90,D,Multi-ply,Class I,M,,260,260,1
John Rowland,100,D,Multi-ply,Class I,M,,207.5,207.5,9
Thomas Reiher,100,D,Multi-ply,Class I,M,,237.5,237.5,7
Marv Landon,100,D,Multi-ply,Class I,M,,237.5,237.5,8
Dave Rodgers,100,D,Multi-ply,Class I,M,,240,240,6
Michael Rainey,100,D,Multi-ply,Class I,M,,242.5,242.5,5
Lorenzo Nino,100,D,Multi-ply,Class I,M,,247.5,247.5,4
Carlos Chacon,100,D,Multi-ply,Class I,M,,250,250,3
John Boettger,100,D,Multi-ply,Class I,M,,267.5,267.5,2
I. Soekardi,100,D,Multi-ply,Class I,M,,290,290,1
Harry Munro,110,D,Multi-ply,Class I,M,,67.5,67.5,9
Dennis Schmidt,110,D,Multi-ply,Class I,M,,245,245,8
Henry Higgins,110,D,Multi-ply,Class I,M,,255,255,7
Jason Gibson,110,D,Multi-ply,Class I,M,,260,260,6
Ed Barnes,110,D,Multi-ply,Class I,M,,265,265,4
H. Barrett,110,D,Multi-ply,Class I,M,,265,265,5
Robert Bills,110,D,Multi-ply,Class I,M,,275,275,3
B. Runnestrand,110,D,Multi-ply,Class I,M,,285,285,2
Joseph Miller,110,D,Multi-ply,Class I,M,,292.5,292.5,1
Shawn Hartley,117.5,D,Multi-ply,Class I,M,,222.5,222.5,6
Joe Garcia,117.5,D,Multi-ply,Class I,M,,242.5,242.5,5
Tim Prince,117.5,D,Multi-ply,Class I,M,,245,245,4
Patrick Dean,117.5,D,Multi-ply,Class I,M,,252.5,252.5,3
Eric Krych,117.5,D,Multi-ply,Class I,M,,292.5,292.5,2
John Hudson,117.5,D,Multi-ply,Class I,M,,297.5,297.5,1
Carl Wimmer,125,D,Multi-ply,Class I,M,,245,245,2
Tom Ekenberg,125,D,Multi-ply,Class I,M,,295,295,1
Leo Contreras,140,D,Multi-ply,Class I,M,,222.5,222.5,3
David Blanke,140,D,Multi-ply,Class I,M,,242.5,242.5,2
William Mott,140,D,Multi-ply,Class I,M,,305,305,1
Jeffrey Place,140+,D,Multi-ply,Class I,M,,255,255,4
Alan Valentin,140+,D,Multi-ply,Class I,M,,265,265,3
David Edgell,140+,D,Multi-ply,Class I,M,,287.5,287.5,2
Brett Fleak,140+,D,Multi-ply,Class I,M,,300,300,1
Nick Sinardi,90,D,Multi-ply,Disabled,M,,252.5,252.5,1
Charles Siddle,100,D,Multi-ply,Disabled,M,,125,125,1
Cody Colchado,110,D,Multi-ply,Disabled,M,,257.5,257.5,1
Jon Corpus,60,D,Multi-ply,Juniors 20-25,M,,170,170,2
Richard Hawthorne,60,D,Multi-ply,Juniors 20-25,M,,262.5,262.5,1
Joshua Reyes,67.5,D,Multi-ply,Juniors 20-25,M,,200,200,3
Ian Corpus,67.5,D,Multi-ply,Juniors 20-25,M,,217.5,217.5,2
Nick Dunn,67.5,D,Multi-ply,Juniors 20-25,M,,240,240,1
Kyle Herzik,75,D,Multi-ply,Juniors 20-25,M,,160,160,7
John Alves,75,D,Multi-ply,Juniors 20-25,M,,165,165,6
J. McWalter,75,D,Multi-ply,Juniors 20-25,M,,172.5,172.5,5
Doug Knudsen,75,D,Multi-ply,Juniors 20-25,M,,200,200,4
A. Stephens,75,D,Multi-ply,Juniors 20-25,M,,232.5,232.5,3
J. Benezra,75,D,Multi-ply,Juniors 20-25,M,,252.5,252.5,2
Ryan Snelling,75,D,Multi-ply,Juniors 20-25,M,,262.5,262.5,1
Justin Rodgers,82.5,D,Multi-ply,Juniors 20-25,M,,227.5,227.5,4
P. Alfredsson,82.5,D,Multi-ply,Juniors 20-25,M,,245,245,3
Daniel Chiras,82.5,D,Multi-ply,Juniors 20-25,M,,257.5,257.5,2
Ryan Lewis,82.5,D,Multi-ply,Juniors 20-25,M,,275,275,1
Pat McCusker,90,D,Multi-ply,Juniors 20-25,M,,215,215,5
Nick Luiz,90,D,Multi-ply,Juniors 20-25,M,,227.5,227.5,4
Matt Christie,90,D,Multi-ply,Juniors 20-25,M,,245,245,3
Matt Bell,90,D,Multi-ply,Juniors 20-25,M,,252.5,252.5,2
Tony Caprari,90,D,Multi-ply,Juniors 20-25,M,,320,320,1
Jamie Bennett,100,D,Multi-ply,Juniors 20-25,M,,187.5,187.5,3
N. La Chappelle,100,D,Multi-ply,Juniors 20-25,M,,255,255,2
Chad Matthews,100,D,Multi-ply,Juniors 20-25,M,,285,285,1
Jon Leftwich,110,D,Multi-ply,Juniors 20-25,M,,202.5,202.5,5
M. Blankenship,110,D,Multi-ply,Juniors 20-25,M,,232.5,232.5,4
D. Schmidt Jr,110,D,Multi-ply,Juniors 20-25,M,,245,245,3
Josh Nelson,110,D,Multi-ply,Juniors 20-25,M,,250,250,2
Brad Arbic,110,D,Multi-ply,Juniors 20-25,M,,265,265,1
Patrick Dean,117.5,D,Multi-ply,Juniors 20-25,M,,252.5,252.5,2
Todd Cowley,117.5,D,Multi-ply,Juniors 20-25,M,,295,295,1
David Freeland,125,D,Multi-ply,Juniors 20-25,M,,300,300,2
Jerry Pritchett,125,D,Multi-ply,Juniors 20-25,M,,335,335,1
O. Markham,48,D,Multi-ply,Juniors 20-25,F,,107.5,107.5,1
S. Hagedorn,56,D,Multi-ply,Juniors 20-25,F,,122.5,122.5,2
Erica Haislar,56,D,Multi-ply,Juniors 20-25,F,,132.5,132.5,1
Crystal Luiz,67.5,D,Multi-ply,Juniors 20-25,F,,125,125,2
Gina Gendotti,67.5,D,Multi-ply,Juniors 20-25,F,,137.5,137.5,1
S. Armstrong,75,D,Multi-ply,Juniors 20-25,F,,147.5,147.5,2
Riikka Ylitalo,75,D,Multi-ply,Juniors 20-25,F,,202.5,202.5,1
Kristy Litwinski,82.5,D,Multi-ply,Juniors 20-25,F,,150,150,1
Zachary Clark,100,D,Multi-ply,Law/Fire Masters 40-47,M,,287.5,287.5,1
I. Soekardi,110,D,Multi-ply,Law/Fire Masters 40-47,M,,300,300,1
Ken Eyre,125,D,Multi-ply,Law/Fire Masters 40-47,M,,230,230,2
Tom Ovens,125,D,Multi-ply,Law/Fire Masters 40-47,M,,257.5,257.5,1
Walt Faulkner,140,D,Multi-ply,Law/Fire Masters 40-47,M,,327.5,327.5,1
C. McFarland,90,D,Multi-ply,Law/Fire Masters 48+,M,,252.5,252.5,1
W. Kaimikaua,100,D,Multi-ply,Law/Fire Masters 48+,M,,167.5,167.5,1
J. Rene Reyes,125,D,Multi-ply,Law/Fire Masters 48+,M,,200,200,2
Manny Burruel,125,D,Multi-ply,Law/Fire Masters 48+,M,,295,295,1
Paul Goodwin,140,D,Multi-ply,Law/Fire Masters 48+,M,,215,215,1
L. Rosales-Buie,60,D,Multi-ply,Law/Fire Masters 40-47,F,,140,140,1
Pablo Arriaga,90,D,Multi-ply,Law/Fire,M,,225,225,3
C. McFarland,90,D,Multi-ply,Law/Fire,M,,252.5,252.5,2
W. Brantlev,90,D,Multi-ply,Law/Fire,M,,262.5,262.5,1
Zachary Clark,100,D,Multi-ply,Law/Fire,M,,287.5,287.5,1
Matt LaMarque,100,D,Multi-ply,Law/Fire,M,,287.5,287.5,2
Greg Babst,110,D,Multi-ply,Law/Fire,M,,282.5,282.5,1
Tim Prince,117.5,D,Multi-ply,Law/Fire,M,,245,245,3
Todd Cowley,117.5,D,Multi-ply,Law/Fire,M,,295,295,2
Mike Camlin,117.5,D,Multi-ply,Law/Fire,M,,340,340,1
Carl Wimmer,125,D,Multi-ply,Law/Fire,M,,245,245,1
T. Anthony,90,D,Multi-ply,Law/Fire,F,,190,190,1
R. Anderson,75,D,Multi-ply,Law/Fire Submasters,M,,175,175,1
Lorenzo Nino,100,D,Multi-ply,Law/Fire Submasters,M,,247.5,247.5,1
Victor Shaw,117.5,D,Multi-ply,Law/Fire Submasters,M,,210,210,3
Lance Davis,117.5,D,Multi-ply,Law/Fire Submasters,M,,265,265,2
Rick Russell,117.5,D,Multi-ply,Law/Fire Submasters,M,,275,275,1
Don Kralovetz,140+,D,Multi-ply,Law/Fire Submasters,M,,267.5,267.5,1
Karen Gordon,56,D,Multi-ply,Law/Fire Submasters,F,,137.5,137.5,1
G. Murphy Jr,56,D,Multi-ply,Masters 40-46,M,,140,140,1
Sam Tsang,75,D,Multi-ply,Masters 40-46,M,,190,190,3
Marloe Mosley,75,D,Multi-ply,Masters 40-46,M,,207.5,207.5,2
Leo Mattoni,75,D,Multi-ply,Masters 40-46,M,,230,230,1
David Brekke,82.5,D,Multi-ply,Masters 40-46,M,,197.5,197.5,3
Scott Hubert,82.5,D,Multi-ply,Masters 40-46,M,,260,260,2
L. Woodley,82.5,D,Multi-ply,Masters 40-46,M,,312.5,312.5,1
M. McCormack,90,D,Multi-ply,Masters 40-46,M,,227.5,227.5,3
Ted Carter,90,D,Multi-ply,Masters 40-46,M,,257.5,257.5,2
Frank Peters,90,D,Multi-ply,Masters 40-46,M,,267.5,267.5,1
Sandy Norton,100,D,Multi-ply,Masters 40-46,M,,182.5,182.5,11
Mike Bennett,100,D,Multi-ply,Masters 40-46,M,,235,235,10
George Phipps,100,D,Multi-ply,Masters 40-46,M,,242.5,242.5,9
Don Rygh Jr,100,D,Multi-ply,Masters 40-46,M,,252.5,252.5,7
D. Burlingame,100,D,Multi-ply,Masters 40-46,M,,252.5,252.5,8
Kevin Holston,100,D,Multi-ply,Masters 40-46,M,,275,275,6
Jerry Tremblay,100,D,Multi-ply,Masters 40-46,M,,282.5,282.5,5
Rick Garcia,100,D,Multi-ply,Masters 40-46,M,,295,295,4
Schoenebeck,100,D,Multi-ply,Masters 40-46,M,,297.5,297.5,3
Willie McCoy,100,D,Multi-ply,Masters 40-46,M,,322.5,322.5,2
G. Herring,100,D,Multi-ply,Masters 40-46,M,,340,340,1
Cody Colchado,110,D,Multi-ply,Masters 40-46,M,,257.5,257.5,3
Al Dawson,110,D,Multi-ply,Masters 40-46,M,,287.5,287.5,2
I. Soekardi,110,D,Multi-ply,Masters 40-46,M,,300,300,1
T. Christensen,117.5,D,Multi-ply,Masters 40-46,M,,272.5,272.5,2
Robert Vessels,117.5,D,Multi-ply,Masters 40-46,M,,322.5,322.5,1
Ron West,125,D,Multi-ply,Masters 40-46,M,,257.5,257.5,2
Bobby Driskill,125,D,Multi-ply,Masters 40-46,M,,275,275,1
Joe Mickelson,140,D,Multi-ply,Masters 40-46,M,,265,265,2
A. Adalsteinsson,140,D,Multi-ply,Masters 40-46,M,,,,DQ
Andv Medak,140,D,Multi-ply,Masters 40-46,M,,325,325,1
Paul Ratsch,140+,D,Multi-ply,Masters 40-46,M,,292.5,292.5,1
Gary Bobrovitz,60,D,Multi-ply,Masters 47-53,M,,137.5,137.5,1
David Higgins,67.5,D,Multi-ply,Masters 47-53,M,,202.5,202.5,2
D. Kaneshiro,67.5,D,Multi-ply,Masters 47-53,M,,250,250,1
Alan Sheen,75,D,Multi-ply,Masters 47-53,M,,162.5,162.5,2
R. Cirigliano,75,D,Multi-ply,Masters 47-53,M,,272.5,272.5,1
Eric Ansberry,82.5,D,Multi-ply,Masters 47-53,M,,182.5,182.5,5
F. Martichuski,82.5,D,Multi-ply,Masters 47-53,M,,187.5,187.5,4
Carl Groves,82.5,D,Multi-ply,Masters 47-53,M,,205,205,3
Perry Plush,82.5,D,Multi-ply,Masters 47-53,M,,250,250,2
R. Hagedorn,82.5,D,Multi-ply,Masters 47-53,M,,265,265,1
Cecil Wood,90,D,Multi-ply,Masters 47-53,M,,182.5,182.5,6
David Bertier,90,D,Multi-ply,Masters 47-53,M,,250,250,5
Tom Jackson,90,D,Multi-ply,Masters 47-53,M,,255,255,3
Mick Stevens,90,D,Multi-ply,Masters 47-53,M,,255,255,4
Ron McNeely,90,D,Multi-ply,Masters 47-53,M,,257.5,257.5,2
A. Wahlund,90,D,Multi-ply,Masters 47-53,M,,285,285,1
Byron Sanford,100,D,Multi-ply,Masters 47-53,M,,182.5,182.5,5
Harvey Barton,100,D,Multi-ply,Masters 47-53,M,,227.5,227.5,4
Marv Landon,100,D,Multi-ply,Masters 47-53,M,,237.5,237.5,3
Ronald Proctor,100,D,Multi-ply,Masters 47-53,M,,252.5,252.5,2
Kevin Fisher,100,D,Multi-ply,Masters 47-53,M,,290,290,1
Mike Murphy,110,D,Multi-ply,Masters 47-53,M,,217.5,217.5,2
Greg Prothmar,110,D,Multi-ply,Masters 47-53,M,,250,250,1
Keith Huffer,117.5,D,Multi-ply,Masters 47-53,M,,252.5,252.5,2
Buddy McKee,117.5,D,Multi-ply,Masters 47-53,M,,260,260,1
Kevin Smith,117.5,D,Multi-ply,Masters 47-53,M,,,,DQ
Manny Burruel,125,D,Multi-ply,Masters 47-53,M,,295,295,1
Leo Contreras,140,D,Multi-ply,Masters 47-53,M,,222.5,222.5,2
Sam Pedctol,140,D,Multi-ply,Masters 47-53,M,,320,320,1
Brian Phillips,140+,D,Multi-ply,Masters 47-53,M,,227.5,227.5,1
T. Feight,67.5,D,Multi-ply,Masters 54-60,M,,152.5,152.5,1
Terry Bohn,75,D,Multi-ply,Masters 54-60,M,,167.5,167.5,2
James Christian,75,D,Multi-ply,Masters 54-60,M,,210,210,1
D. Hawkinson,82.5,D,Multi-ply,Masters 54-60,M,,205,205,4
G. Alexander,82.5,D,Multi-ply,Masters 54-60,M,,232.5,232.5,3
R. Contreras,82.5,D,Multi-ply,Masters 54-60,M,,240,240,2
T. Henderson,82.5,D,Multi-ply,Masters 54-60,M,,255,255,1
Witten-Hannah,90,D,Multi-ply,Masters 54-60,M,,117.5,117.5,9
P.Aniotzbehere,90,D,Multi-ply,Masters 54-60,M,,157.5,157.5,8
G. Holzinger,90,D,Multi-ply,Masters 54-60,M,,207.5,207.5,7
Jim Snodgrass,90,D,Multi-ply,Masters 54-60,M,,215,215,6
T. Haggenmiller,90,D,Multi-ply,Masters 54-60,M,,227.5,227.5,5
Leonard Lense,90,D,Multi-ply,Masters 54-60,M,,235,235,4
Jamail Birring,90,D,Multi-ply,Masters 54-60,M,,240,240,2
Bob Hochstein,90,D,Multi-ply,Masters 54-60,M,,240,240,3
R. Krowech,90,D,Multi-ply,Masters 54-60,M,,255,255,1
Bobby Dodd,100,D,Multi-ply,Masters 54-60,M,,172.5,172.5,3
Onnie Jordan,100,D,Multi-ply,Masters 54-60,M,,280,280,2
Olicio Filho,100,D,Multi-ply,Masters 54-60,M,,307.5,307.5,1
Cliff Sandberg,110,D,Multi-ply,Masters 54-60,M,,282.5,282.5,1
Bud Davis,117.5,D,Multi-ply,Masters 54-60,M,,272.5,272.5,1
Tom Ekenberg,125,D,Multi-ply,Masters 54-60,M,,295,295,1
P. McKenzie,60,D,Multi-ply,Masters 61-67,M,,202.5,202.5,1
R. Gidcumb,67.5,D,Multi-ply,Masters 61-67,M,,150,150,2
Larry Vincent,67.5,D,Multi-ply,Masters 61-67,M,,167.5,167.5,1
Ron White,75,D,Multi-ply,Masters 61-67,M,,150,150,4
A. Da Silva,75,D,Multi-ply,Masters 61-67,M,,170,170,3
Jack Wolff,75,D,Multi-ply,Masters 61-67,M,,182.5,182.5,2
M.Montgomery,75,D,Multi-ply,Masters 61-67,M,,207.5,207.5,1
William Watts,82.5,D,Multi-ply,Masters 61-67,M,,165,165,3
Ray Skillman,82.5,D,Multi-ply,Masters 61-67,M,,170,170,2
John Scott,82.5,D,Multi-ply,Masters 61-67,M,,200,200,1
T. Lancaster,90,D,Multi-ply,Masters 61-67,M,,242.5,242.5,1
Robert Andre,100,D,Multi-ply,Masters 61-67,M,,217.5,217.5,1
Jimmv Duckett,117.5,D,Multi-ply,Masters 61-67,M,,190,190,1
M. Herrera,140,D,Multi-ply,Masters 61-67,M,,230,230,2
Robert O Smith,140,D,Multi-ply,Masters 61-67,M,,245,245,1
Gary E. Johnson,140,D,Multi-ply,Masters 61-67,M,,,,DQ
Robert Cortes,67.5,D,Multi-ply,Masters 68-74,M,,222.5,222.5,1
W. Kaimikaua,100,D,Multi-ply,Masters 68-74,M,,167.5,167.5,2
George Blue,100,D,Multi-ply,Masters 68-74,M,,217.5,217.5,1
A. Whinston,67.5,D,Multi-ply,Masters 75-79,M,,50,50,2
Floyd Clifford,67.5,D,Multi-ply,Masters 75-79,M,,150,150,1
James Butler,75,D,Multi-ply,Masters 75-79,M,,82.5,82.5,3
Jim Schall,75,D,Multi-ply,Masters 75-79,M,,137.5,137.5,1
Enrique Garcia,75,D,Multi-ply,Masters 75-79,M,,137.5,137.5,2
Bill Grubbs,82.5,D,Multi-ply,Masters 75-79,M,,132.5,132.5,1
Jack Heizelman,67.5,D,Multi-ply,Masters 80+,M,,65,65,1
Robert Stephan,75,D,Multi-ply,Masters 80+,M,,160,160,1
S. Montrose,82.5,D,Multi-ply,Masters 80+,M,,80,80,2
Donald Drever,82.5,D,Multi-ply,Masters 80+,M,,97.5,97.5,1
Edwin Free Jr,90,D,Multi-ply,Masters 80+,M,,100,100,1
Juan Monoz,60,D,Multi-ply,Open,M,,165,165,2
Richard Hawthorne,60,D,Multi-ply,Open,M,,262.5,262.5,1
Chris Apistar,67.5,D,Multi-ply,Open,M,,180,180,4
Jan Corpus,67.5,D,Multi-ply,Open,M,,222.5,222.5,3
Chris Balanga,67.5,D,Multi-ply,Open,M,,227.5,227.5,2
D. Kaneshiro,67.5,D,Multi-ply,Open,M,,250,250,1
Josh Kuklak,75,D,Multi-ply,Open,M,,235,235,7
M. Fleming,75,D,Multi-ply,Open,M,,250,250,6
J. Benezra,75,D,Multi-ply,Open,M,,252.5,252.5,5
M. Hokoana,75,D,Multi-ply,Open,M,,260,260,4
Ryan Snelling,75,D,Multi-ply,Open,M,,262.5,262.5,3
R. Cirigliano,75,D,Multi-ply,Open,M,,272.5,272.5,2
Tobias Adams,75,D,Multi-ply,Open,M,,285,285,1
A. Stephens,75,D,Multi-ply,Open,M,,,,DQ
Matt Taylor,82.5,D,Multi-ply,Open,M,,210,210,6
P. Alfredsson,82.5,D,Multi-ply,Open,M,,245,245,5
T. Henderson,82.5,D,Multi-ply,Open,M,,255,255,4
Duane Travis,82.5,D,Multi-ply,Open,M,,305,305,3
L. Woodley,82.5,D,Multi-ply,Open,M,,312.5,312.5,2
Tom Eiseman,82.5,D,Multi-ply,Open,M,,322.5,322.5,1
Justin Barrett,90,D,Multi-ply,Open,M,,220,220,10
Jeff Hoiby,90,D,Multi-ply,Open,M,,230,230,9
Matt Bell,90,D,Multi-ply,Open,M,,252.5,252.5,8
Ted Carter,90,D,Multi-ply,Open,M,,257.5,257.5,7
Sean Olsen,90,D,Multi-ply,Open,M,,262.5,262.5,5
Matt Bischoff,90,D,Multi-ply,Open,M,,262.5,262.5,6
A. Wahlund,90,D,Multi-ply,Open,M,,285,285,4
E. Mil-Homens,90,D,Multi-ply,Open,M,,290,290,3
Jeff Ray,90,D,Multi-ply,Open,M,,297.5,297.5,2
Tony Caprari,90,D,Multi-ply,Open,M,,320,320,1
Chris Duffin,100,D,Multi-ply,Open,M,,,,DQ
D. Burlingame,100,D,Multi-ply,Open,M,,252.5,252.5,10
Brad Neal,100,D,Multi-ply,Open,M,,272.5,272.5,9
Kevin Holston,100,D,Multi-ply,Open,M,,275,275,8
Matt LaMarque,100,D,Multi-ply,Open,M,,287.5,287.5,7
Bobby Myers,100,D,Multi-ply,Open,M,,290,290,6
Chris Bogart,100,D,Multi-ply,Open,M,,305,305,5
Nicklas Friberg,100,D,Multi-ply,Open,M,,310,310,4
Willie McCoy,100,D,Multi-ply,Open,M,,322.5,322.5,3
G. Herring,100,D,Multi-ply,Open,M,,340,340,2
Brandon Cass,100,D,Multi-ply,Open,M,,350,350,1
Dan Tubridy,110,D,Multi-ply,Open,M,,237.5,237.5,3
Ben Matheson,110,D,Multi-ply,Open,M,,335,335,1
Brent Howard,110,D,Multi-ply,Open,M,,335,335,2
Matt Crosby,110,D,Multi-ply,Open,M,,,,DQ
Eric Krych,117.5,D,Multi-ply,Open,M,,292.5,292.5,4
Mike Camlin,117.5,D,Multi-ply,Open,M,,340,340,2
Pat Holloway,117.5,D,Multi-ply,Open,M,,340,340,3
Phil Andrews,117.5,D,Multi-ply,Open,M,,342.5,342.5,1
Bobby Driskill,125,D,Multi-ply,Open,M,,275,275,4
David Freeland,125,D,Multi-ply,Open,M,,287.5,287.5,3
Norman Rial,125,D,Multi-ply,Open,M,,307.5,307.5,2
Jerry Pritchett,125,D,Multi-ply,Open,M,,335,335,1
R. La Rocca,140,D,Multi-ply,Open,M,,292.5,292.5,4
Mark Phillips,140,D,Multi-ply,Open,M,,292.5,292.5,5
William Mott,140,D,Multi-ply,Open,M,,305,305,3
Dave Forstner,140,D,Multi-ply,Open,M,,340,340,1
Andy Medak,140,D,Multi-ply,Open,M,,325,325,2
David Edgell,140+,D,Multi-ply,Open,M,,287.5,287.5,3
Nate Tufranelli,140+,D,Multi-ply,Open,M,,325,325,2
Brian Oldham,140+,D,Multi-ply,Open,M,,357.5,357.5,1
Nick Szanyi,82.5,D,Multi-ply,Special Olympics,M,,102.5,102.5,3
Thomas Schone,82.5,D,Multi-ply,Special Olympics,M,,105,105,2
Greg Gibson,82.5,D,Multi-ply,Special Olympics,M,,120,120,1
A. Belavilas,90,D,Multi-ply,Special Olympics,M,,125,125,3
A. Markham,90,D,Multi-ply,Special Olympics,M,,142.5,142.5,2
Nick Ceglia,90,D,Multi-ply,Special Olympics,M,,200,200,1
Brady Tanner,110,D,Multi-ply,Special Olympics,M,,185,185,1
M. Thomas,67.5,D,Multi-ply,Submasters 34-39,M,,180,180,3
M. Haynes,67.5,D,Multi-ply,Submasters 34-39,M,,215,215,2
Todd Eggers,67.5,D,Multi-ply,Submasters 34-39,M,,235,235,1
R. Anderson,75,D,Multi-ply,Submasters 34-39,M,,175,175,2
M. Hokoana,75,D,Multi-ply,Submasters 34-39,M,,260,260,1
Matt Taylor,82.5,D,Multi-ply,Submasters 34-39,M,,210,210,2
R. Espinoza,82.5,D,Multi-ply,Submasters 34-39,M,,210,210,3
Kenny Rothe,82.5,D,Multi-ply,Submasters 34-39,M,,245,245,1
Todd Smith,90,D,Multi-ply,Submasters 34-39,M,,215,215,4
Don Moser,90,D,Multi-ply,Submasters 34-39,M,,240,240,3
Mark Pearce,90,D,Multi-ply,Submasters 34-39,M,,260,260,2
Jeff Ray,90,D,Multi-ply,Submasters 34-39,M,,297.5,297.5,1
John Mendoza,100,D,Multi-ply,Submasters 34-39,M,,227.5,227.5,2
Bobby Myers,100,D,Multi-ply,Submasters 34-39,M,,290,290,1
Robert Bills,110,D,Multi-ply,Submasters 34-39,M,,275,275,2
Thomas Burke,110,D,Multi-ply,Submasters 34-39,M,,287.5,287.5,1
Victor Shaw,117.5,D,Multi-ply,Submasters 34-39,M,,210,210,4
Lance Davis,117.5,D,Multi-ply,Submasters 34-39,M,,265,265,3
John Hudson,117.5,D,Multi-ply,Submasters 34-39,M,,297.5,297.5,2
Pat Holloway,117.5,D,Multi-ply,Submasters 34-39,M,,340,340,1
Ray Gandeza,140,D,Multi-ply,Submasters 34-39,M,,282.5,282.5,2
Mark Phillips,140,D,Multi-ply,Submasters 34-39,M,,292.5,292.5,1
Dean Munsey,140+,D,Multi-ply,Submasters 34-39,M,,320,320,1
Carmela Baqui,44,D,Multi-ply,Submasters 34-39,F,,120,120,1
A. Vallejo,48,D,Multi-ply,Submasters 34-39,F,,127.5,127.5,1
Claudia Salo,52,D,Multi-ply,Submasters 34-39,F,,102.5,102.5,2
R. Sexton,52,D,Multi-ply,Submasters 34-39,F,,110,110,1
Julie Green,56,D,Multi-ply,Submasters 34-39,F,,137.5,137.5,2
J. Braguine,56,D,Multi-ply,Submasters 34-39,F,,142.5,142.5,1
Lisa Balestrini,60,D,Multi-ply,Submasters 34-39,F,,145,145,1
Lisa Saunders,67.5,D,Multi-ply,Submasters 34-39,F,,92.5,92.5,2
Jeanne Watts,67.5,D,Multi-ply,Submasters 34-39,F,,157.5,157.5,1
K. Mahoney,75,D,Multi-ply,Submasters 34-39,F,,132.5,132.5,3
Carol Ann Myers,75,D,Multi-ply,Submasters 34-39,F,,165,165,2
Teresa Jacobs,75,D,Multi-ply,Submasters 34-39,F,,170,170,1
Jennifer Taylor,82.5,D,Multi-ply,Submasters 34-39,F,,172.5,172.5,1
Kari Sabin,90,D,Multi-ply,Submasters 34-39,F,,185,185,1
Jane Costa,90+,D,Multi-ply,Submasters 34-39,F,,100,100,4
Marilyn Wilber,90+,D,Multi-ply,Submasters 34-39,F,,142.5,142.5,3
Kristin Monica,90+,D,Multi-ply,Submasters 34-39,F,,157.5,157.5,2
M. Williamson,90+,D,Multi-ply,Submasters 34-39,F,,185,185,1
Tim Clendaniel,52,D,Multi-ply,Teen 13-15,M,,77.5,77.5,3
Keoki Akina,52,D,Multi-ply,Teen 13-15,M,,140,140,2
S. Karapetyan,52,D,Multi-ply,Teen 13-15,M,,167.5,167.5,1
S. Pyakurel,56,D,Multi-ply,Teen 13-15,M,,122.5,122.5,1
S. Van Meter,60,D,Multi-ply,Teen 13-15,M,,180,180,1
Justin Berman,82.5,D,Multi-ply,Teen 13-15,M,,160,160,3
Aaron Clovsky,82.5,D,Multi-ply,Teen 13-15,M,,177.5,177.5,2
Roland McNeil,82.5,D,Multi-ply,Teen 13-15,M,,202.5,202.5,1
Stefen Hudson,48,D,Multi-ply,Teen 16-19,M,,102.5,102.5,1
Randall Griggs,52,D,Multi-ply,Teen 16-19,M,,155,155,1
A. Karapetyan,60,D,Multi-ply,Teen 16-19,M,,162.5,162.5,1
C. McCormack,67.5,D,Multi-ply,Teen 16-19,M,,150,150,5
Bryant Watson,67.5,D,Multi-ply,Teen 16-19,M,,155,155,4
Mike Thomas,67.5,D,Multi-ply,Teen 16-19,M,,185,185,3
Cory Johnson,67.5,D,Multi-ply,Teen 16-19,M,,195,195,2
Kyle Chiodo,67.5,D,Multi-ply,Teen 16-19,M,,235,235,1
Thomas Home,75,D,Multi-ply,Teen 16-19,M,,162.5,162.5,7
Coty Hargett,75,D,Multi-ply,Teen 16-19,M,,192.5,192.5,6
C. Cederholm,75,D,Multi-ply,Teen 16-19,M,,207.5,207.5,5
Francisco Ruiz,75,D,Multi-ply,Teen 16-19,M,,210,210,4
C. Whittaker,75,D,Multi-ply,Teen 16-19,M,,230,230,3
Manuel Montes,75,D,Multi-ply,Teen 16-19,M,,250,250,2
Derek Chiodo,75,D,Multi-ply,Teen 16-19,M,,252.5,252.5,1
M. Minahan,82.5,D,Multi-ply,Teen 16-19,M,,192.5,192.5,5
Kevin Knack,82.5,D,Multi-ply,Teen 16-19,M,,217.5,217.5,4
Jason Perez,82.5,D,Multi-ply,Teen 16-19,M,,222.5,222.5,3
Curtis Watson,82.5,D,Multi-ply,Teen 16-19,M,,230,230,2
Daniel Winslow,82.5,D,Multi-ply,Teen 16-19,M,,237.5,237.5,1
Benny Farias,90,D,Multi-ply,Teen 16-19,M,,170,170,6
Andy Munsey,90,D,Multi-ply,Teen 16-19,M,,207.5,207.5,5
D. Me Farland,90,D,Multi-ply,Teen 16-19,M,,220,220,4
Sean Mahoney,90,D,Multi-ply,Teen 16-19,M,,227.5,227.5,3
David Rogers,90,D,Multi-ply,Teen 16-19,M,,232.5,232.5,2
S. Herrmann,90,D,Multi-ply,Teen 16-19,M,,285,285,1
A. Contreras,100,D,Multi-ply,Teen 16-19,M,,165,165,4
T. Peterson,100,D,Multi-ply,Teen 16-19,M,,205,205,3
Mike Prothman,100,D,Multi-ply,Teen 16-19,M,,207.5,207.5,2
Ashley Roberts,100,D,Multi-ply,Teen 16-19,M,,245,245,1
Jim Pritchett,110,D,Multi-ply,Teen 16-19,M,,207.5,207.5,2
Brandon Huffer,110,D,Multi-ply,Teen 16-19,M,,260,260,1
Rabun Proctor,117.5,D,Multi-ply,Teen 16-19,M,,200,200,1
Nick Heppner,140,D,Multi-ply,Teen 16-19,M,,302.5,302.5,1
Joshua Burgess,140+,D,Multi-ply,Teen 16-19,M,,192.5,192.5,1
J. Van Kolck,56,D,Multi-ply,Teen 13-15,F,,105,105,1
Kristy Brown,60,D,Multi-ply,Teen 13-15,F,,110,110,1
Nikki Williams,75,D,Multi-ply,Teen 13-15,F,,130,130,1
R. Nohara,90,D,Multi-ply,Teen 13-15,F,,165,165,1
Kayla Taueli,90+,D,Multi-ply,Teen 13-15,F,,185,185,1
Abigail Guenzi,48,D,Multi-ply,Teen 16-19,F,,100,100,1
Megan Bennett,52,D,Multi-ply,Teen 16-19,F,,92.5,92.5,1
Erica Ansberry,60,D,Multi-ply,Teen 16-19,F,,120,120,1
Christian Day,67.5,D,Multi-ply,Teen 16-19,F,,115,115,1
Kelly Buschke,75,D,Multi-ply,Teen 16-19,F,,122.5,122.5,2
A. Proctor,75,D,Multi-ply,Teen 16-19,F,,137.5,137.5,1
B. Brown,90,D,Multi-ply,Teen 16-19,F,,102.5,102.5,2
A. Maurer,90,D,Multi-ply,Teen 16-19,F,,105,105,1
Jana Prothman,90+,D,Multi-ply,Teen 16-19,F,,170,170,1
Kelly LaCour,48,D,Multi-ply,Open,F,,105,105,2
A. Vallejo,48,D,Multi-ply,Open,F,,127.5,127.5,1
L. Christopher,52,D,Multi-ply,Open,F,,117.5,117.5,2
Danna Snow,52,D,Multi-ply,Open,F,,120,120,1
Jill Yamashita,56,D,Multi-ply,Open,F,,152.5,152.5,2
Carol Ann Myers,56,D,Multi-ply,Open,F,,182.5,182.5,1
Jessica Miller,60,D,Multi-ply,Open,F,,117.5,117.5,5
Lynn Hunter,60,D,Multi-ply,Open,F,,120,120,4
Karoliina Liuska,60,D,Multi-ply,Open,F,,125,125,3
Lisa Balestrini,60,D,Multi-ply,Open,F,,145,145,2
Alene Brisbane,60,D,Multi-ply,Open,F,,155,155,1
Jo Walker,60,D,Multi-ply,Open,F,,,,DQ
Gina Gendotti,67.5,D,Multi-ply,Open,F,,137.5,137.5,3
Jeanne Watts,67.5,D,Multi-ply,Open,F,,157.5,157.5,2
Victoria Reese,67.5,D,Multi-ply,Open,F,,185,185,1
S. Armstrong,75,D,Multi-ply,Open,F,,147.5,147.5,4
Carol Ann Myers,75,D,Multi-ply,Open,F,,165,165,3
Cindy Weber,75,D,Multi-ply,Open,F,,170,170,2
Lyn Silbert,75,D,Multi-ply,Open,F,,190,190,1
Candace Camlin,75,D,Multi-ply,Open,F,,,,DQ
R. Nohara,90,D,Multi-ply,Open,F,,165,165,2
Susan Adkison,90,D,Multi-ply,Open,F,,200,200,1
Brooke Bourg,90+,D,Multi-ply,Open,F,,177.5,177.5,2
Dawn Richards,90+,D,Multi-ply,Open,F,,192.5,192.5,1
S. Stowers,44,D,Multi-ply,Masters 40-46,F,,85,85,1
Desiree Brown,48,D,Multi-ply,Masters 40-46,F,,112.5,112.5,1
Tara Rivers,52,D,Multi-ply,Masters 40-46,F,,100,100,3
V. McNeely,52,D,Multi-ply,Masters 40-46,F,,112.5,112.5,2
L. Christopher,52,D,Multi-ply,Masters 40-46,F,,117.5,117.5,1
Jeanne Morris,56,D,Multi-ply,Masters 40-46,F,,75,75,1
L. Rosales-Buie,60,D,Multi-ply,Masters 40-46,F,,140,140,3
Jill Deuser,60,D,Multi-ply,Masters 40-46,F,,142.5,142.5,2
Alene Brisbane,60,D,Multi-ply,Masters 40-46,F,,155,155,1
Julie Tippets,67.5,D,Multi-ply,Masters 40-46,F,,105,105,4
Brenda Nolen,67.5,D,Multi-ply,Masters 40-46,F,,130,130,3
Silvia Maher,67.5,D,Multi-ply,Masters 40-46,F,,140,140,2
S. Hedman,67.5,D,Multi-ply,Masters 40-46,F,,147.5,147.5,1
Sheri Klocke,75,D,Multi-ply,Masters 40-46,F,,152.5,152.5,2
Cindy Weber,75,D,Multi-ply,Masters 40-46,F,,170,170,1
Michaels-Olson,82.5,D,Multi-ply,Masters 40-46,F,,117.5,117.5,4
A. Valenzuela,82.5,D,Multi-ply,Masters 40-46,F,,130,130,3
Carla Ugarte,82.5,D,Multi-ply,Masters 40-46,F,,142.5,142.5,2
Sozzi-Dangcl,82.5,D,Multi-ply,Masters 40-46,F,,162.5,162.5,1
Diana Plank,90,D,Multi-ply,Masters 40-46,F,,120,120,2
Kelli Sandoval,90,D,Multi-ply,Masters 40-46,F,,160,160,1
Nancy Edelson,90+,D,Multi-ply,Masters 40-46,F,,187.5,187.5,1
C. Schwarz,52,D,Multi-ply,Masters 47-53,F,,120,120,1
Carol Ann Myers,56,D,Multi-ply,Masters 47-53,F,,182.5,182.5,1
Donna Sanford,60,D,Multi-ply,Masters 47-53,F,,125,125,3
K. C. Inlow,60,D,Multi-ply,Masters 47-53,F,,147.5,147.5,2
Patti Ehmen,60,D,Multi-ply,Masters 47-53,F,,157.5,157.5,1
Kim Davis,67.5,D,Multi-ply,Masters 47-53,F,,110,110,1
Jane Henner,75,D,Multi-ply,Masters 47-53,F,,120,120,1
Maria Richards,82.5,D,Multi-ply,Masters 47-53,F,,117.5,117.5,2
Jane Pope,82.5,D,Multi-ply,Masters 47-53,F,,117.5,117.5,3
Marilyn Lewis,82.5,D,Multi-ply,Masters 47-53,F,,140,140,1
Kathy Cash,90,D,Multi-ply,Masters 47-53,F,,132.5,132.5,2
Susan Adkison,90,D,Multi-ply,Masters 47-53,F,,200,200,1
Sue Vaterlaus,90+,D,Multi-ply,Masters 47-53,F,,115,115,2
Margie Huston,90+,D,Multi-ply,Masters 47-53,F,,125,125,1
H. Rodriguez,52,D,Multi-ply,Masters 54-60,F,,105,105,1
Heckathorn,67.5,D,Multi-ply,Masters 54-60,F,,125,125,2
B. Anderson,67.5,D,Multi-ply,Masters 54-60,F,,132.5,132.5,1
Mary Coffey,75,D,Multi-ply,Masters 54-60,F,,90,90,1
Pat Robey,90,D,Multi-ply,Masters 54-60,F,,102.5,102.5,2
Karen Polansky,90,D,Multi-ply,Masters 54-60,F,,172.5,172.5,1
Delia Chilgren,90+,D,Multi-ply,Masters 54-60,F,,102.5,102.5,1
Sue Clark,67.5,D,Multi-ply,Masters 61-67,F,,110,110,1
Daisy Chase,75,D,Multi-ply,Masters 68-74,F,,70,70,1
M. Whinston,60,D,Multi-ply,Masters 75-79,F,,67.5,67.5,1
