Division,WeightClassKg,Place,Name,Team,BodyweightKg,Best3SquatKg,Best3BenchKg,Best3DeadliftKg,TotalKg,Equipment,Event,Sex
Boys,52,1,Cody Acosta,PSJA,49.08,111.13,61.23,120.2,292.57,Single-ply,SBD,M
Boys,52,2,Joshua Martinez,Hidalgo Early College,51.21,102.06,58.97,124.74,285.76,Single-ply,SBD,M
Boys,52,3,Carlos Palomin,Weslaco,48.22,99.79,61.23,115.67,276.69,Single-ply,SBD,M
Boys,52,DQ,Joel Casas,PSJA,51.26,111.13,,,,Single-ply,SBD,M
Boys,56,1,Mike Barajas,Hidalgo Early College,54.7,188.24,113.4,174.63,476.27,Single-ply,SBD,M
Boys,56,2,Esai Marez,Mission Sharyland,55.52,122.47,72.57,167.83,362.87,Single-ply,SBD,M
Boys,56,3,Joanthony Tamez,PSJA Memorial,53.57,120.2,70.31,142.88,333.39,Single-ply,SBD,M
Boys,56,4,Ivan Tafolla,Weslaco,52.66,122.47,65.77,142.88,331.12,Single-ply,SBD,M
Boys,56,5,Ethan Plantilla,Mission Sharyland,53.71,104.33,40.82,127.01,272.16,Single-ply,SBD,M
Boys,60,1,Gilbert Rosales,Mission Veterans Memorial,59.78,156.49,106.59,165.56,428.64,Single-ply,SBD,M
Boys,60,2,Damien Palomo,Weslaco,58.97,156.49,81.65,181.44,419.57,Single-ply,SBD,M
Boys,60,3,Abraham Hernandez,La Joya Palmview,57.88,158.76,79.38,170.1,408.23,Single-ply,SBD,M
Boys,60,4,Albert Valle,Hidalgo Early College,59.87,140.61,88.45,142.88,371.95,Single-ply,SBD,M
Boys,60,5,Daniel Mireles,PSJA Memorial,59.42,138.35,77.11,124.74,340.19,Single-ply,SBD,M
Boys,67.5,1,Richard Nunez,Hidalgo Early College,65.32,151.95,86.18,165.56,403.7,Single-ply,SBD,M
Boys,67.5,2,Coy Burrow,Sharyland Pioneer,65.41,174.63,68.04,158.76,401.43,Single-ply,SBD,M
Boys,67.5,3,Bryan Rodriguez,La Joya Juarez-Lincoln,60.46,151.95,92.99,147.42,392.36,Single-ply,SBD,M
Boys,67.5,4,Brian Nunez,Hidalgo Early College,61.6,138.35,102.06,149.69,390.09,Single-ply,SBD,M
Boys,67.5,5,Artemio Balderas,PSJA Memorial,62.1,147.42,81.65,149.69,378.75,Single-ply,SBD,M
Boys,67.5,6,Oliver Barrera,Rio Grande City Grulla,67.13,99.79,79.38,136.08,315.25,Single-ply,SBD,M
Boys,67.5,7,Justin Garza,Rio Grande City,65.77,106.59,65.77,102.06,274.42,Single-ply,SBD,M
Boys,75,1,Jesse Rodriguez,PSJA Memorial,73.8,231.33,127.01,222.26,580.6,Single-ply,SBD,M
Boys,75,2,Frank Marin,Weslaco,70.31,217.72,122.47,204.12,544.31,Single-ply,SBD,M
Boys,75,3,Anthony Escalente,PSJA Memorial,72.98,161.03,117.93,192.78,471.74,Single-ply,SBD,M
Boys,75,4,AJ Munguia,Mission Veterans Memorial,73.48,142.88,102.06,138.35,383.29,Single-ply,SBD,M
Boys,75,5,Aaron Acevedo,La Joya,70.31,147.42,79.38,142.88,369.68,Single-ply,SBD,M
Boys,75,DQ,Essau Navarro,La Joya Juarez-Lincoln,70.13,142.88,,,,Single-ply,SBD,M
Boys,75,DQ,Ronnie Longoria,Sharyland Pioneer,70.44,183.7,,,,Single-ply,SBD,M
Boys,75,DQ,Julio Cerda,Sharyland Pioneer,69.35,,,,,Single-ply,SBD,M
Boys,82.5,1,Robert Hernandez,La Joya Juarez-Lincoln,80.78,249.48,154.22,240.4,644.1,Single-ply,SBD,M
Boys,82.5,2,Andy Hernandez #2,Hidalgo Early College,78.2,208.65,115.67,215.46,539.77,Single-ply,SBD,M
Boys,82.5,3,Bryan Leal,Weslaco,81.74,195.04,122.47,190.51,508.02,Single-ply,SBD,M
Boys,82.5,4,Jesus Sanchez,Mission,80.38,172.37,113.4,165.56,451.32,Single-ply,SBD,M
Boys,82.5,5,Alfredo Perez,La Joya,76.16,158.76,81.65,174.63,415.04,Single-ply,SBD,M
Boys,82.5,6,Cain Rodriguez,PSJA,78.97,120.2,95.25,140.61,356.07,Single-ply,SBD,M
Boys,82.5,7,Gilberto Vazaldua,PSJA,81.65,106.59,70.31,104.33,281.23,Single-ply,SBD,M
Boys,82.5,DQ,Andrew Cantu,Mission Sharyland,80.83,,,,,Single-ply,SBD,M
Boys,82.5,DQ,Haraldo Ramirez,Rio Grande City Grulla,80.47,,,,,Single-ply,SBD,M
Boys,90,1,Julio Garcia,La Joya Juarez-Lincoln,89.81,249.48,158.76,238.14,646.37,Single-ply,SBD,M
Boys,90,2,Fernando Hernandez,La Joya Juarez-Lincoln,88.63,229.06,145.15,244.94,619.15,Single-ply,SBD,M
Boys,90,3,Jose Nicoleau,Sharyland Pioneer,88.36,244.94,158.76,213.19,616.89,Single-ply,SBD,M
Boys,90,4,Obie Hernandez,Sharyland Pioneer,88.63,247.21,136.08,222.26,605.55,Single-ply,SBD,M
Boys,90,5,Senon Muya,Sharyland Pioneer,89.09,240.4,158.76,195.04,594.21,Single-ply,SBD,M
Boys,90,6,Carlos Zarate,Mission Sharyland,88.95,231.33,127.01,233.6,591.94,Single-ply,SBD,M
Boys,90,7,Peter Quiroz,Hidalgo Early College,85,195.04,142.88,222.26,560.19,Single-ply,SBD,M
Boys,90,8,Javier Sanchez,Weslaco,84.78,204.12,124.74,210.92,539.77,Single-ply,SBD,M
Boys,90,9,Isaac Aleman,Hidalgo Early College,89.18,206.38,117.93,201.85,526.17,Single-ply,SBD,M
Boys,90,10,Jorge Munoz,Weslaco,89.68,183.7,122.47,199.58,505.76,Single-ply,SBD,M
Boys,90,11,Eddie Hernandez,La Joya Juarez-Lincoln,89.77,195.04,129.27,129.27,453.59,Single-ply,SBD,M
Boys,90,12,Jessie Quintana,PSJA Memorial,89.18,170.1,97.52,158.76,426.38,Single-ply,SBD,M
Boys,90,13,Ryan Alvarez,Rio Grande City,83.19,136.08,92.99,165.56,394.63,Single-ply,SBD,M
Boys,90,14,Nathan Beraza,PSJA,82.74,142.88,81.65,158.76,383.29,Single-ply,SBD,M
Boys,90,DQ,Diego Alvarez,Mission Sharyland,82.42,142.88,61.23,,,Single-ply,SBD,M
Boys,100,1,Daniel Villarreal,La Joya,93.3,231.33,129.27,224.53,585.13,Single-ply,SBD,M
Boys,100,2,Daniel Gonzalez,La Joya Juarez-Lincoln,97.07,210.92,133.81,224.53,569.26,Single-ply,SBD,M
Boys,100,3,Joseph Rios,Mission,92.67,204.12,149.69,197.31,551.11,Single-ply,SBD,M
Boys,100,4,Quiten Martinez,Rio Grande City,96.48,204.12,113.4,233.6,551.11,Single-ply,SBD,M
Boys,100,5,Danny Munguia,Mission Veterans Memorial,96.25,229.06,129.27,188.24,546.58,Single-ply,SBD,M
Boys,100,6,Elizar Rodriguez,Weslaco,98.84,213.19,131.54,201.85,546.58,Single-ply,SBD,M
Boys,100,7,Gilbert Romero,La Joya Juarez-Lincoln,95.89,215.46,127.01,195.04,537.51,Single-ply,SBD,M
Boys,100,8,Alex Trevino,PSJA Memorial,97.25,183.7,117.93,199.58,501.22,Single-ply,SBD,M
Boys,100,9,Sergio Barajas,PSJA Memorial,95.84,206.38,102.06,190.51,498.95,Single-ply,SBD,M
Boys,100,10,Joel Moreno,Mission Sharyland,92.22,174.63,102.06,210.92,487.61,Single-ply,SBD,M
Boys,100,11,Carlos Martinez,PSJA,92.9,181.44,122.47,183.7,487.61,Single-ply,SBD,M
Boys,100,12,Leeroy Barrientos,Hidalgo Early College,95.66,185.97,95.25,199.58,480.81,Single-ply,SBD,M
Boys,100,13,Elias Moreno,PSJA,93.71,201.85,117.93,149.69,469.47,Single-ply,SBD,M
Boys,100,14,Eddie Garza,Rio Grande City,91.76,154.22,120.2,190.51,464.93,Single-ply,SBD,M
Boys,100,15,Julio Menchaca,Rio Grande City Grulla,97.3,188.24,99.79,174.63,462.66,Single-ply,SBD,M
Boys,100,16,Caleb Zernato,PSJA Memorial,96.25,172.37,92.99,192.78,458.13,Single-ply,SBD,M
Boys,100,17,José Fernández,La Joya,99.06,165.56,106.59,174.63,446.79,Single-ply,SBD,M
Boys,100,18,Roger Juarez,PSJA,95.21,156.49,113.4,165.56,435.45,Single-ply,SBD,M
Boys,100,19,Caleb Longoria,Rio Grande City,99.06,158.76,111.13,163.29,433.18,Single-ply,SBD,M
Boys,100,20,Rolando Andmele,La Joya Palmview,97.07,145.15,92.99,181.44,419.57,Single-ply,SBD,M
Boys,100,21,Mike Cavazos,Mission Veterans Memorial,92.35,154.22,83.91,165.56,403.7,Single-ply,SBD,M
Boys,100,DQ,Emilio Chavez,Mission Sharyland,92.4,163.29,,,,Single-ply,SBD,M
Boys,100,DQ,Steven de Leon,Mission,93.21,,,,,Single-ply,SBD,M
Boys,100,DQ,Esteban Licerio,Mission Veterans Memorial,97.25,215.46,115.67,,,Single-ply,SBD,M
Boys,100,DQ,Fernando Gonzalez,La Joya Palmview,98.79,,,,,Single-ply,SBD,M
Boys,110,1,Andres Enriquez,PSJA,106.05,272.16,167.83,217.72,657.71,Single-ply,SBD,M
Boys,110,2,Zeke Guterirez,Mission,109.09,290.3,122.47,233.6,646.37,Single-ply,SBD,M
Boys,110,3,Sam Rodriguez,La Joya,105.46,258.55,151.95,226.8,637.3,Single-ply,SBD,M
Boys,110,4,Luis Salinas,Rio Grande City,109,199.58,124.74,219.99,544.31,Single-ply,SBD,M
Boys,110,5,Brandon Mendez,Weslaco,106.23,240.4,120.2,174.63,535.24,Single-ply,SBD,M
Boys,110,6,Fernando Castro,Hidalgo Early College,100.33,206.38,122.47,197.31,526.17,Single-ply,SBD,M
Boys,110,7,Alivar Chapa,La Joya Juarez-Lincoln,106.68,181.44,129.27,188.24,498.95,Single-ply,SBD,M
Boys,110,8,John Howell,Sharyland Pioneer,105.19,183.7,136.08,149.69,469.47,Single-ply,SBD,M
Boys,110,9,Albert Monroy,Mission Veterans Memorial,102.83,181.44,90.72,181.44,453.59,Single-ply,SBD,M
Boys,125,1,Andy Hernandez #2,La Joya Palmview,123.51,249.48,163.29,204.12,616.89,Single-ply,SBD,M
Boys,125,2,Jesus Proa,La Joya Juarez-Lincoln,115.3,206.38,142.88,206.38,555.65,Single-ply,SBD,M
Boys,125,3,Jaime Morin,Rio Grande City,124.74,226.8,140.61,183.7,551.11,Single-ply,SBD,M
Boys,125,4,Sammy Alaniz,PSJA Memorial,118.12,190.51,115.67,192.78,498.95,Single-ply,SBD,M
Boys,125,5,Gabriel Ortiz,Mission,113.13,192.78,97.52,176.9,467.2,Single-ply,SBD,M
Boys,125,6,Fernando Robles,Rio Grande City,116.35,170.1,99.79,195.04,464.93,Single-ply,SBD,M
Boys,125+,1,Brandon Perez,Weslaco,156.81,265.35,156.49,219.99,641.83,Single-ply,SBD,M
Boys,125+,2,Tommy Hernandez,PSJA Memorial,127.1,206.38,136.08,201.85,544.31,Single-ply,SBD,M
Boys,125+,3,Marcos Ascencion,Mission Veterans Memorial,140.93,215.46,108.86,183.7,508.02,Single-ply,SBD,M
Boys,125+,DQ,David Chapa,PSJA,130.91,163.29,,,,Single-ply,SBD,M
