Place,Name,Sex,Event,Division,WeightClassKg,Equipment,BirthYear,Team,State,BodyweightKg,Squat1Kg,Squat2Kg,Squat3Kg,Best3SquatKg,Bench1Kg,Bench2Kg,Bench3Kg,Best3BenchKg,Deadlift1Kg,Deadlift2Kg,Deadlift3Kg,Best3DeadliftKg,TotalKg
1,Maily Ly,F,SBD,R-JR,57,Raw,1995,,WA,54.20,92.5,-95,-95,92.5,42.5,-45,-45,42.5,112.5,117.5,-125,117.5,252.5
1,Molly Nguyen,F,SBD,R-JR,63,Raw,1996,,WA,58.70,90,97.5,102.5,102.5,45,-50,50,50.0,110,115,122.5,122.5,275
2,Michelle Montgomery,F,SBD,R-JR,63,Raw,1994,,WA,62.00,-102.5,-105,105,105.0,52.5,57.5,-62.5,57.5,100,105,-110,105.0,267.5
1,Hannah Bryson,F,SBD,R-JR,84,Raw,1997,,ID,83.20,142.5,-150,-150,142.5,70,75,-80,75.0,130,142.5,-150,142.5,360
2,Kara Phillips,F,SBD,R-JR,84,Raw,1997,,WA,76.20,115,125,-135,125.0,65,-72.5,-72.5,65.0,122.5,135,-140,135.0,325
1,Lianna Yang,F,SBD,R-JR,84+,Raw,1994,,WA,113.60,170,-182.5,-182.5,170.0,95,102.5,107.5,107.5,-157.5,157.5,-165,157.5,435
2,Tori Sorenson,F,SBD,R-JR,84+,Raw,1995,Northwest Strength & Conditioning,WA,92.50,130,135,145,145.0,60,65,-72.5,65.0,137.5,140,150,150.0,360
1,Amy Brantner,F,SBD,R-M1a,57,Raw,1976,Iron Maidens,WA,55.00,87.5,92.5,97.5,97.5,52.5,57.5,-62.5,57.5,117.5,125,130,130.0,285
1,Merideth Randles,F,SBD,R-M1a,63,Raw,1974,,WA,61.40,100,105,-107.5,105.0,60,65,67.5,67.5,155,162.5,170,170.0,342.5
1,Carrie Brown-Schmidt,F,SBD,R-M1a,72,Raw,1978,,WA,67.80,75,85,-92.5,85.0,55,60,-62.5,60.0,125,137.5,-140,137.5,282.5
1,Nealy White,F,SBD,R-M1a,84,Raw,1974,,WA,81.50,105,-110,-110,105.0,-60,60,65,65.0,112.5,125,130,130.0,300
1,Janiece Hunt,F,SBD,R-M1a,84+,Raw,1976,,ID,94.90,130,142.5,150,150.0,55,60,62.5,62.5,132.5,150,160,160.0,372.5
2,Tobie Tyler,F,SBD,R-M1a,84+,Raw,1976,,WA,113.90,125,137.5,-142.5,137.5,85,-92.5,-92.5,85.0,135,145,-155,145.0,367.5
3,Sarah Thornton,F,SBD,R-M1a,84+,Raw,1976,Iron Maidens,WA,110.00,115,125,140,140.0,67.5,77.5,-82.5,77.5,107.5,120,-130,120.0,337.5
1,Leilani York,F,SBD,R-M1b,63,Raw,1973,,WA,62.30,-97.5,97.5,102.5,102.5,62.5,-65,-65,62.5,112.5,115,120,120.0,285
2,Angela Teal,F,SBD,R-M1b,63,Raw,1971,Iron Maidens,WA,62.70,90,-95,95,95.0,47.5,52.5,-57.5,52.5,97.5,-105,-105,97.5,245
1,Katie Rosenberg,F,SBD,R-M1b,72,Raw,1971,,ID,70.10,105,-112.5,-112.5,105.0,62.5,65,-67.5,65.0,130,137.5,-150,137.5,307.5
1,Gayle Roberts,F,SBD,R-M1b,84+,Raw,1973,,WA,104.10,102.5,117.5,130,130.0,65,70,-75,70.0,125,140,-150,140.0,340
1,Gretchen Cilley,F,SBD,R-M2a,52,Raw,1965,,WA,51.60,65,-72.5,72.5,72.5,32.5,37.5,-40,37.5,97.5,-105,-105,97.5,207.5
1,Roberta Carlson,F,SBD,R-M2a,63,Raw,1965,,WA,62.00,115,-120,120,120.0,62.5,-67.5,-67.5,62.5,147.5,160,-171,160.0,342.5
DQ,Renee Rybak,F,SBD,R-M2a,63,Raw,1964,,AK,60.50,-70,-70,-70,,52.5,55,-57.5,55.0,-117.5,117.5,120,120.0,
1,Marie Brenden,F,SBD,R-M2a,84,Raw,1964,Iron Maidens,WA,79.50,90,100,-107.5,100.0,72.5,77.5,-82.5,77.5,112.5,120,130,130.0,307.5
1,Gina Craig,F,SBD,R-M2b,63,Raw,1963,Temple Fitness,WA,62.50,80,87.5,-92.5,87.5,47.5,-52.5,52.5,52.5,102.5,110,120,120.0,260
1,Sherri Nichols,F,SBD,R-M2b,72,Raw,1962,,WA,71.40,-85,90,92.5,92.5,60,65,-67.5,65.0,105,110,117.5,117.5,275
1,Dottie Shaw,F,SBD,R-M2b,84,Raw,1961,,WA,83.70,80,92.5,102.5,102.5,47.5,52.5,-57.5,52.5,102.5,117.5,125,125.0,280
1,Bebe Burns,F,SBD,R-M4b,52,Raw,1942,,WA,51.30,52.5,63,65,65.0,35,41,42.5,42.5,70,78,80,80.0,187.5
1,Nicole Broadwell,F,SBD,R-O,52,Raw,1988,Northwest Strength & Conditioning,WA,51.60,110,122.5,127.5,127.5,60,65,-70,65.0,135,140,147.5,147.5,340
2,Kendall Elifrits,F,SBD,R-O,52,Raw,1993,,AK,50.90,87.5,-92.5,92.5,92.5,45,47.5,50,50.0,127.5,132.5,-137.5,132.5,275
3,Annie Nguyen,F,SBD,R-O,52,Raw,1992,,WA,49.20,77.5,82.5,85,85.0,40,45,-47.5,45.0,97.5,102.5,-107.5,102.5,232.5
1,Jamie Owens,F,SBD,R-O,57,Raw,1983,,WA,56.60,120,127.5,-135,127.5,77.5,82.5,-87.5,82.5,142.5,147.5,152.5,152.5,362.5
2,Jaime Kobara,F,SBD,R-O,57,Raw,1993,,WA,56.60,120,127.5,132.5,132.5,65,67.5,-72.5,67.5,150,157.5,162.5,162.5,362.5
3,Maria Rodriguez,F,SBD,R-O,57,Raw,1990,Northwest Strength & Conditioning,WA,56.20,130,132.5,-140,132.5,75,77.5,-80,77.5,130,135,-137.5,135.0,345
4,Alyssa Michaels,F,SBD,R-O,57,Raw,1988,,WA,56.60,117.5,125,127.5,127.5,52.5,55,-57.5,55.0,137.5,145,155,155.0,337.5
5,Justine Soderlind,F,SBD,R-O,57,Raw,1991,,WA,56.00,-100,100,-107.5,100.0,52.5,55,-57.5,55.0,117.5,125,130,130.0,285
6,Theresa Egerer,F,SBD,R-O,57,Raw,1986,,WA,56.20,75,-80,-80,75.0,52.5,55,57.5,57.5,117.5,122.5,-125,122.5,255
1,Candice Alvarez,F,SBD,R-O,63,Raw,1991,,WA,61.80,135,142.5,-145,142.5,70,72.5,75,75.0,-175,182.5,-187.5,182.5,400
2,Shandel Yanney,F,SBD,R-O,63,Raw,1992,,WA,60.50,127.5,135,-140,135.0,62.5,67.5,-70,67.5,142.5,150,157.5,157.5,360
3,Kay Humpherys,F,SBD,R-O,63,Raw,1988,,WA,61.40,120,127.5,-132.5,127.5,70,-75,-75,70.0,130,-145,-145,130.0,327.5
4,Ashton Alexander,F,SBD,R-O,63,Raw,1989,,WA,62.10,95,107.5,-120,107.5,65,70,-77.5,70.0,100,112.5,120,120.0,297.5
1,Madeline Scott,F,SBD,R-O,72,Raw,1991,Northwest Strength & Conditioning,WA,70.90,172.5,182.5,-188.5,182.5,87.5,90,-92.5,90.0,192.5,202.5,-207.5,202.5,475
2,Susan Littlefield,F,SBD,R-O,72,Raw,1990,,WA,71.50,150,160,-165,160.0,85,87.5,90,90.0,187.5,-192.5,-192.5,187.5,437.5
3,Becky Enright,F,SBD,R-O,72,Raw,1979,,WA,70.50,155,162.5,-170,162.5,72.5,77.5,80,80.0,147.5,152.5,157.5,157.5,400
4,Amber Humphrey,F,SBD,R-O,72,Raw,1981,,WA,71.00,127.5,135,-140,135.0,77.5,-82.5,-82.5,77.5,147.5,157.5,165,165.0,377.5
5,Taotao Liu,F,SBD,R-O,72,Raw,1988,,WA,67.20,105,117.5,125,125.0,57.5,65,70,70.0,125,140,-147.5,140.0,335
6,Holli Bosnar,F,SBD,R-O,72,Raw,1987,,WA,71.00,112.5,115,117.5,117.5,52.5,55,57.5,57.5,152.5,157.5,160,160.0,335
7,Emily Cabaniss,F,SBD,R-O,72,Raw,1991,,WA,71.50,102.5,105,110,110.0,47.5,52.5,57.5,57.5,122.5,130,137.5,137.5,305
1,Lindsay Richman,F,SBD,R-O,84,Raw,1993,,WA,77.60,137.5,145,152.5,152.5,57.5,62.5,67.5,67.5,140,150,160,160.0,380
2,Rosanna Allen,F,SBD,R-O,84,Raw,1982,Iron Maidens,WA,82.40,-122.5,132.5,-135,132.5,85,-90,,85.0,140,150,-160,150.0,367.5
3,Erin Looper,F,SBD,R-O,84,Raw,1988,,OR,83.10,122.5,-127.5,-127.5,122.5,70,75,-77.5,75.0,-150,-150,150,150.0,347.5
4,Nachelle Pena,F,SBD,R-O,84,Raw,1982,Temple Fitness,WA,83.00,120,135,-140,135.0,60,67.5,72.5,72.5,132.5,-150,-150,132.5,340
5,Nancy Xia,F,SBD,R-O,84,Raw,1993,,WA,83.10,125,-132.5,-135,125.0,57.5,65,-70,65.0,142.5,-155,-155,142.5,332.5
6,Caroline Juarez,F,SBD,R-O,84,Raw,1989,,ID,80.90,115,125,-135,125.0,65,70,-72.5,70.0,125,130,-137.5,130.0,325
7,Amy Stoll,F,SBD,R-O,84,Raw,1989,,ID,78.70,90,95,100,100.0,60,65,70,70.0,120,132.5,-137.5,132.5,302.5
8,Judith Elenes-Martinez,F,SBD,R-O,84,Raw,1983,,WA,83.10,72.5,-77.5,-82.5,72.5,37.5,-42.5,-42.5,37.5,82.5,-90,90,90.0,200
DQ,Gabrielle Trenga,F,SBD,R-O,84,Raw,1992,Iron Maidens,ID,83.80,-130,-130,-130,,72.5,-75,-77.5,72.5,142.5,150,-157.5,150.0,
1,Mariko Hamashima,F,SBD,R-O,84+,Raw,1992,Temple Fitness,WA,90.00,117.5,130,140,140.0,62.5,70,77.5,77.5,150,157.5,160,160.0,377.5
2,Veronica Hamm,F,SBD,R-O,84+,Raw,1982,,WA,118.60,125,127.5,-130,127.5,80,82.5,85,85.0,147.5,155,162.5,162.5,375
3,Georgia Gillie,F,SBD,R-O,84+,Raw,1986,,WA,99.80,125,130,137.5,137.5,80,-87.5,87.5,87.5,130,137.5,142.5,142.5,367.5
4,Holly Miller,F,SBD,R-O,84+,Raw,1980,,WA,85.60,125,127.5,-135,127.5,75,80,-85,80.0,125,127.5,-130,127.5,335
5,Christina Chek,F,SBD,R-O,84+,Raw,1991,,WA,103.00,-105,120,127.5,127.5,-50,60,-72.5,60.0,125,135,147.5,147.5,335
6,Misty McIntosh,F,SBD,R-O,84+,Raw,1980,,WY,88.30,75,82.5,-87.5,82.5,57.5,-62.5,62.5,62.5,100,107.5,112.5,112.5,257.5
1,Jillian Whiting,F,SBD,R-T1,72,Raw,2003,Temple Fitness,WA,70.90,75,-90,92.5,92.5,50,55,-57.5,55.0,107.5,117.5,125,125.0,272.5
1,Alyssa Gilmore,F,SBD,R-T2,43,Raw,2002,,ID,41.90,47.5,50,-60,50.0,30,-35,-35,30.0,70,77.5,85,85.0,165
1,Jessica Leonard,F,SBD,R-T2,52,Raw,2000,,WA,50.10,90,-95,-95,90.0,42.5,45,-47.5,45.0,90,-97.5,-97.5,90.0,225
1,Hannah Leonard,F,SBD,R-T2,63,Raw,2002,,WA,59.30,75,-80,80,80.0,47.5,-50,-50,47.5,95,100,105,105.0,232.5
DQ,Marieke Jeffrey,F,SBD,R-Y3,57,Raw,2004,,OR,52.70,-80,-82.5,-82.5,,32.5,35,-37.5,35.0,80,85,-90,85.0,
1,Jay Hambert,M,SBD,R-O,93,Raw,1967,Northwest Strength & Conditioning,WA,91.40,-165,170,175,175.0,145,155,160,160.0,215,222.5,227.5,227.5,562.5
1,Yen Le,M,SBD,R-JR,66,Raw,1995,,WA,65.80,140,145,147.5,147.5,90,97.5,-100,97.5,-195,200,-210,200.0,445
2,Jamon Rodrigues,M,SBD,R-JR,66,Raw,1995,,WA,65.40,130,140,145,145.0,100,110,-115,110.0,170,-180,180,180.0,435
DQ,Carlos Camacho,M,SBD,R-JR,74,Raw,1995,,WA,73.10,190,-200,-200,190.0,107.5,-115,-115,107.5,-252.5,,,,
1,Ceyer Wakilpoor,M,SBD,R-JR,83,Raw,1996,,WA,83.00,235,247.5,257.5,257.5,142.5,-150,-155,142.5,275,295,-305,295.0,695
1,Jonathan Book,M,SBD,R-JR,93,Raw,1995,,WA,84.50,207.5,217.5,-230,217.5,155,170,175,175.0,240,260,-265,260.0,652.5
2,Naim Collins,M,SBD,R-JR,93,Raw,1995,,WA,91.40,212.5,227.5,-230,227.5,140,-147.5,147.5,147.5,215,227.5,237.5,237.5,612.5
3,Austin Gladson,M,SBD,R-JR,93,Raw,1996,,WA,92.40,170,177.5,190,190.0,122.5,132.5,-137.5,132.5,195,207.5,220,220.0,542.5
4,Jose Valadez,M,SBD,R-JR,93,Raw,1996,Northwest Strength & Conditioning,WA,91.30,190,192.5,195,195.0,-100,100,-105,100.0,210,-225,-225,210.0,505
5,Jake Hagen,M,SBD,R-JR,93,Raw,1995,,WA,88.80,170,182.5,190,190.0,97.5,102.5,-105,102.5,190,207.5,-220,207.5,500
1,Enoc Amador,M,SBD,R-JR,105,Raw,1997,,WA,98.50,-232.5,235,-250,235.0,-157.5,160,-165,160.0,232.5,237.5,240,240.0,635
2,Austin Heathman,M,SBD,R-JR,105,Raw,1996,,WA,102.50,170,180,190,190.0,140,145,155,155.0,210,220,227.5,227.5,572.5
3,Branden Stallard,M,SBD,R-JR,105,Raw,1994,,WA,98.70,162.5,172.5,185,185.0,137.5,147.5,160,160.0,172.5,187.5,195,195.0,540
1,James Andrew,M,SBD,R-JR,120,Raw,1996,,OR,113.20,175,185,187.5,187.5,147.5,150,155,155.0,190,197.5,200,200.0,542.5
1,Trey Cox,M,SBD,R-JR,120+,Raw,1998,Northwest Strength & Conditioning,WA,156.20,-285,292.5,-302.5,292.5,150,165,-170,165.0,247.5,-265,265,265.0,722.5
1,Dan Nguyen,M,SBD,R-M1a,74,Raw,1976,,WA,71.90,170,180,-185,180.0,120,-125,,120.0,210,220,225,225.0,525
2,Dan Neal,M,SBD,R-M1a,74,Raw,1975,,WA,72.80,175,-187.5,-187.5,175.0,120,125,-127.5,125.0,192.5,205,-217.5,205.0,505
1,Vadim Brusser,M,SBD,R-M1a,83,Raw,1977,,WA,82.20,162.5,175,182.5,182.5,110,120,-125,120.0,200,217.5,-222.5,217.5,520
2,Nathan Weigand,M,SBD,R-M1a,83,Raw,1976,,WA,79.90,-100,100,-120,100.0,125,132.5,-140,132.5,190,200,205,205.0,437.5
1,Eric Jochumsen,M,SBD,R-M1a,93,Raw,1974,,WA,89.90,222.5,240,245,245.0,125,135,140,140.0,192.5,207.5,-215,207.5,592.5
2,Robert Jeffrey,M,SBD,R-M1a,93,Raw,1974,,OR,92.60,175,-180,-180,175.0,110,112.5,-115,112.5,175,182.5,-190,182.5,470
1,Jonathan Brown-Schmidt,M,SBD,R-M1a,120,Raw,1977,,WA,119.30,-232.5,237.5,257.5,257.5,145,160,-170,160.0,267.5,280,290,290.0,707.5
2,Sean Gilliland,M,SBD,R-M1a,120,Raw,1977,,WA,115.50,187.5,205,-215,205.0,147.5,157.5,162.5,162.5,225,237.5,252.5,252.5,620
1,Brad Webster,M,SBD,R-M1a,120+,Raw,1976,,WA,127.20,200,212.5,217.5,217.5,95,105,-120,105.0,205,-225,-225,205.0,527.5
1,Robert Foulkes,M,SBD,R-M1b,83,Raw,1969,Northwest Strength & Conditioning,WA,81.60,125,147.5,-160,147.5,115,-125,-125,115.0,195,210,215,215.0,477.5
1,Kevin Grady,M,SBD,R-M1b,105,Raw,1971,,WA,100.80,147.5,-152.5,152.5,152.5,100,105,-110,105.0,180,190,-197.5,190.0,447.5
1,Christopher Willits,M,SBD,R-M1b,120,Raw,1971,,WA,116.70,-177.5,-177.5,177.5,177.5,170,182.5,-195,182.5,182.5,185,190,190.0,550
2,Jamie Laflen,M,SBD,R-M1b,120,Raw,1973,,WA,115.80,170,180,182.5,182.5,110,115,-117.5,115.0,220,230,232.5,232.5,530
1,Wade Craig,M,SBD,R-M2b,105,Raw,1963,Temple Fitness,WA,101.80,207.5,225,237.5,237.5,137.5,150,155,155.0,225,250,260,260.0,652.5
2,John Sobieski,M,SBD,R-M2b,105,Raw,1961,,WA,93.90,100,-102.5,102.5,102.5,-70,70,-72.5,70.0,140,150,155,155.0,327.5
1,Michael Davis,M,SBD,R-M3a,120+,Raw,1956,,WA,135.10,-127.5,127.5,142.5,142.5,115,120,-125,120.0,160,-180,-185,160.0,422.5
1,Mikhail Brusser,M,SBD,R-M3b,74,Raw,1952,,WA,73.20,105,120,130,130.0,102.5,107.5,-110,107.5,150,182.5,190,190.0,427.5
2,Dary Reed,M,SBD,R-M3b,74,Raw,1949,,WA,71.80,95,-105,105,105.0,75,80,-82.5,80.0,140,150,152.5,152.5,337.5
1,Jeff Hughes,M,SBD,R-M4a,83,Raw,1946,,WA,80.80,125,132.5,-137.5,132.5,87.5,92.5,-97.5,92.5,175,182.5,190,190.0,415
1,John Dick,M,SBD,R-M4a,120,Raw,1947,,WA,117.00,120,140,155,155.0,120,125,130,130.0,200,217.5,-232.5,217.5,502.5
1,Hugo Baixeras,M,SBD,R-O,74,Raw,1992,,WA,72.80,192.5,200,210,210.0,120,125,-127.5,125.0,-245,245,-257.5,245.0,580
2,Zachary Nelson,M,SBD,R-O,74,Raw,1991,,WA,72.90,175,-185,-185,175.0,130,140,-150,140.0,205,210,215,215.0,530
3,George Tashiro,M,SBD,R-O,74,Raw,1994,,WA,70.50,160,170,180,180.0,120,127.5,132.5,132.5,195,210,215,215.0,527.5
4,Anthony Nguyen,M,SBD,R-O,74,Raw,1993,,WA,72.40,175,-180,180,180.0,117.5,-122.5,-122.5,117.5,212.5,-230,230,230.0,527.5
5,Son Nguyen,M,SBD,R-O,74,Raw,1993,,WA,71.80,175,182.5,-195,182.5,125,-132.5,-132.5,125.0,197.5,205,212.5,212.5,520
6,Vinh Tran,M,SBD,R-O,74,Raw,1991,,WA,72.90,145,155,-165,155.0,120,127.5,-132.5,127.5,205,220,-227.5,220.0,502.5
7,Christian Hoogerheyde,M,SBD,R-O,74,Raw,1988,,WA,73.20,-162.5,170,-177.5,170.0,-92.5,-95,95,95.0,145,150,155,155.0,420
8,Karl Jones,M,SB,R-O,74,Raw,1988,,WA,72.80,-195,195,-205,195.0,112.5,-117.5,-117.5,112.5,,,,,307.5
DQ,Henry Deng,M,SBD,R-O,74,Raw,1992,,WA,73.60,180,190,-200,190.0,95,102.5,-110,102.5,-202.5,-220,-220,,
1,Raymond Cruz,M,SBD,R-O,83,Raw,1984,Northwest Strength & Conditioning,WA,82.10,227.5,237.5,-242.5,237.5,150,155,-160,155.0,262.5,272.5,285,285.0,677.5
2,John Song,M,SBD,R-O,83,Raw,1983,,WA,83.00,-205,205,220,220.0,145,-150,150,150.0,257.5,267.5,275,275.0,645
3,Corbin Silvernail,M,SBD,R-O,83,Raw,1990,,WA,81.60,-195,195,205,205.0,140,150,155,155.0,215,230,240,240.0,600
4,Alex Orozco,M,SBD,R-O,83,Raw,1992,,WA,83.00,210,220,-227.5,220.0,142.5,-147.5,147.5,147.5,225,232.5,-240,232.5,600
5,Michael Ngo,M,SBD,R-O,83,Raw,1991,,WA,76.10,175,187.5,205,205.0,125,140,145,145.0,160,175,195,195.0,545
6,Chris Turnbull,M,SBD,R-O,83,Raw,1988,Northwest Strength & Conditioning,WA,79.90,177.5,190,197.5,197.5,117.5,125,132.5,132.5,177.5,200,215,215.0,545
7,Dario Marasco,M,SBD,R-O,83,Raw,1994,,WA,82.70,-175,175,187.5,187.5,107.5,115,-120,115.0,215,227.5,237.5,237.5,540
8,Kyle Bacon,M,SBD,R-O,83,Raw,1990,,WA,80.30,180,187.5,-195,187.5,120,-125,125,125.0,200,210,-215,210.0,522.5
9,Cody Beitner,M,SBD,R-O,83,Raw,1984,,WA,80.50,125,137.5,150,150.0,92.5,105,115,115.0,150,170,-177.5,170.0,435
10,Michael Huynh,M,SBD,R-O,83,Raw,1986,,WA,82.90,25,,,25.0,-162.5,167.5,-177.5,167.5,75,,,75.0,267.5
1,Daniel Libre,M,SBD,R-O,93,Raw,1986,Northwest Strength & Conditioning,WA,89.40,285,295,-305,295.0,160,165,-167.5,165.0,320,-330,337.5,337.5,797.5
2,Christopher LaCour,M,SBD,R-O,93,Raw,1983,,WA,88.90,212.5,222.5,232.5,232.5,165,175,185,185.0,220,230,245,245.0,662.5
3,Brandon Turner #2,M,SBD,R-O,93,Raw,1991,,WA,88.60,220,230,-240,230.0,150,160,-167.5,160.0,240,252.5,-257.5,252.5,642.5
4,Luis Brito,M,SBD,R-O,93,Raw,1989,,WA,92.90,227.5,235,245,245.0,152.5,157.5,-165,157.5,227.5,237.5,-247.5,237.5,640
5,Melvin Santos,M,SBD,R-O,93,Raw,1986,,WA,91.60,192.5,205,-210,205.0,142.5,147.5,155,155.0,227.5,237.5,242.5,242.5,602.5
6,Cameron Leslie,M,SBD,R-O,93,Raw,1985,,WA,92.70,185,192.5,200,200.0,132.5,137.5,140,140.0,187.5,192.5,197.5,197.5,537.5
7,Jacob Young,M,SBD,R-O,93,Raw,1992,,WA,88.60,172.5,177.5,180,180.0,105,110,-117.5,110.0,225,235,-245,235.0,525
8,Chester Kennedy,M,SBD,R-O,93,Raw,1986,,OR,90.50,125,140,147.5,147.5,87.5,97.5,-102.5,97.5,170,190,195,195.0,440
DQ,Brian Park,M,SBD,R-O,93,Raw,1988,,WA,92.70,175,-185,-185,175.0,-120,-120,-120,,192.5,200,-207.5,200.0,
1,Ben Rice,M,SBD,R-O,105,Raw,1989,,WA,104.10,300,312.5,322.5,322.5,167.5,172.5,177.5,177.5,335,350,-365,350.0,850
2,Luke Nilo,M,SBD,R-O,105,Raw,1984,Northwest Strength & Conditioning,WA,103.10,260,267.5,277.5,277.5,152.5,160,-165,160.0,280,-290,290,290.0,727.5
3,Alexander Meyers,M,SBD,R-O,105,Raw,1992,,AK,104.20,232.5,245,252.5,252.5,147.5,157.5,-160,157.5,-265,265,272.5,272.5,682.5
4,Maxwell Schreiber,M,SBD,R-O,105,Raw,1994,,WA,103.30,205,222.5,230,230.0,147.5,152.5,160,160.0,232.5,250,260,260.0,650
5,Randall Schroedel,M,SBD,R-O,105,Raw,1991,,WA,103.10,225,235,242.5,242.5,137.5,145,150,150.0,237.5,-250,252.5,252.5,645
6,Ernesto Mata,M,SBD,R-O,105,Raw,1990,,WA,98.60,202.5,-212.5,-212.5,202.5,132.5,135,137.5,137.5,225,230,235,235.0,575
7,Dylan Shenefield,M,SBD,R-O,105,Raw,1992,,WA,101.60,160,172.5,182.5,182.5,152.5,162.5,-170,162.5,192.5,217.5,227.5,227.5,572.5
8,Scott Drapeau,M,SBD,R-O,105,Raw,1985,,WA,93.80,-197.5,197.5,-202.5,197.5,120,130,-140,130.0,185,192.5,205,205.0,532.5
1,Nathan Alexander,M,SBD,R-O,120,Raw,1982,,WA,118.70,-305,305,320,320.0,185,190,-195,190.0,345,365,370,370.0,880
2,John Forsythe,M,SBD,R-O,120,Raw,1985,,WA,115.90,185,195,205,205.0,165,175,182.5,182.5,225,245,250,250.0,637.5
3,Frank Marshall,M,SBD,R-O,120,Raw,1992,,WA,110.90,190,202.5,-207.5,202.5,-137.5,137.5,-142.5,137.5,242.5,-252.5,,242.5,582.5
4,Andrew Gardelle,M,SBD,R-O,120,Raw,1984,Main Event Strength,MT,110.20,180,185,-195,185.0,125,135,142.5,142.5,195,207.5,227.5,227.5,555
5,Manuel Gutierrez,M,SBD,R-O,120,Raw,1992,,WA,116.00,-182.5,182.5,-187.5,182.5,145,-150,-152.5,145.0,187.5,192.5,-197.5,192.5,520
1,George Smith,M,SBD,R-O,120+,Raw,1983,Northwest Strength & Conditioning,WA,137.60,267.5,275,282.5,282.5,187.5,195,200,200.0,257.5,265,272.5,272.5,755
2,Sean Trait,M,SBD,R-O,120+,Raw,1991,,WA,148.60,242.5,255,267.5,267.5,155,175,-182.5,175.0,232.5,247.5,257.5,257.5,700
3,Manuel Salgado,M,SBD,R-O,120+,Raw,1982,,WA,123.50,200,-205,215,215.0,172.5,182.5,-185,182.5,235,245,255,255.0,652.5
4,Grey Roberts,M,SBD,R-O,120+,Raw,1985,,WA,123.30,225,235,245,245.0,145,152.5,-160,152.5,225,232.5,242.5,242.5,640
5,Gary Prtune,M,SBD,R-O,120+,Raw,1988,,WA,128.70,-195,-205,205,205.0,130,135,140,140.0,230,240,250,250.0,595
DQ,Casey Nelson,M,SBD,R-O,120+,Raw,1986,,WA,128.40,-145,-145,-145,,-130,130,132.5,132.5,182.5,195,210,210.0,
1,Quincy Teal,M,SBD,R-T2,66,Raw,2002,,WA,62.10,110,117.5,-122.5,117.5,62.5,67.5,-72.5,67.5,150,160,-167.5,160.0,345
1,Nathaniel Gould,M,SBD,R-T2,83,Raw,2002,,WA,78.20,137.5,142.5,147.5,147.5,-92.5,95,-102.5,95.0,-167.5,172.5,180,180.0,422.5
1,Dean Christianson,M,SBD,R-T2,93,Raw,2001,,WA,90.40,132.5,147.5,155,155.0,97.5,102.5,-105,102.5,185,205,210,210.0,467.5
1,Tyler Gilliland,M,SBD,R-T2,105,Raw,2002,,WA,99.70,142.5,-157.5,157.5,157.5,100,107.5,115,115.0,210,220,-230,220.0,492.5
2,Ethan Tran,M,SBD,R-T2,105,Raw,2001,,WA,100.00,102.5,107.5,110,110.0,75,-85,85,85.0,142.5,-150,-150,142.5,337.5
1,Greg Pedersen,M,SBD,R-T3,83,Raw,1999,,WA,82.80,162.5,175,-177.5,175.0,85,90,-92.5,90.0,210,-220,-220,210.0,475
1,Christian Brown,M,SBD,R-T3,93,Raw,1999,,WA,91.70,200,215,227.5,227.5,132.5,140,-145,140.0,267.5,282.5,-292.5,282.5,650
2,Phu Ly,M,SBD,R-T3,93,Raw,1998,,WA,92.80,175,185,192.5,192.5,137.5,142.5,150,150.0,205,217.5,227.5,227.5,570
3,Luke Kennedy,M,SBD,R-T3,93,Raw,1998,,WA,92.90,-195,207.5,-215,207.5,125,137.5,140,140.0,202.5,212.5,-220,212.5,560
4,Conner Kankelborg,M,SBD,R-T3,93,Raw,1999,,WA,90.20,172.5,177.5,187.5,187.5,105,115,122.5,122.5,212.5,220,230,230.0,540
