Name,WeightClassKg,Division,Best3SquatKg,Best3BenchKg,Best3DeadliftKg,TotalKg,Event,Equipment,Sex,Place
Marcos Moran,52,Freshman-Sophmore,125,80,160,365,SBD,Single-ply,M,1
L. Mays,52,Freshman-Sophmore,140,80,145,365,SBD,Single-ply,M,2
T. McCollun,52,Freshman-Sophmore,120,72.5,125,317.5,SBD,Single-ply,M,3
B. Breaux,52,Freshman-Sophmore,112.5,77.5,117.5,307.5,SBD,Single-ply,M,4
S. Hollis,52,Freshman-Sophmore,120,45,125,290,SBD,Single-ply,M,5
R. Smith,52,Freshman-Sophmore,110,60,117.5,287.5,SBD,Single-ply,M,6
V. Reyes,52,Freshman-Sophmore,95,57.5,115,267.5,SBD,Single-ply,M,7
K. Lane,52,Freshman-Sophmore,,,,,SBD,Single-ply,M,DQ
J. Phillips,52,Freshman-Sophmore,110,,,,SBD,Single-ply,M,DQ
D. Johnson,56,Freshman-Sophmore,155,90,177.5,422.5,SBD,Single-ply,M,1
C. Bullock,56,Freshman-Sophmore,160,77.5,177.5,415,SBD,Single-ply,M,2
M. Patzig,56,Freshman-Sophmore,130,80,180,390,SBD,Single-ply,M,3
T. Morgan,56,Freshman-Sophmore,132.5,92.5,160,385,SBD,Single-ply,M,4
T. Stott,56,Freshman-Sophmore,137.5,80,150,367.5,SBD,Single-ply,M,5
D. Gray,56,Freshman-Sophmore,110,67.5,137.5,315,SBD,Single-ply,M,6
E. Dzienis,56,Freshman-Sophmore,70,52.5,117.5,240,SBD,Single-ply,M,7
M. Limbrick,60,Freshman-Sophmore,162.5,105,180,447.5,SBD,Single-ply,M,1
D. Shorts,60,Freshman-Sophmore,160,85,180,425,SBD,Single-ply,M,2
T. Johnson,60,Freshman-Sophmore,162.5,95,167.5,425,SBD,Single-ply,M,3
J. Knight,60,Freshman-Sophmore,137.5,92.5,145,375,SBD,Single-ply,M,4
J. Silkey,60,Freshman-Sophmore,135,80,152.5,367.5,SBD,Single-ply,M,5
D. Breeding,60,Freshman-Sophmore,132.5,72.5,150,355,SBD,Single-ply,M,6
B. Mahoney,60,Freshman-Sophmore,145,72.5,132.5,350,SBD,Single-ply,M,7
S. Hadnot,67.5,Freshman-Sophmore,197.5,107.5,197.5,502.5,SBD,Single-ply,M,1
B. Kirk,67.5,Freshman-Sophmore,177.5,110,167.5,455,SBD,Single-ply,M,2
J. Hamilton,67.5,Freshman-Sophmore,167.5,95,165,427.5,SBD,Single-ply,M,3
A. Tyler,67.5,Freshman-Sophmore,160,90,177.5,427.5,SBD,Single-ply,M,4
M. Brown,67.5,Freshman-Sophmore,147.5,95,177.5,420,SBD,Single-ply,M,5
B. Eda,67.5,Freshman-Sophmore,130,75,165,370,SBD,Single-ply,M,6
D. Holmes,67.5,Freshman-Sophmore,137.5,,,,SBD,Single-ply,M,DQ
A. Hadnot,75,Freshman-Sophmore,190,110,230,530,SBD,Single-ply,M,1
F. Beason,75,Freshman-Sophmore,175,107.5,205,487.5,SBD,Single-ply,M,2
V. Cullars,75,Freshman-Sophmore,182.5,115,187.5,485,SBD,Single-ply,M,3
C. Ashley,75,Freshman-Sophmore,102.5,137.5,135,375,SBD,Single-ply,M,4
K. Vanzile,75,Freshman-Sophmore,,,,,SBD,Single-ply,M,DQ
R. Woods,82.5,Freshman-Sophmore,200,120,242.5,562.5,SBD,Single-ply,M,1
G. Mills,82.5,Freshman-Sophmore,182.5,127.5,210,520,SBD,Single-ply,M,2
R. Cockrell,82.5,Freshman-Sophmore,160,120,222.5,502.5,SBD,Single-ply,M,3
C. Lynn,90,Freshman-Sophmore,190,110,200,500,SBD,Single-ply,M,1
J. Urriola,90,Freshman-Sophmore,162.5,92.5,195,450,SBD,Single-ply,M,2
C. Smith,90,Freshman-Sophmore,150,110,170,430,SBD,Single-ply,M,3
K. Washington,90,Freshman-Sophmore,150,95,177.5,422.5,SBD,Single-ply,M,4
C. Sanders,90,Freshman-Sophmore,232.5,115,,,SBD,Single-ply,M,DQ
J. Durham,100,Freshman-Sophmore,262.5,142.5,277.5,682.5,SBD,Single-ply,M,1
R. Alaniz,110,Freshman-Sophmore,205,117.5,205,527.5,SBD,Single-ply,M,1
J. Makowski,110,Freshman-Sophmore,172.5,85,182.5,440,SBD,Single-ply,M,2
E. Gamez,125,Freshman-Sophmore,265,107.5,197.5,570,SBD,Single-ply,M,1
D. Brown,125,Freshman-Sophmore,152.5,100,180,432.5,SBD,Single-ply,M,2
M. Castillo,52,Juniors-Senior,165,82.5,172.5,420,SBD,Single-ply,M,1
H. Sheth,52,Juniors-Senior,137.5,75,162.5,375,SBD,Single-ply,M,2
L. Mays,52,Juniors-Senior,140,80,145,365,SBD,Single-ply,M,3
M. Toledano,52,Juniors-Senior,130,75,150,355,SBD,Single-ply,M,4
M. Jane,52,Juniors-Senior,125,75,147.5,347.5,SBD,Single-ply,M,5
C. Carpenter,52,Juniors-Senior,110,62.5,162.5,335,SBD,Single-ply,M,6
J. Nazare,52,Juniors-Senior,115,65,132.5,312.5,SBD,Single-ply,M,7
S. Hollis,52,Juniors-Senior,120,45,125,290,SBD,Single-ply,M,8
M. Bevil,56,Juniors-Senior,170,97.5,187.5,455,SBD,Single-ply,M,1
O. Dickens,56,Juniors-Senior,162.5,92.5,170,425,SBD,Single-ply,M,2
D. Johnson,56,Juniors-Senior,155,90,177.5,422.5,SBD,Single-ply,M,3
C. Bullock,56,Juniors-Senior,160,77.5,177.5,415,SBD,Single-ply,M,4
D. Campbell,56,Juniors-Senior,160,92.5,162.5,415,SBD,Single-ply,M,5
S. Reed,56,Juniors-Senior,152.5,82.5,167.5,402.5,SBD,Single-ply,M,6
B. Buckley,56,Juniors-Senior,135,80,152.5,367.5,SBD,Single-ply,M,7
M. Bourlet,56,Juniors-Senior,117.5,80,167.5,365,SBD,Single-ply,M,8
T. Becne,56,Juniors-Senior,135,65,132.5,332.5,SBD,Single-ply,M,9
P. Messer,56,Juniors-Senior,,,,,SBD,Single-ply,M,DQ
M. Bills,60,Juniors-Senior,202.5,102.5,202.5,507.5,SBD,Single-ply,M,1
R. Sandoval,60,Juniors-Senior,177.5,130,197.5,505,SBD,Single-ply,M,2
M. Smith,60,Juniors-Senior,222.5,95,187.5,505,SBD,Single-ply,M,3
T. Qualls,60,Juniors-Senior,185,102.5,185,472.5,SBD,Single-ply,M,4
S. Reynolds,60,Juniors-Senior,157.5,90,200,447.5,SBD,Single-ply,M,5
A. Torres,60,Juniors-Senior,172.5,82.5,192.5,447.5,SBD,Single-ply,M,6
M. Green,60,Juniors-Senior,165,95,177.5,437.5,SBD,Single-ply,M,7
D. Shorts,60,Juniors-Senior,160,85,180,425,SBD,Single-ply,M,8
M. McQuade,60,Juniors-Senior,150,97.5,160,407.5,SBD,Single-ply,M,9
G. Holt,60,Juniors-Senior,147.5,77.5,160,385,SBD,Single-ply,M,10
K. Lefeure,60,Juniors-Senior,,,,,SBD,Single-ply,M,DQ
Calvin Dial,67.5,Juniors-Senior,247.5,130,240,617.5,SBD,Single-ply,M,1
R. Limbrick,67.5,Juniors-Senior,215,122.5,210,547.5,SBD,Single-ply,M,2
J. Steubing,67.5,Juniors-Senior,215,122.5,205,542.5,SBD,Single-ply,M,3
D. Fleck,67.5,Juniors-Senior,195,110,232.5,537.5,SBD,Single-ply,M,4
T. Tharpe,67.5,Juniors-Senior,192.5,112.5,210,515,SBD,Single-ply,M,5
E. Wells,67.5,Juniors-Senior,175,125,200,500,SBD,Single-ply,M,6
D. Williams,67.5,Juniors-Senior,190,107.5,192.5,490,SBD,Single-ply,M,7
D. Turner,67.5,Juniors-Senior,170,122.5,192.5,485,SBD,Single-ply,M,8
P. Johnson,67.5,Juniors-Senior,195,97.5,190,482.5,SBD,Single-ply,M,9
R. Philibert,67.5,Juniors-Senior,170,72.5,185,427.5,SBD,Single-ply,M,10
B. Green,67.5,Juniors-Senior,,,,,SBD,Single-ply,M,DQ
B. Owens,75,Juniors-Senior,242.5,132.5,242.5,617.5,SBD,Single-ply,M,1
C. Carr,75,Juniors-Senior,222.5,156,227.5,606,SBD,Single-ply,M,2
C. Caldwell,75,Juniors-Senior,252.5,112.5,227.5,592.5,SBD,Single-ply,M,3
C. Redmond,75,Juniors-Senior,227.5,135,227.5,590,SBD,Single-ply,M,4
C. Cauley,75,Juniors-Senior,232.5,130,212.5,575,SBD,Single-ply,M,5
M. Tobey,75,Juniors-Senior,212.5,122.5,222.5,557.5,SBD,Single-ply,M,6
D. Dixon,75,Juniors-Senior,200,117.5,235,552.5,SBD,Single-ply,M,7
R. Sivells,75,Juniors-Senior,180,120,205,505,SBD,Single-ply,M,8
F. Beason,75,Juniors-Senior,175,107.5,205,487.5,SBD,Single-ply,M,9
F. Desimone,75,Juniors-Senior,175,110,182.5,467.5,SBD,Single-ply,M,10
S. Gilley,75,Juniors-Senior,172.5,107.5,175,455,SBD,Single-ply,M,11
E. Gil,75,Juniors-Senior,155,90,165,410,SBD,Single-ply,M,12
W. Hooper,75,Juniors-Senior,220,,,,SBD,Single-ply,M,DQ
C. Bishop,75,Juniors-Senior,,,,,SBD,Single-ply,M,DQ
R. Funches,82.5,Juniors-Senior,235,140,250,625,SBD,Single-ply,M,1
R. Woods,82.5,Juniors-Senior,200,120,242.5,562.5,SBD,Single-ply,M,2
C. Williams,82.5,Juniors-Senior,237.5,117.5,207.5,562.5,SBD,Single-ply,M,3
D. Parker,82.5,Juniors-Senior,215,120,222.5,557.5,SBD,Single-ply,M,4
V. Reyes,82.5,Juniors-Senior,230,120,195,545,SBD,Single-ply,M,5
T. Kelly,82.5,Juniors-Senior,182.5,110,205,497.5,SBD,Single-ply,M,6
S. Carroll,82.5,Juniors-Senior,195,92.5,,,SBD,Single-ply,M,DQ
R. Garner,90,Juniors-Senior,240,132.5,292.5,665,SBD,Single-ply,M,1
T. Snow,90,Juniors-Senior,232.5,145,242.5,620,SBD,Single-ply,M,2
R. Filipowicz,90,Juniors-Senior,242.5,140,232.5,615,SBD,Single-ply,M,3
A. Clark,90,Juniors-Senior,215,122.5,255,592.5,SBD,Single-ply,M,4
R. Ray,90,Juniors-Senior,240,147.5,205,592.5,SBD,Single-ply,M,5
E. Godfrey,90,Juniors-Senior,200,115,252.5,567.5,SBD,Single-ply,M,6
C. Battle,90,Juniors-Senior,215,122.5,227.5,565,SBD,Single-ply,M,7
L. Gardner,90,Juniors-Senior,187.5,140,205,532.5,SBD,Single-ply,M,8
G. Ginet,90,Juniors-Senior,192.5,115,205,512.5,SBD,Single-ply,M,9
J. Laughlin,90,Juniors-Senior,210,,,,SBD,Single-ply,M,DQ
C. Henderson,90,Juniors-Senior,,,,,SBD,Single-ply,M,DQ
M. Tennant,100,Juniors-Senior,255,155,287.5,697.5,SBD,Single-ply,M,1
J. Durham,100,Juniors-Senior,262.5,142.5,277.5,682.5,SBD,Single-ply,M,2
R. Clarke,100,Juniors-Senior,272.5,155,250,677.5,SBD,Single-ply,M,3
B. Johnson,100,Juniors-Senior,245,167.5,235,647.5,SBD,Single-ply,M,5
E. Jenkins,100,Juniors-Senior,230,155,255,640,SBD,Single-ply,M,6
D. Ford,100,Juniors-Senior,260,155,255,670,SBD,Single-ply,M,4
B. Whitteker,100,Juniors-Senior,240,110,220,570,SBD,Single-ply,M,7
J. Pepe,100,Juniors-Senior,160,125,250,535,SBD,Single-ply,M,8
J. Kaiser,110,Juniors-Senior,260,152.5,287.5,700,SBD,Single-ply,M,1
K. Cambron,110,Juniors-Senior,270,145,250,665,SBD,Single-ply,M,2
R. Jackson,110,Juniors-Senior,267.5,115,240,622.5,SBD,Single-ply,M,3
P. Tierney,110,Juniors-Senior,235,117.5,227.5,580,SBD,Single-ply,M,4
D. Rice,110,Juniors-Senior,230,130,215,575,SBD,Single-ply,M,5
M. Mitchell,110,Juniors-Senior,200,110,220,530,SBD,Single-ply,M,6
D. Mizeski,110,Juniors-Senior,187.5,125,205,517.5,SBD,Single-ply,M,7
C. Sepe,110,Juniors-Senior,167.5,102.5,200,470,SBD,Single-ply,M,8
John Lynch,125,Juniors-Senior,295,185,275,755,SBD,Single-ply,M,1
N. Esqueda,125,Juniors-Senior,237.5,120,205,562.5,SBD,Single-ply,M,2
H. Rouse,125,Juniors-Senior,210,110,222.5,542.5,SBD,Single-ply,M,3
R. Paniaqua,125,Juniors-Senior,205,120,215,540,SBD,Single-ply,M,4
C. Bellucci,125,Juniors-Senior,182.5,95,192.5,470,SBD,Single-ply,M,5
B. Hughes,125+,Juniors-Senior,255,117.5,227.5,600,SBD,Single-ply,M,1
J. Brown,125+,Juniors-Senior,200,110,187.5,497.5,SBD,Single-ply,M,2
