Place,Name,Sex,Event,Division,Equipment,BirthYear,State,WeightClassKg,BodyweightKg,Squat1Kg,Squat2Kg,Squat3Kg,Best3SquatKg,Bench1Kg,Bench2Kg,Bench3Kg,Best3BenchKg,Deadlift1Kg,Deadlift2Kg,Deadlift3Kg,Best3DeadliftKg,TotalKg
1,Jennie Faucheaux,F,B,R-O,Raw,1980,LA,63,57.11,,,,,90.7,-97.5,-97.5,90.7,,,,,90.7
1,Zachary Volquardts,M,B,R-JR,Raw,1995,LA,83,80.38,,,,,83.9,-86.2,-86.2,83.9,,,,,83.9
1,James Lu,M,B,R-M4a,Raw,1947,LA,59,58.88,,,,,56.7,61.2,-63.5,61.2,,,,,61.2
DQ,Danny Brackin,M,B,R-M4a,Raw,1947,LA,120,118.21,,,,,-154.2,-161,-165.6,,,,,,
1,William Robbins,M,B,R-O,Raw,1984,LA,120,106.59,,,,,165.6,174.6,-183.7,174.6,,,,,174.6
1,Javon Okray,F,SBD,R-O,Raw,1980,LA,84+,110.72,102.1,115.7,127,127,56.7,70.3,-74.8,70.3,174.6,192.8,-208.7,192.8,390.1
1,Heather Simons,F,SBD,R-SO,Raw,1997,LA,84+,95.07,61.2,-70.3,70.3,70.3,38.6,47.6,52.2,52.2,45.4,61.2,74.8,74.8,197.3
2,Katherine Booras,F,SBD,R-SO,Raw,1996,LA,47,45.36,20.4,25,29.5,29.5,20.4,22.7,-25,22.7,29.5,34,38.6,38.6,90.8
3,Cayla Lane,F,SBD,R-SO,Raw,1998,LA,63,61.1,6.8,9.1,11.3,11.3,20.4,-25,25,25,29.5,34,38.6,38.6,74.9
1,Ashby Tyndall,F,SBD,R-T1,Raw,2004,LA,84,73.57,83.9,90.7,-95.3,90.7,40.8,-43.1,43.1,43.1,111.1,-120.2,122.5,122.5,256.3
2,Caitlyn Perser,F,SBD,R-T1,Raw,2003,LA,47,45.31,61.2,63.5,-65.8,63.5,-27.2,27.2,-29.5,27.2,65.8,70.3,77.1,77.1,167.8
1,Lauren Leedy,F,SBD,R-T2,Raw,2002,GA,84+,99.34,102.1,111.1,120.2,120.2,-52.2,52.2,-56.7,52.2,117.9,-129.3,129.3,129.3,301.7
2,Ainsley Wood,F,SBD,R-T2,Raw,2002,LA,84+,91.99,72.6,-79.4,-88.5,72.6,36.3,38.6,-40.8,38.6,99.8,108.9,117.9,117.9,229.1
1,Abigail Toro,F,SBD,R-Y2,Raw,2008,LA,52,51.07,31.8,38.6,49.9,49.9,18.1,-25,-25,18.1,61.2,70.3,-77.1,70.3,138.3
1,Anaiah Johnson,F,SBD,R-Y3,Raw,2006,LA,84+,90.63,25,43.1,61.2,61.2,27.2,31.8,38.6,38.6,43.1,61.2,83.9,83.9,183.7
2,Hannah Johnson,F,SBD,R-Y3,Raw,2006,LA,63,57.56,25,31.8,-38.6,31.8,22.7,27.2,-31.8,27.2,43.1,59,-72.6,59,118
1,Skylar Odom,F,SBD,T1,Single-ply,2003,LA,63,58.74,95.3,104.3,113.4,113.4,47.6,49.9,52.2,52.2,115.7,124.7,136.1,136.1,301.7
2,Hannah Guerrero,F,SBD,T1,Single-ply,2003,LA,72,68.49,90.7,97.5,104.3,104.3,47.6,49.9,-52.2,49.9,97.5,102.1,111.1,111.1,265.3
3,Chloe Kalmbach,F,SBD,T1,Single-ply,2002,LA,63,58.06,-61.2,61.2,-65.8,61.2,36.3,38.6,-40.8,38.6,74.8,79.4,86.2,86.2,186
1,Kailey Brookshire,F,SBD,T2,Single-ply,2002,LA,52,48.13,104.3,111.1,115.7,115.7,61.2,65.8,-68,65.8,108.9,120.2,127,127,308.5
2,Kaylin Little,F,SBD,T2,Single-ply,2002,LA,63,62.01,97.5,104.3,113.4,113.4,52.2,56.7,61.2,61.2,102.1,108.9,-129.3,108.9,283.5
3,Aubrey Mayo,F,SBD,T2,Single-ply,2002,LA,52,49.08,90.7,95.3,104.3,104.3,47.6,49.9,-54.4,49.9,102.1,106.6,111.1,111.1,265.3
4,Mya Evans,F,SBD,T2,Single-ply,2002,LA,43,42.86,77.1,79.4,83.9,83.9,-31.8,31.8,38.6,38.6,88.5,93,99.8,99.8,222.3
5,Devan Strange,F,SBD,T2,Single-ply,2001,LA,84+,90.04,-56.7,-56.7,56.7,56.7,31.8,36.3,-40.8,36.3,61.2,68,81.7,81.7,174.7
1,Alexandra Lazarus,F,SBD,T3,Single-ply,2000,LA,43,40.6,72.6,-77.1,79.4,79.4,31.8,34,38.6,38.6,70.3,79.4,86.2,86.2,204.2
1,Timothy Thibodeaux,M,SBD,R-JR,Raw,1997,TX,83,81.42,208.7,217.7,226.8,226.8,142.9,149.7,,149.7,260.8,272.2,-288,272.2,648.7
2,Khang Huynh,M,SBD,R-JR,Raw,1995,LA,83,78.24,190.5,199.6,208.7,208.7,117.9,124.7,131.5,131.5,213.2,224.5,-233.6,224.5,564.7
DQ,Edward North,M,SBD,R-M1b,Raw,1971,LA,120,110.59,-217.7,-217.7,217.7,217.7,-145.2,-145.2,-145.2,,260.8,274.4,283.5,283.5,
1,Kelvin York,M,SBD,R-O,Raw,1990,LA,120,119.66,260.8,274.4,281.2,281.2,183.7,192.8,-199.6,192.8,301.6,313,-317.5,313,787
2,John S. Jones Jr,M,SBD,R-O,Raw,1986,LA,120,119.25,249.5,-260.8,-272.2,249.5,183.7,192.8,201.9,201.9,274.4,288,-294.8,288,739.4
3,Daniel Francis,M,SBD,R-O,Raw,1989,TX,93,91.31,186,197.3,208.7,208.7,122.5,131.5,-140.6,131.5,204.1,220,233.6,233.6,573.8
4,Rhett Butler,M,SBD,R-O,Raw,1989,LA,93,92.12,170.1,183.7,190.5,190.5,136.1,-142.9,-142.9,136.1,215.5,231.3,242.7,242.7,569.3
5,Brandon Langlois,M,SBD,R-O,Raw,1985,LA,105,102.56,181.4,201.9,-210.9,201.9,131.5,-140.6,-140.6,131.5,220,233.6,-238.1,233.6,567
6,Caylon Gardner,M,SBD,R-O,Raw,1994,LA,83,80.01,-188.2,192.8,-208.7,192.8,113.4,-122.5,-124.7,113.4,238.1,-247.2,-247.2,238.1,544.3
7,David White,M,SBD,R-O,Raw,1983,LA,105,104.78,181.4,190.5,195,195,124.7,131.5,136.1,136.1,195,208.7,-215.5,208.7,539.8
8,Chance Vatovec,M,SBD,R-O,Raw,1994,LA,74,70.72,142.9,154.2,-165.6,154.2,111.1,117.9,124.7,124.7,188.2,199.6,210.9,210.9,489.8
9,William Hemphill,M,SBD,R-O,Raw,1993,AR,83,78.52,152,161,-165.6,161,102.1,106.6,-111.1,106.6,199.6,208.7,213.2,213.2,480.8
10,Michael Wynne,M,SBD,R-O,Raw,1985,LA,83,80.69,-154.2,154.2,-161,154.2,108.9,113.4,-117.9,113.4,167.8,174.6,-181.4,174.6,442.2
1,Seth Hanchey,M,SBD,R-SO,Raw,1994,LA,120+,149.69,172.4,186,197.3,197.3,-136.1,136.1,-152,136.1,192.8,210.9,226.8,226.8,560.2
2,Nathan Farnell,M,SBD,R-SO,Raw,1999,LA,120,111.22,43.1,52.2,56.7,56.7,43.1,52.2,-61.2,52.2,83.9,102.1,115.7,115.7,224.6
3,Carson Glascock,M,SBD,R-SO,Raw,2005,LA,93,84.41,34,-43.1,43.1,43.1,34,43.1,-52.2,43.1,43.1,52.2,61.2,61.2,147.4
DQ,Jacob Winstead #2,M,SBD,R-SO,Raw,2002,MD,74,70.81,-20.4,-20.4,20.4,20.4,-20.4,-20.4,-20.4,,-38.6,-38.6,38.6,38.6,
1,Latarraus Jackson,M,SBD,R-T1,Raw,2003,LA,59,54.25,79.4,-93,93,93,56.7,65.8,68,68,102.1,133.8,145.2,145.2,306.2
1,Brayden LaCaze,M,SBD,R-T1,Raw,2004,LA,83,79.7,-70.3,70.3,77.1,77.1,40.8,43.1,-47.6,43.1,88.5,93,99.8,99.8,220
DQ,Graham Carter,M,SBD,R-T1,Raw,2004,LA,93,89.58,63.5,74.8,83.9,83.9,-43.1,43.1,-47.6,43.1,-97.5,-97.5,-97.5,,
DQ,Donovan Teddlie,M,SBD,R-T1,Raw,2004,LA,105,97.7,-90.7,-97.5,-97.5,,-56.7,56.7,61.2,61.2,-122.5,122.5,136.1,136.1,
1,Cade Lazarus,M,SBD,R-Y2,Raw,2007,LA,53,27.4,13.6,20.4,-25,20.4,9.1,11.3,-15.9,11.3,29.5,36.3,40.8,40.8,72.5
1,Jacob Peterman,M,SBD,R-Y2,Raw,2007,LA,53,38.78,38.6,47.6,54.4,54.4,20.4,25,-29.5,25,61.2,77.1,-90.7,77.1,156.5
1,Aaron Brister,M,SBD,R-Y2,Raw,2007,LA,66,60.74,52.2,61.2,-72.6,61.2,29.5,34,-40.8,34,74.8,83.9,93,93,188.2
1,Dalton Lang,M,SBD,R-Y3,Raw,2005,LA,53,46.86,65.8,70.3,74.8,74.8,38.6,40.8,-45.4,40.8,83.9,90.7,104.3,104.3,219.9
2,Brayden Wilson,M,SBD,R-Y3,Raw,2006,LA,53,44,47.6,52.2,56.7,56.7,-27.2,27.2,29.5,29.5,56.7,59,61.2,61.2,147.4
3,Odin Hansen,M,SBD,R-Y3,Raw,2005,LA,53,44.77,25,29.5,34,34,22.7,27.2,-29.5,27.2,27.2,-36.3,43.1,43.1,104.3
1,Mason Guerrero,M,SBD,R-Y3,Raw,2005,LA,53,51.12,54.4,59,63.5,63.5,27.2,31.8,34,34,61.2,70.3,74.8,74.8,172.3
2,Sam Davis,M,SBD,R-Y3,Raw,2004,LA,53,48.31,47.6,52.2,54.4,54.4,27.2,-29.5,29.5,29.5,61.2,68,72.6,72.6,156.5
3,Jeffrey Harvey,M,SBD,R-Y3,Raw,2006,LA,53,48.99,-25,-25,25,25,22.7,29.5,-31.8,29.5,43.1,-52.2,-56.7,43.1,97.6
1,Aaron Lomastro,M,SBD,R-Y3,Raw,2005,LA,105,97.02,79.4,86.2,93,93,40.8,47.6,-52.2,47.6,88.5,102.1,113.4,113.4,254
2,Jordan Byrd,M,SBD,R-Y3,Raw,2004,LA,93,92.35,81.7,-90.7,90.7,90.7,61.2,65.8,-72.6,65.8,86.2,-90.7,90.7,90.7,247.2
3,Cayden Simmons,M,SBD,R-Y3,Raw,2005,LA,66,65.09,72.6,79.4,83.9,83.9,47.6,-49.9,49.9,49.9,90.7,97.5,104.3,104.3,238.1
4,Camron Randolph,M,SBD,R-Y3,Raw,2005,LA,59,57.56,79.4,81.7,86.2,86.2,43.1,45.4,47.6,47.6,88.5,93,99.8,99.8,233.6
5,Garrett Little,M,SBD,R-Y3,Raw,2004,LA,59,58.97,70.3,74.8,77.1,77.1,38.6,43.1,-45.4,43.1,95.3,102.1,108.9,108.9,229.1
6,Jimmy Wright,M,SBD,R-Y3,Raw,2005,LA,105,102.33,63.5,70.3,81.7,81.7,-45.4,45.4,-54.4,45.4,74.8,83.9,-102.1,83.9,211
7,Heath Gross,M,SBD,R-Y3,Raw,2005,LA,74,73.71,54.4,59,65.8,65.8,27.2,29.5,34,34,61.2,70.3,86.2,86.2,186
8,Anthony Cook,M,SBD,R-Y3,Raw,2004,LA,66,64.82,25,38.6,49.9,49.9,22.7,29.5,-38.6,29.5,34,61.2,83.9,83.9,163.3
9,Brian Marquez,M,SBD,R-Y3,Raw,2006,LA,59,56.38,25,34,43.1,43.1,22.7,-29.5,-29.5,22.7,34,-47.6,-52.2,34,99.8
DQ,Mason Batts,M,SBD,R-Y3,Raw,2004,LA,93,85.14,-34,-34,-34,,27.2,31.8,38.6,38.6,61.2,70.3,83.9,83.9,
1,Clayton Malone,M,SBD,T1,Single-ply,2003,LA,120+,129.05,-167.8,-183.7,197.3,197.3,-99.8,104.3,111.1,111.1,142.9,158.8,-170.1,158.8,467.2
1,Phillip Jones III,M,BD,R-SO,Raw,1992,LA,120+,149.69,,,,,-43.1,52.2,61.2,61.2,-61.2,-70.3,70.3,70.3,131.5
2,Micah Huhn,M,BD,R-SO,Raw,1976,LA,105,100.56,,,,,38.6,-40.8,-40.8,38.6,52.2,56.7,61.2,61.2,99.8
