Name,Place,Division,Sex,Equipment,State,WeightClassKg,BodyweightKg,Age,Best3SquatKg,Squat4Kg,Best3BenchKg,Bench4Kg,Best3DeadliftKg,Deadlift4Kg,TotalKg,Event
Genevieve Nguyen,1,Juniors 20-23,F,Raw,CA,52,50.67,20,72.5,,32.5,,97.5,102.5,202.5,SBD
Jennifer Estrada,1,Juniors 18-19,F,Raw,CA,56,53.61,18,87.5,,50,,115,120,252.5,SBD
Shelly Manangquil,1,Juniors 20-23,F,Raw,CA,56,55.57,23,115,,52.5,,137.5,,305,SBD
Elisabeth Hellquist,1,Juniors 18-19,F,Raw,CA,67.5,65.14,18,102.5,,42.5,,120,,265,SBD
Sarelle Harper,1,Juniors 20-23,F,Raw,CA,67.5,67.31,20,70,,50,,102.5,,222.5,SBD
Jenna Doyle,1,Juniors 20-23,F,Raw,CA,75,74.96,23,145,,72.5,,180,,397.5,SBD
Kristine Corey,2,Juniors 20-23,F,Raw,CA,75,68.58,22,72.5,,40,,112.5,,225,SBD
Montserrat Hansack,1,Juniors 20-23,F,Raw,CA,82.5,76.79,21,112.5,,60,,145,,317.5,SBD
Courtney Scott,2,Juniors 20-23,F,Raw,CA,82.5,77.56,23,95,,70,,122.5,,287.5,SBD
Marlene Juban,3,Juniors 20-23,F,Raw,CA,82.5,79.02,20,102.5,,42.5,,130,,275,SBD
Amber Fowler,1,Juniors 20-23,F,Raw,CA,90,89.77,22,87.5,,42.5,,135,,265,SBD
Dawn Gonzales,1,Open,F,Raw,CA,48,47.63,27,82.5,,45,,125,,252.5,SBD
Nicole Zapoli,DQ,Open,F,Raw,CA,48,47.13,30,90,,-60,,102.5,,,SBD
Monique LeMay,1,Open,F,Raw,CA,52,50.62,43,82.5,,55,,107.5,,245,SBD
Genevieve Nguyen,2,Open,F,Raw,CA,52,50.67,20,72.5,,32.5,,97.5,,202.5,SBD
Tina Daneshmand,1,Open,F,Raw,CA,56,54.2,27,120,,70,,172.5,,362.5,SBD
Shelly Manangquil,2,Open,F,Raw,CA,56,55.57,23,115,,52.5,,137.5,,305,SBD
Jennifer Estrada,3,Open,F,Raw,CA,56,53.61,18,87.5,,50,,115,,252.5,SBD
Brooke Murphy,1,Open,F,Raw,CA,60,58.79,33,87.5,,40,,102.5,,230,SBD
Lisa Evanovich,2,Open,F,Raw,CA,60,59.69,50,67.5,,42.5,,90,,200,SBD
Maggie Haywood,3,Open,F,Raw,CA,60,56.79,70,50,,30,,72.5,,152.5,SBD
Chinwendu Utom,1,Open,F,Raw,CA,67.5,65.45,25,127.5,,72.5,,155,,355,SBD
Aimee Anderson,2,Open,F,Raw,CA,67.5,65.45,34,115,,67.5,,167.5,170,350,SBD
Nicole Herbig,3,Open,F,Raw,CA,67.5,66.32,24,125,,57.5,,142.5,,325,SBD
Chai Brazil,4,Open,F,Raw,CA,67.5,64.73,39,107.5,,65,,142.5,,315,SBD
Nishea Martinez,5,Open,F,Raw,CA,67.5,67.36,29,122.5,,55,,132.5,,310,SBD
Elisabeth Hellquist,6,Open,F,Raw,CA,67.5,65.14,18,102.5,,42.5,,120,,265,SBD
Tiana King,7,Open,F,Raw,CA,67.5,61.96,26,90,,52.5,,117.5,,260,SBD
Corinna Ledford,8,Open,F,Raw,CA,67.5,66.09,35,92.5,,50,,112.5,,255,SBD
Courtney Pettenger,9,Open,F,Raw,CA,67.5,66.22,25,95,,37.5,,112.5,,245,SBD
Sarelle Harper,10,Open,F,Raw,CA,67.5,67.31,20,70,,50,,102.5,,222.5,SBD
Karisa Joseph,11,Open,F,Raw,CA,67.5,65.14,34,65,,42.5,,110,,217.5,SBD
Jenna Doyle,1,Open,F,Raw,CA,75,73.6,23,145,,72.5,,180,,397.5,SBD
Marie Lemkul,2,Open,F,Raw,CA,75,74.48,42,102.5,,60,,145,,307.5,SBD
Denise Ferrari,3,Open,F,Raw,CA,75,69.22,32,115,,57.5,,130,,302.5,SBD
Valerie Muller,4,Open,F,Raw,CA,75,72.21,39,97.5,,67.5,,130,,295,SBD
Kristine Corey,5,Open,F,Raw,CA,75,68.58,22,72.5,,40,,112.5,,225,SBD
Geovanna Carreno,6,Open,F,Raw,CA,75,71.8,30,85,,47.5,,92.5,,225,SBD
Montserrat Hansack,1,Open,F,Raw,CA,82.5,76.79,21,112.5,,60,,145,,317.5,SBD
Heidi Hansen,2,Open,F,Raw,CA,82.5,81.42,26,110,,72.5,,130,,312.5,SBD
Courtney Scott,3,Open,F,Raw,CA,82.5,77.56,23,95,,70,,122.5,,287.5,SBD
Marlene Juban,4,Open,F,Raw,CA,82.5,79.02,20,102.5,,42.5,,130,,275,SBD
Chai Brazil,1,Submasters 35-39,F,Raw,CA,67.5,64.73,39,107.5,,65,,142.5,145,315,SBD
Corinna Ledford,2,Submasters 35-39,F,Raw,CA,67.5,66.09,35,92.5,,50,,112.5,,255,SBD
Valerie Muller,1,Submasters 35-39,F,Raw,CA,75,72.21,39,97.5,,67.5,,130,,295,SBD
Monique LeMay,1,Masters 40-44,F,Raw,CA,52,50.62,43,82.5,,55,,107.5,,245,SBD
Lisa Evanovich,1,Masters 50-54,F,Raw,CA,60,59.69,50,67.5,,42.5,,90,,200,SBD
Maggie Haywood,1,Masters 70-74,F,Raw,CA,60,56.79,70,50,,30,,72.5,,152.5,SBD
Marie Lemkul,1,Masters 40-44,F,Raw,CA,75,74.48,42,102.5,,60,,145,,307.5,SBD
Minardo Ordonez,1,Juniors 20-23,M,Raw,CA,56,55.79,21,102.5,,90,,145,,337.5,SBD
Angel Rodríguez,2,Juniors 20-23,M,Raw,CA,56,53.52,23,95,,87.5,,137.5,,320,SBD
Phyman Dang,1,Juniors 18-19,M,Raw,CA,60,59.78,19,150,,92.5,,175,,417.5,SBD
James McCabe,1,Juniors 20-23,M,Raw,CA,60,59.87,23,215,,122.5,,227.5,,565,SBD
Thomas Xiong,2,Juniors 20-23,M,Raw,CA,60,59.74,20,132.5,,75,,142.5,,350,SBD
Peter Pham,1,Juniors 20-23,M,Raw,CA,67.5,67.36,20,187.5,,115,,232.5,,535,SBD
Samuel Blanco,2,Juniors 20-23,M,Raw,CA,67.5,66.81,21,167.5,,115,,230,,512.5,SBD
Gerald Lebrilla,3,Juniors 20-23,M,Raw,CA,67.5,66.72,21,175,,112.5,,220,,507.5,SBD
Tony Giang,4,Juniors 20-23,M,Raw,CA,67.5,66.5,21,135,,85,,170,,390,SBD
Kyle Ota,DQ,Juniors 20-23,M,Raw,CA,67.5,67.22,22,187.5,,137.5,,-227.5,,,SBD
Caleb Lessard-Clouston,1,Juniors 16-17,M,Raw,CA,75,74.53,16,157.5,,107.5,,217.5,,482.5,SBD
Ericson Torralba,1,Juniors 18-19,M,Raw,CA,75,73.62,19,182.5,,115,,215,,512.5,SBD
Matthew Mendoza,2,Juniors 18-19,M,Raw,CA,75,74.71,18,187.5,,102.5,,220,,510,SBD
Tyler Boden,3,Juniors 18-19,M,Raw,CA,75,74.07,19,162.5,,117.5,,217.5,,497.5,SBD
Taras Chavarha,1,Juniors 20-23,M,Raw,CA,75,74.43,22,187.5,,130,,227.5,,545,SBD
Martin Baculinao,2,Juniors 20-23,M,Raw,CA,75,74.21,23,190,,107.5,,237.5,,535,SBD
Ed Kim,3,Juniors 20-23,M,Raw,CA,75,73.48,21,165,,92.5,,250,,507.5,SBD
Joe Francisco #1,4,Juniors 20-23,M,Raw,CA,75,74.53,22,175,,92.5,,227.5,,495,SBD
Nicholas Kan,5,Juniors 20-23,M,Raw,CA,75,74.89,21,155,,105,,202.5,,462.5,SBD
Jonathan Diaz,6,Juniors 20-23,M,Raw,CA,75,72.57,23,150,,102.5,,190,,442.5,SBD
Steven Lopez,DQ,Juniors 20-23,M,Raw,CA,75,74.57,22,225,,-140,,252.5,,,SBD
Joe Chau,DQ,Juniors 20-23,M,Raw,CA,75,72.62,21,170,,,,,,,SBD
Gianni Vinson,1,Juniors 13-15,M,Raw,CA,82.5,78.24,14,150,,82.5,,182.5,190,415,SBD
Cameron Hansen,2,Juniors 13-15,M,Raw,CA,82.5,80.88,15,141,,92.5,,178,183,411.5,SBD
Ben Polak,1,Juniors 16-17,M,Raw,CA,82.5,82.28,17,195,,105,,215,,515,SBD
Spencer Dobbs,2,Juniors 16-17,M,Raw,CA,82.5,79.79,17,80,,72.5,,145,,297.5,SBD
David Avila,1,Juniors 18-19,M,Raw,CA,82.5,81.65,19,185,,155,,240,,580,SBD
Timothy Pham,2,Juniors 18-19,M,Raw,CA,82.5,80.83,19,175,,105,,212.5,,492.5,SBD
Kenneth Untalan,3,Juniors 18-19,M,Raw,CA,82.5,81.83,19,145,,87.5,,197.5,,430,SBD
Roy Huh,1,Juniors 20-23,M,Raw,CA,82.5,80.74,20,235,,142.5,,237.5,,615,SBD
Joseph Manno,2,Juniors 20-23,M,Raw,CA,82.5,81.06,23,210,,145,,232.5,,587.5,SBD
Daniel Camacho,3,Juniors 20-23,M,Raw,CA,82.5,80.69,20,197.5,,157.5,,210,,565,SBD
Richard Kang,4,Juniors 20-23,M,Raw,CA,82.5,78.43,23,202.5,,130,,215,,547.5,SBD
Christopher Trinh,5,Juniors 20-23,M,Raw,CA,82.5,79.33,23,170,,120,,255,,545,SBD
Jonathan Liang,6,Juniors 20-23,M,Raw,CA,82.5,81.69,20,165,,132.5,,210,,507.5,SBD
Sassan Khatibloo,7,Juniors 20-23,M,Raw,CA,82.5,79.24,20,162.5,,125,,207.5,,495,SBD
Christopher Cobo-Kroenke,8,Juniors 20-23,M,Raw,CA,82.5,79.74,20,142.5,,90,,150,,382.5,SBD
Allen Guevarra,DQ,Juniors 20-23,M,Raw,CA,82.5,81.01,21,185,,-120,,220,,,SBD
Tola Suleman,1,Juniors 20-23,M,Raw,CA,90,89.22,23,197.5,,155,,305,,657.5,SBD
Jacob Olivas,2,Juniors 20-23,M,Raw,CA,90,88.41,23,200,,132.5,,245,,577.5,SBD
Serro Park,3,Juniors 20-23,M,Raw,CA,90,88.99,22,200,,135,,227.5,,562.5,SBD
Seth Philipp,4,Juniors 20-23,M,Raw,CA,90,86.32,22,167.5,,130,,250,,547.5,SBD
Wayne Chen,5,Juniors 20-23,M,Raw,CA,90,88.86,22,150,,110,,222.5,,482.5,SBD
Jaimes Spring,6,Juniors 20-23,M,Raw,CA,90,88.18,22,160,,117.5,,180,,457.5,SBD
Anthony Su,7,Juniors 20-23,M,Raw,CA,90,89.4,20,145,,115,,195,,455,SBD
Daniel Arguello,8,Juniors 20-23,M,Raw,CA,90,85.55,21,140,,82.5,,147.5,,370,SBD
Brendan Cornwell,1,Juniors 20-23,M,Raw,CA,100,97.39,22,220,,152.5,,272.5,,645,SBD
Kolin Daniels,2,Juniors 20-23,M,Raw,CA,100,99.06,20,177.5,,120,,245,,542.5,SBD
Edward Alvarado,3,Juniors 20-23,M,Raw,CA,100,97.34,20,185,,127.5,,215,,527.5,SBD
Joel Sanchez,4,Juniors 20-23,M,Raw,CA,100,91.08,22,175,,122.5,,190,,487.5,SBD
Nadeem Hamidy,1,Juniors 18-19,M,Raw,CA,110,108.09,18,215,,150,,240,,605,SBD
Clayton DeSilva,1,Juniors 20-23,M,Raw,CA,110,104.69,21,260,265,182.5,186,335,,777.5,SBD
Zach Wittusen,2,Juniors 20-23,M,Raw,CA,110,109.27,22,257.5,,185,,295,,737.5,SBD
Stanton Grice,3,Juniors 20-23,M,Raw,CA,110,100.88,22,230,,162.5,,245,,637.5,SBD
Todd McWilliams,4,Juniors 20-23,M,Raw,CA,110,107.23,21,167.5,,125,,267.5,,560,SBD
Matthew Hooyenga,5,Juniors 20-23,M,Raw,CA,110,105.23,23,160,,117.5,,182.5,,460,SBD
Matt McKillop,1,Juniors 20-23,M,Raw,CA,125,122.65,23,187.5,,130,,227.5,,545,SBD
Taim Audi,1,Juniors 16-17,M,Raw,CA,140,138.53,16,182.5,,117.5,,165,,465,SBD
Cereno Chavez,1,Juniors 16-17,M,Raw,IL,140+,151.41,17,227.5,232.5,145,147.5,227.5,,600,SBD
Steven Maradona,1,Juniors 20-23,M,Raw,CA,140+,143.88,20,320,,227.5,,292.5,,840,SBD
Minardo Ordonez,1,Open,M,Raw,CA,56,55.79,21,102.5,,90,,145,,337.5,SBD
Angel Rodríguez,2,Open,M,Raw,CA,56,53.52,23,95,,87.5,,137.5,,320,SBD
James McCabe,1,Open,M,Raw,CA,60,59.87,23,215,,122.5,,227.5,,565,SBD
Samnang Thang,2,Open,M,Raw,CA,60,59.87,27,175,,100,,200,,475,SBD
Phyman Dang,3,Open,M,Raw,CA,60,59.78,19,150,,92.5,,175,,417.5,SBD
Thomas Xiong,4,Open,M,Raw,CA,60,59.74,20,132.5,,75,,142.5,,350,SBD
Scott Layman,1,Open,M,Raw,CA,67.5,66.5,43,220.5,,145,,217.5,,583,SBD
Peter Pham,2,Open,M,Raw,CA,67.5,67.36,20,187.5,,115,,232.5,,535,SBD
Samuel Blanco,3,Open,M,Raw,CA,67.5,66.81,21,167.5,,115,,230,,512.5,SBD
Gerald Lebrilla,4,Open,M,Raw,CA,67.5,66.72,21,175,,112.5,,220,,507.5,SBD
Acer Chen,5,Open,M,Raw,CA,67.5,66.09,26,170,,125,,205,,500,SBD
Nathaniel Pascua,6,Open,M,Raw,CA,67.5,66.41,30,162.5,,115,,200,,477.5,SBD
Tony Giang,7,Open,M,Raw,CA,67.5,66.5,21,135,,85,,170,,390,SBD
Mike Hill,8,Open,M,Raw,CA,67.5,63.32,29,122.5,,82.5,,132.5,,337.5,SBD
Kyle Ota,DQ,Open,M,Raw,CA,67.5,67.22,22,187.5,,137.5,,-227.5,,,SBD
Gerardo Rivera,1,Open,M,Raw,CA,75,74.21,25,195,,147.5,,265,,607.5,SBD
Taras Chavarha,2,Open,M,Raw,CA,75,74.43,22,187.5,,130,,227.5,,545,SBD
Martin Baculinao,3,Open,M,Raw,CA,75,74.21,23,190,,107.5,,237.5,,535,SBD
Ericson Torralba,4,Open,M,Raw,CA,75,73.62,19,182.5,,115,,215,,512.5,SBD
Matthew Mendoza,5,Open,M,Raw,CA,75,74.71,18,187.5,,102.5,,220,,510,SBD
Ed Kim,6,Open,M,Raw,CA,75,73.48,21,165,,92.5,,250,,507.5,SBD
Tyler Boden,7,Open,M,Raw,CA,75,74.07,19,162.5,,117.5,,217.5,,497.5,SBD
Joe Francisco #1,8,Open,M,Raw,CA,75,74.53,22,175,,92.5,,227.5,,495,SBD
Caleb Lessard-Clouston,9,Open,M,Raw,CA,75,74.53,16,157.5,,107.5,,217.5,,482.5,SBD
Christopher Le,10,Open,M,Raw,CA,75,74.75,24,150,,112.5,,217.5,,480,SBD
Nicholas Kan,11,Open,M,Raw,CA,75,74.89,21,155,,105,,202.5,,462.5,SBD
Jonathan Diaz,12,Open,M,Raw,CA,75,72.57,23,150,,102.5,,190,,442.5,SBD
Richard Chhan,13,Open,M,Raw,CA,75,70.31,24,170,,80,,182.5,,432.5,SBD
Jeffrey Stanley,14,Open,M,Raw,CA,75,73.3,56,115,,100,,210,,425,SBD
Daniel Marinoff,15,Open,M,Raw,CA,75,73.75,30,155,,102.5,,167.5,,425,SBD
Navreet Dhaliwal,16,Open,M,Raw,CA,75,74.34,26,120,,82.5,,172.5,,375,SBD
Joe Chau,DQ,Open,M,Raw,CA,75,72.62,21,-170,,,,,,,SBD
Steven Lopez,DQ,Open,M,Raw,CA,75,74.57,22,225,,-140,,252.5,,,SBD
Chris Garcia,1,Open,M,Raw,CA,82.5,82.19,26,245,,170,,297.5,,712.5,SBD
Jeff Justo,2,Open,M,Raw,CA,82.5,81.06,26,247.5,,125,,245,,617.5,SBD
Roy Huh,3,Open,M,Raw,CA,82.5,80.74,20,235,,142.5,,237.5,,615,SBD
Ryan Wu,4,Open,M,Raw,CA,82.5,80.78,25,217.5,,152.5,,245,,615,SBD
Frank Tarn,5,Open,M,Raw,CA,82.5,81.65,25,210,,147.5,,245,,602.5,SBD
Tony Rodgers,6,Open,M,Raw,CA,82.5,82.42,25,220,,152.5,,217.5,,590,SBD
Joseph Manno,7,Open,M,Raw,CA,82.5,81.06,23,210,,145,,232.5,,587.5,SBD
David Avila,8,Open,M,Raw,CA,82.5,81.65,19,185,,155,,240,,580,SBD
Tony Mai,9,Open,M,Raw,CA,82.5,81.33,27,217.5,,115,,245,,577.5,SBD
Daniel Camacho,10,Open,M,Raw,CA,82.5,80.69,20,197.5,,157.5,,210,,565,SBD
Nick Stearns,11,Open,M,Raw,CA,82.5,81.65,29,187.5,,130,,240,,557.5,SBD
Richard Kang,12,Open,M,Raw,CA,82.5,78.43,23,202.5,,130,,215,,547.5,SBD
Christopher Trinh,13,Open,M,Raw,CA,82.5,79.33,23,170,,120,,255,,545,SBD
Cody Garner,14,Open,M,Raw,CA,82.5,78.7,24,182.5,,127.5,,227.5,,537.5,SBD
Ben Polak,15,Open,M,Raw,CA,82.5,82.28,17,195,,105,,215,,515,SBD
Jonathan Liang,16,Open,M,Raw,CA,82.5,81.69,20,165,,132.5,,210,,507.5,SBD
Sassan Khatibloo,17,Open,M,Raw,CA,82.5,79.24,20,162.5,,125,,207.5,,495,SBD
Timothy Pham,18,Open,M,Raw,CA,82.5,80.83,19,175,,105,,212.5,,492.5,SBD
Dustan Wheeler,19,Open,M,Raw,CA,82.5,81.6,25,152.5,,122.5,,190,,465,SBD
Mike Kaplan,20,Open,M,Raw,CA,82.5,80.65,57,152.5,,110,,190,,452.5,SBD
Steve Ko,21,Open,M,Raw,CA,82.5,76.2,28,167.5,,107.5,,177.5,,452.5,SBD
Kenneth Untalan,22,Open,M,Raw,CA,82.5,81.83,19,145,,87.5,,197.5,,430,SBD
Gianni Vinson,23,Open,M,Raw,CA,82.5,78.24,14,150,,82.5,,182.5,,415,SBD
Cameron Hansen,24,Open,M,Raw,CA,82.5,80.88,15,141,,92.5,,178,,411.5,SBD
Christopher Cobo-Kroenke,25,Open,M,Raw,CA,82.5,79.74,20,142.5,,90,,150,,382.5,SBD
Tom Lujan,26,Open,M,Raw,CA,82.5,82.42,51,120,,97.5,,147.5,,365,SBD
Spencer Dobbs,27,Open,M,Raw,CA,82.5,79.79,17,80,,72.5,,145,,297.5,SBD
Allen Guevarra,DQ,Open,M,Raw,CA,82.5,81.01,21,185,,-120,,220,,,SBD
Nate Suangpo,1,Open,M,Raw,CA,90,86.95,31,232.5,,152.5,,272.5,,657.5,SBD
Tola Suleman,2,Open,M,Raw,CA,90,89.22,23,197.5,,155,,305,,657.5,SBD
Ben Fong,3,Open,M,Raw,CA,90,89.13,30,227.5,,160,,257.5,,645,SBD
Carlton Johnson,4,Open,M,Raw,CA,90,88.54,36,220,,170,,250,,640,SBD
Chris Mangano,5,Open,M,Raw,CA,90,87.09,37,227.5,,142.5,,247.5,,617.5,SBD
Bart Kwan,6,Open,M,Raw,CA,90,88.68,29,200,,150,,237.5,,587.5,SBD
Durell Brown,7,Open,M,Raw,CA,90,86.55,28,210,,137.5,,237.5,,585,SBD
Jacob Olivas,8,Open,M,Raw,CA,90,88.41,23,200,,132.5,,245,,577.5,SBD
James Knoles,9,Open,M,Raw,CA,90,89.68,24,202.5,,122.5,,247.5,,572.5,SBD
Serro Park,10,Open,M,Raw,CA,90,88.99,22,200,,135,,227.5,,562.5,SBD
Bobby Ignacio,11,Open,M,Raw,CA,90,89.45,25,207.5,,130,,225,,562.5,SBD
Daniel Johnson,12,Open,M,Raw,CA,90,86.36,24,185,,127.5,,235,,547.5,SBD
Seth Philipp,13,Open,M,Raw,CA,90,86.32,22,167.5,,130,,250,,547.5,SBD
Arik Ozden,14,Open,M,Raw,CA,90,89.4,24,185,,140,,220,,545,SBD
Eugene Huang,15,Open,M,Raw,CA,90,87,24,160,,132.5,,242.5,,535,SBD
Delawar Roashan,16,Open,M,Raw,CA,90,87.68,25,152.5,,137.5,,235,,525,SBD
Bradley Adams,17,Open,M,Raw,CA,90,88.77,28,197.5,,110,,215,,522.5,SBD
Tim Anderson,18,Open,M,Raw,CA,90,87.59,59,157.5,,120,,207.5,,485,SBD
Wayne Chen,19,Open,M,Raw,CA,90,88.86,22,150,,110,,222.5,,482.5,SBD
Rob Martino,20,Open,M,Raw,CA,90,88.36,46,165,,107.5,,195,,467.5,SBD
Jaimes Spring,21,Open,M,Raw,CA,90,88.18,22,160,,117.5,,180,,457.5,SBD
Anthony Su,22,Open,M,Raw,CA,90,89.4,20,145,,115,,195,,455,SBD
Dustin Beckley,23,Open,M,Raw,CA,90,83.14,35,155,,95,,172.5,,422.5,SBD
Daniel Arguello,24,Open,M,Raw,CA,90,85.55,21,140,,82.5,,147.5,,370,SBD
Donald Rhodes,DQ,Open,M,Raw,CA,90,89.36,39,285,,-142.5,,,,,SBD
Ray Juan Horton,DQ,Open,M,Raw,CA,90,85.28,26,215,,-152.5,,207.5,,,SBD
Tony Montgomery,1,Open,M,Raw,CA,100,99.38,28,255,,200,,300,,755,SBD
Brendan Cornwell,2,Open,M,Raw,CA,100,97.39,22,220,,152.5,,272.5,,645,SBD
Jared Robinson,3,Open,M,Raw,CA,100,99.25,36,215,,182.5,,245,,642.5,SBD
George Pessell,4,Open,M,Raw,CA,100,95.57,55,227.5,,152.5,,245,,625,SBD
Danny Kang,5,Open,M,Raw,CA,100,98.02,35,190,,135,,227.5,,552.5,SBD
Kolin Daniels,6,Open,M,Raw,CA,100,99.06,20,177.5,,120,,245,,542.5,SBD
Al Morentin,7,Open,M,Raw,CA,100,94.85,48,165,,137.5,,227.5,,530,SBD
Edward Alvarado,8,Open,M,Raw,CA,100,97.34,20,185,,127.5,,215,,527.5,SBD
Abia-Imo Roberts,9,Open,M,Raw,CA,100,97.25,35,150,,107.5,,240,,497.5,SBD
Joel Sanchez,10,Open,M,Raw,CA,100,91.08,22,175,,122.5,,190,,487.5,SBD
Mark Ray,11,Open,M,Raw,CA,100,93.26,25,165,,95,,197.5,,457.5,SBD
Michael Womelsdorf,12,Open,M,Raw,CA,100,96.3,56,125,,107.5,,155,,387.5,SBD
Clayton DeSilva,1,Open,M,Raw,CA,110,104.69,21,260,,182.5,,335,,777.5,SBD
Zach Wittusen,2,Open,M,Raw,CA,110,109.27,22,257.5,,185,,295,,737.5,SBD
Aaron Terry,3,Open,M,Raw,CA,110,107.55,24,250,,172.5,,275,,697.5,SBD
Joey Tango,4,Open,M,Raw,CA,110,107.05,28,257.5,,152.5,,285,,695,SBD
Paul Andrade,5,Open,M,Raw,CA,110,109.54,28,202.5,,187.5,,275,,665,SBD
Lee Crisp,6,Open,M,Raw,CA,110,107.18,39,207.5,,182.5,,260,,650,SBD
Stanton Grice,7,Open,M,Raw,CA,110,100.88,22,230,,162.5,,245,,637.5,SBD
Michael Wiegers,8,Open,M,Raw,CA,110,105.6,32,220,,135,,250,,605,SBD
Nadeem Hamidy,9,Open,M,Raw,CA,110,108.09,18,215,,150,,240,,605,SBD
Wayne Jandoc,10,Open,M,Raw,CA,110,107.41,56,205,,158,,238,,601,SBD
Matthew Saner,11,Open,M,Raw,CA,110,107.86,27,202.5,,152.5,,242.5,,597.5,SBD
Matt Mammone,12,Open,M,Raw,CA,110,102.24,31,195,,150,,240,,585,SBD
Aaron Capp,13,Open,M,Raw,CA,110,103.42,35,195,,132.5,,240,,567.5,SBD
Gregory Cotterell,14,Open,M,Raw,CA,110,109.95,54,190,,145,,227.5,,562.5,SBD
Todd McWilliams,15,Open,M,Raw,CA,110,107.23,21,167.5,,125,,267.5,,560,SBD
Matthew Hooyenga,16,Open,M,Raw,CA,110,105.23,23,160,,117.5,,182.5,,460,SBD
David Hill,1,Open,M,Raw,CA,125,123.92,31,245,,182.5,,282.5,,710,SBD
Fredrick Martinez,2,Open,M,Raw,CA,125,122.33,48,230,,185,,272.5,,687.5,SBD
Joshua Camacho,3,Open,M,Raw,CA,125,122.65,26,237.5,,140,,272.5,,650,SBD
Lindsey Kellogg,4,Open,M,Raw,CA,125,123.83,28,220,,152.5,,275,,647.5,SBD
Dani Pham,5,Open,M,Raw,CA,125,123.65,31,217.5,,125,,227.5,,570,SBD
Lee Botkin,6,Open,M,Raw,CA,125,122.61,27,192.5,,125,,227.5,,545,SBD
Matt McKillop,7,Open,M,Raw,CA,125,122.65,23,187.5,,130,,227.5,,545,SBD
Bartholomew Ryan,8,Open,M,Raw,CA,125,113.58,25,172.5,,120,,227.5,,520,SBD
Robert Speno,1,Open,M,Raw,CA,140,137.98,45,280,,175,,265,,720,SBD
Kevin Smith,2,Open,M,Raw,CA,140,132.99,25,205,,150,,250,,605,SBD
Joseph Llamas,3,Open,M,Raw,CA,140,132.77,31,185,,165,,240,,590,SBD
Kellen Boyce,4,Open,M,Raw,CA,140,129.91,48,232.5,,137.5,,205,,575,SBD
Taim Audi,5,Open,M,Raw,CA,140,138.53,16,182.5,,117.5,,165,,465,SBD
Steven Maradona,1,Open,M,Raw,CA,140+,143.88,20,320,,227.5,,292.5,,840,SBD
O'Neil Roussell,2,Open,M,Raw,CA,140+,168.46,28,272.5,,197.5,,277.5,,747.5,SBD
Cereno Chavez,3,Open,M,Raw,IL,140+,151.41,17,227.5,232.5,145,,227.5,147.5,600,SBD
Dave Dallmeyer,4,Open,M,Raw,CA,140+,141.07,64,182.5,,127.5,,227.5,,537.5,SBD
Carlton Johnson,1,Submasters 35-39,M,Raw,CA,90,88.54,36,220,,170,,250,,640,SBD
Chris Mangano,2,Submasters 35-39,M,Raw,CA,90,87.09,37,227.5,,142.5,,247.5,,617.5,SBD
Dustin Beckley,3,Submasters 35-39,M,Raw,CA,90,83.14,35,155,,95,,172.5,,422.5,SBD
Donald Rhodes,DQ,Submasters 35-39,M,Raw,CA,90,89.36,39,285,,-142.5,,,,,SBD
Jared Robinson,1,Submasters 35-39,M,Raw,CA,100,99.25,36,215,,182.5,,245,,642.5,SBD
Danny Kang,2,Submasters 35-39,M,Raw,CA,100,98.02,35,190,,135,,227.5,,552.5,SBD
Abia-Imo Roberts,3,Submasters 35-39,M,Raw,CA,100,97.25,35,150,,107.5,,240,,497.5,SBD
Lee Crisp,1,Submasters 35-39,M,Raw,CA,110,107.18,39,207.5,,182.5,,260,,650,SBD
Aaron Capp,2,Submasters 35-39,M,Raw,CA,110,103.42,35,195,,132.5,,240,,567.5,SBD
Scott Layman,1,Masters 40-44,M,Raw,CA,67.5,66.5,43,220.5,,145,,217.5,,583,SBD
Jeffrey Stanley,1,Masters 55-59,M,Raw,CA,75,73.3,56,115,,100,,210,,425,SBD
Tom Lujan,1,Masters 50-54,M,Raw,CA,82.5,82.42,51,120,,97.5,,147.5,,365,SBD
Mike Kaplan,1,Masters 55-59,M,Raw,CA,82.5,80.65,57,152.5,,110,115,190,,452.5,SBD
Rob Martino,1,Masters 45-49,M,Raw,CA,90,88.36,46,165,,107.5,,195,,467.5,SBD
Tim Anderson,1,Masters 55-59,M,Raw,CA,90,87.59,59,157.5,,120,,207.5,,485,SBD
Al Morentin,1,Masters 45-49,M,Raw,CA,100,94.85,48,165,,137.5,,227.5,,530,SBD
George Pessell,1,Masters 55-59,M,Raw,CA,100,95.57,55,227.5,,152.5,,245,,625,SBD
Michael Womelsdorf,2,Masters 55-59,M,Raw,CA,100,96.3,56,125,,107.5,,155,,387.5,SBD
Gregory Cotterell,1,Masters 50-54,M,Raw,CA,110,109.95,54,190,,145,,227.5,,562.5,SBD
Wayne Jandoc,1,Masters 55-59,M,Raw,CA,110,107.41,56,205,,158,,238,,601,SBD
Fredrick Martinez,1,Masters 45-49,M,Raw,CA,125,122.33,48,230,,185,,272.5,,687.5,SBD
Robert Speno,1,Masters 45-49,M,Raw,CA,140,137.98,45,280,,175,,265,,720,SBD
Kellen Boyce,2,Masters 45-49,M,Raw,CA,140,129.91,48,232.5,,137.5,,205,,575,SBD
Dave Dallmeyer,1,Masters 60-64,M,Raw,CA,140+,141.07,64,182.5,,127.5,,227.5,,537.5,SBD
Cassandra Hawthorne,1,Juniors 20-23,F,Raw,CA,60,58.6,22,92.5,,47.5,,102.5,,242.5,SBD
Ilyssa Russ,2,Juniors 20-23,F,Raw,CA,60,59.51,23,90,,37.5,,97.5,,225,SBD
Liz Cohen,1,Open,F,Raw,CA,56,55.84,28,102.5,,57.5,,120,,280,SBD
Cortney Leih,1,Open,F,Raw,CA,60,59.87,28,150,,77.5,,165,,392.5,SBD
Cassandra Hawthorne,2,Open,F,Raw,CA,60,58.6,22,92.5,,47.5,,102.5,,242.5,SBD
Ilyssa Russ,3,Open,F,Raw,CA,60,59.51,23,90,,37.5,,97.5,,225,SBD
Angela Godoy,1,Open,F,Raw,CA,67.5,65.14,28,122.5,,70,,135,,327.5,SBD
Nicki I'Anson,1,Open,F,Raw,CA,82.5,80.6,47,147.5,,102.5,,190,,440,SBD
Nicki I'Anson,1,Masters 45-49,F,Raw,CA,82.5,80.6,47,147.5,,102.5,,190,,440,SBD
Noah Husband,1,Juniors 16-17,M,Raw,CA,56,52.34,16,82.5,,77.5,,115,,275,SBD
Tyler Husband,1,Juniors 20-23,M,Raw,CA,67.5,66.54,22,165,,130,,205,,500,SBD
Brian La,1,Juniors 20-23,M,Raw,CA,75,73.89,20,185,,90,,235,,510,SBD
Uriah Clark II,1,Juniors 18-19,M,Raw,CA,90,85.28,19,195,,125,,215,,535,SBD
Brandon LeBaudour,2,Juniors 18-19,M,Raw,CA,90,87.77,18,170,,135,,217.5,,522.5,SBD
Alexsander Torres,1,Juniors 20-23,M,Raw,CA,90,89.77,20,170,,107.5,,187.5,,465,SBD
Salvador Betancourt,DQ,Juniors 20-23,M,Raw,CA,110,107.73,21,210,,137.5,,-205,,,SBD
Blake Bender,1,Juniors 20-23,M,Raw,CA,125,120.93,21,242.5,,162.5,,285,,690,SBD
Tony Lopez,1,Open,M,Raw,CA,82.5,81.37,35,200,,150,,247.5,,597.5,SBD
Ivan Palomino,2,Open,M,Raw,CA,82.5,81.19,24,205,,130,,235,,570,SBD
Timothy Kim,DQ,Open,M,Raw,CA,82.5,81.74,32,-220,,137.5,,225,,,SBD
Jon Vaughn,DQ,Open,M,Raw,CA,82.5,78.79,25,-265,,,,,,,SBD
Justin Hunter,1,Open,M,Raw,CA,90,89.99,27,215,,165,,280,,660,SBD
Josh Gregg,2,Open,M,Raw,CA,90,87.36,26,187.5,,125,,227.5,,540,SBD
Uriah Clark II,3,Open,M,Raw,CA,90,85.28,19,195,,125,,215,,535,SBD
Brandon LeBaudour,4,Open,M,Raw,CA,90,87.77,18,170,,135,,217.5,,522.5,SBD
Alexsander Torres,5,Open,M,Raw,CA,90,89.77,20,170,,107.5,,187.5,,465,SBD
Josh Nichols,1,Open,M,Raw,CA,100,99.11,27,277.5,,167.5,,312.5,,757.5,SBD
Ernesto Madrigal,2,Open,M,Raw,CA,100,99.79,26,235,,142.5,,255,,632.5,SBD
Greg Baxter,3,Open,M,Raw,CA,100,98.79,59,230,,125,,250,,605,SBD
Shaun Brooks,4,Open,M,Raw,CA,100,98.97,27,205,,142.5,,255,,602.5,SBD
Michael Sagoian,5,Open,M,Raw,CA,100,96.89,35,235,,115,,240,,590,SBD
Sean Sauer,6,Open,M,Raw,CA,100,99.2,39,245,,117.5,,220,,582.5,SBD
Tim Copeland,7,Open,M,Raw,CA,100,96.8,46,175,,130,,195,,500,SBD
Robert Tavares,DQ,Open,M,Raw,CA,100,99.7,33,227.5,,-150,,245,,,SBD
Freddie Tackett,1,Open,M,Raw,CA,110,104.51,38,262.5,,160,,282.5,,705,SBD
Darren Robuck,2,Open,M,Raw,CA,110,108.27,47,237.5,,165,,237.5,,640,SBD
Karl Davenport,3,Open,M,Raw,CA,110,109.54,49,205,,142.5,,217.5,,565,SBD
Adam Herrera,4,Open,M,Raw,CA,110,107.91,41,205,,125,,200,,530,SBD
Johnny Walsh,5,Open,M,Raw,CA,110,103.42,36,170,,105,,205,,480,SBD
Salvador Betancourt,DQ,Open,M,Raw,CA,110,107.73,21,210,,137.5,,-205,,,SBD
Garrett Brassington,1,Open,M,Raw,CA,125,122.2,33,280,,192.5,,300,,772.5,SBD
Michael Haas,2,Open,M,Raw,CA,125,122.29,28,250,,192.5,,295,,737.5,SBD
Blake Bender,3,Open,M,Raw,CA,125,120.93,21,242.5,,162.5,,285,,690,SBD
Cliff Privetera,4,Open,M,Raw,CA,125,113.26,46,260,,160,,260,,680,SBD
Craig Lawrence,5,Open,M,Raw,CA,125,124.51,45,242.5,,155,,282.5,,680,SBD
Dustin Barngrover,6,Open,M,Raw,CA,125,120.52,37,215,,152.5,,227.5,,595,SBD
Dennis Alegre,7,Open,M,Raw,CA,125,119.52,49,210,,132.5,,250,,592.5,SBD
David Zyski,1,Open,M,Raw,CA,140,129.82,28,342.5,,227.5,,337.5,,907.5,SBD
Bill Newman,2,Open,M,Raw,CA,140,134.94,30,272.5,,72.5,,290,,635,SBD
Tony Lopez,1,Submasters 35-39,M,Raw,CA,82.5,81.37,35,200,,150,,247.5,,597.5,SBD
Michael Sagoian,1,Submasters 35-39,M,Raw,CA,100,96.89,35,235,,115,,240,,590,SBD
Sean Sauer,2,Submasters 35-39,M,Raw,CA,100,99.2,39,245,,117.5,,220,,582.5,SBD
Freddie Tackett,1,Submasters 35-39,M,Raw,CA,110,104.51,38,262.5,,160,,282.5,,705,SBD
Johnny Walsh,2,Submasters 35-39,M,Raw,CA,110,103.42,36,170,,105,,205,,480,SBD
Dustin Barngrover,1,Submasters 35-39,M,Raw,CA,125,120.52,37,215,,152.5,,227.5,,595,SBD
Gordon Santee,1,Masters 65-69,M,Raw,CA,67.5,64.27,67,85,,77.5,,150,,312.5,SBD
Tim Copeland,1,Masters 45-49,M,Raw,CA,100,96.8,46,175,,130,,195,,500,SBD
Greg Baxter,1,Masters 55-59,M,Raw,CA,100,98.79,59,230,,125,,250,,605,SBD
Adam Herrera,1,Masters 40-44,M,Raw,CA,110,107.91,41,205,,125,,200,,530,SBD
Darren Robuck,1,Masters 45-49,M,Raw,CA,110,108.27,47,237.5,,165,,237.5,,640,SBD
Karl Davenport,2,Masters 45-49,M,Raw,CA,110,109.54,49,205,,142.5,,217.5,,565,SBD
Cliff Privetera,1,Masters 45-49,M,Raw,CA,125,113.26,46,260,,160,,260,,680,SBD
Craig Lawrence,2,Masters 45-49,M,Raw,CA,125,124.51,45,242.5,,155,,282.5,,680,SBD
Dennis Alegre,3,Masters 45-49,M,Raw,CA,125,119.52,49,210,,132.5,,250,,592.5,SBD
Dan Liebster,1,Masters 45-49,M,Raw,CA,140+,148.64,47,212.5,,145,,235,,592.5,SBD
Karen Trim,1,Open,F,Single-ply,CA,67.5,63.41,52,142.5,,85,,170,,397.5,SBD
Karen Parnow,2,Open,F,Single-ply,CA,67.5,66.5,55,125,,85.5,,140,,350.5,SBD
Gia Blackwell,1,Open,F,Single-ply,CA,75,69.58,53,165,,97.5,,142.5,,405,SBD
Betsy Spann,2,Open,F,Single-ply,CA,75,71.49,57,125,,75.5,,145,,345.5,SBD
Aura Sweeney,1,Open,F,Single-ply,CA,90,88.09,33,195,,140,,177.5,,512.5,SBD
Karen Trim,1,Masters 50-54,F,Single-ply,CA,67.5,63.41,52,142.5,,85,,170,,397.5,SBD
Karen Parnow,1,Masters 55-59,F,Single-ply,CA,67.5,66.5,55,125,,85.5,,140,,350.5,SBD
Gia Blackwell,1,Masters 50-54,F,Single-ply,CA,75,69.58,53,165,,97.5,,142.5,,405,SBD
Betsy Spann,1,Masters 55-59,F,Single-ply,CA,75,71.49,57,125,,75.5,,145,,345.5,SBD
Spencer Hobbs,1,Juniors 20-23,M,Single-ply,CA,67.5,65.5,23,145,,95,,165,,405,SBD
Kyle Planeaux,1,Juniors 20-23,M,Single-ply,CA,90,89.99,23,238,245,140,,252.5,,630.5,SBD
Ian Murphy,1,Juniors 20-23,M,Single-ply,CA,110,107.09,23,242.5,,152.5,,265,,660,SBD
Jarred Benitez,1,Open,M,Single-ply,CA,60,58.6,27,210,,137.5,,205,,552.5,SBD
Jose Hernandez,1,Open,M,Single-ply,CA,82.5,78.61,46,205,,132.5,,212.5,,550,SBD
Arthur Fu,2,Open,M,Single-ply,CA,82.5,80.38,61,190,,145,,210.5,,545.5,SBD
Zach Pfannenstiel,1,Open,M,Single-ply,CA,90,89.13,26,247.5,,215,228,275,,737.5,SBD
Kyle Planeaux,2,Open,M,Single-ply,CA,90,89.99,23,238,,140,,252.5,,630.5,SBD
Ian Murphy,1,Open,M,Single-ply,CA,110,107.09,23,242.5,,152.5,,265,,660,SBD
Dennis Reneau,DQ,Open,M,Single-ply,CA,110,109.36,42,-295,,,,,,,SBD
Mark Menslage,1,Open,M,Single-ply,CA,125,114.08,49,290,,182.5,,287.5,,760,SBD
Steve Lee,1,Open,M,Single-ply,CA,140+,150.64,34,332.5,,255,,240,,827.5,SBD
Robert Lee,1,Submasters 35-39,M,Single-ply,CA,140,135.9,37,355,,307.5,,265,,927.5,SBD
Jason Kahn,1,Masters 40-44,M,Single-ply,CA,75,73.71,44,137.5,,110,,165,,412.5,SBD
Thomas Miller,1,Masters 70-74,M,Single-ply,CA,75,74.34,73,150.5,,80,,183.5,,414,SBD
Jose Hernandez,1,Masters 45-49,M,Single-ply,CA,82.5,78.61,46,205,,132.5,,212.5,,550,SBD
Arthur Fu,1,Masters 60-64,M,Single-ply,CA,82.5,80.38,61,190,,145,,210.5,,545.5,SBD
Darrell Robideau,1,Masters 45-49,M,Single-ply,CA,100,99.11,48,212.5,,175,,230,,617.5,SBD
Lothar Vallot,1,Masters 60-64,M,Single-ply,CA,100,92.12,62,145,,102.5,,165,,412.5,SBD
Dennis Reneau,DQ,Masters 40-44,M,Single-ply,CA,110,109.36,42,-295,,,,,,,SBD
Mark Menslage,1,Masters 45-49,M,Single-ply,CA,125,114.08,49,290,,182.5,,287.5,,760,SBD
Courtney Scott,1,Juniors 20-23,F,Raw,CA,82.5,77.56,23,,,70,,,,70,B
Jeanilee Sumagaysay,1,Open,F,Raw,CA,60,59.47,30,,,57.5,,,,57.5,B
Ruth Harrison,1,Open,F,Raw,CA,82.5,75.21,49,,,80,82.5,,,80,B
Courtney Scott,2,Open,F,Raw,CA,82.5,77.56,23,,,70,,,,70,B
Maggie Haywood,1,Masters 70-74,F,Raw,CA,60,56.79,70,,,30,,,,30,B
Ruth Harrison,1,Masters 45-49,F,Raw,CA,82.5,75.21,49,,,80,82.5,,,80,B
Tracie Marquez,1,Masters 50-54,F,Raw,CA,90,88.18,50,,,65,,,,65,B
Luke Van Ginkel,1,Juniors 16-17,M,Raw,CA,90,85.28,17,,,135,,,,135,B
Edward Alvarado,1,Juniors 20-23,M,Raw,CA,100,97.34,20,,,127.5,,,,127.5,B
Nadeem Hamidy,1,Juniors 18-19,M,Raw,CA,110,108.09,18,,,150,,,,150,B
Victor Dominguez,DQ,Juniors 20-23,M,Raw,CA,110,109.09,22,,,-165,,,,,B
Henry Andrade,1,Juniors 20-23,M,Raw,CA,125,110.63,21,,,175,,,,175,B
Steven Maradona,1,Juniors 20-23,M,Raw,CA,140+,143.88,20,,,227.5,,,,227.5,B
Gerardo Rivera,1,Open,M,Raw,CA,75,74.21,25,,,147.5,,,,147.5,B
Rick Gutman,2,Open,M,Raw,CA,75,74.75,60,,,115,,,,115,B
Jeffrey Stanley,3,Open,M,Raw,CA,75,73.3,56,,,100,,,,100,B
Chris Garcia,1,Open,M,Raw,CA,82.5,82.19,26,,,170,,,,170,B
Felipe Campos,2,Open,M,Raw,CA,82.5,82.01,37,,,145,,,,145,B
Nick Stearns,3,Open,M,Raw,CA,82.5,81.65,29,,,130,,,,130,B
Matt Mattison,4,Open,M,Raw,CA,82.5,80.51,44,,,115,,,,115,B
Stacy Dedrick,1,Open,M,Raw,CA,90,89.63,49,,,192.5,,,,192.5,B
Wil Shelton,2,Open,M,Raw,CA,90,87,45,,,165,,,,165,B
Luke Van Ginkel,3,Open,M,Raw,CA,90,85.28,17,,,135,,,,135,B
Martin Skinner,4,Open,M,Raw,CA,90,89.72,25,,,115,,,,115,B
Michael Pennington,5,Open,M,Raw,CA,90,89.49,50,,,107.5,,,,107.5,B
Ben Yang,DQ,Open,M,Raw,CA,90,88.86,25,,,-135,,,,,B
Ray Juan Horton,DQ,Open,M,Raw,CA,90,85.28,26,,,-152.5,,,,,B
Mike Portillo,1,Open,M,Raw,CA,100,97.75,39,,,195.5,,,,195.5,B
Barry Moores,2,Open,M,Raw,CA,100,90.36,68,,,139,,,,139,B
Edward Alvarado,3,Open,M,Raw,CA,100,97.34,20,,,127.5,,,,127.5,B
Todd Robinson,4,Open,M,Raw,CA,100,93.21,57,,,120,,,,120,B
Gabor Sonyey,5,Open,M,Raw,CA,100,96.21,59,,,112.5,,,,112.5,B
Kevin Jones,1,Open,M,Raw,CA,110,104.33,26,,,182.5,,,,182.5,B
Wayne Jandoc,2,Open,M,Raw,CA,110,107.41,56,,,158,,,,158,B
Nadeem Hamidy,3,Open,M,Raw,CA,110,108.09,18,,,150,,,,150,B
Adam Herrera,4,Open,M,Raw,CA,110,107.91,41,,,125,,,,125,B
Victor Dominguez,DQ,Open,M,Raw,CA,110,109.09,22,,,-165,,,,,B
Matt Posselt,1,Open,M,Raw,CA,125,118.93,25,,,200,,,,200,B
Henry Andrade,2,Open,M,Raw,CA,125,110.63,21,,,175,,,,175,B
Steve Gutierrez,3,Open,M,Raw,CA,125,123.56,50,,,152.5,,,,152.5,B
Quinn Bremes,1,Open,M,Raw,CA,140,139.43,52,,,213,,,,213,B
Alan Aerts,2,Open,M,Raw,NV,140,130,57,,,187.5,,,,187.5,B
Joseph Llamas,3,Open,M,Raw,CA,140,132.77,31,,,165,,,,165,B
David Fitzgerald,4,Open,M,Raw,CA,140,139.39,46,,,165,,,,165,B
Steven Maradona,1,Open,M,Raw,CA,140+,143.88,20,,,227.5,,,,227.5,B
Travis Heck,2,Open,M,Raw,CA,140+,158.71,42,,,162.5,,,,162.5,B
Felipe Campos,1,Submasters 35-39,M,Raw,CA,82.5,82.01,37,,,145,,,,145,B
Mike Portillo,1,Submasters 35-39,M,Raw,CA,100,97.75,39,,,195.5,,,,195.5,B
Gordon Santee,1,Masters 65-69,M,Raw,CA,67.5,64.27,67,,,77.5,,,,77.5,B
Jeffrey Stanley,1,Masters 55-59,M,Raw,CA,75,73.3,56,,,100,,,,100,B
Rick Gutman,1,Masters 60-64,M,Raw,CA,75,74.75,60,,,115,,,,115,B
Matt Mattison,1,Masters 40-44,M,Raw,CA,82.5,80.51,44,,,115,,,,115,B
Stacy Dedrick,1,Masters 45-49,M,Raw,CA,90,89.63,49,,,192.5,,,,192.5,B
Wil Shelton,2,Masters 45-49,M,Raw,CA,90,87,45,,,165,,,,165,B
Michael Pennington,1,Masters 50-54,M,Raw,CA,90,89.49,50,,,107.5,,,,107.5,B
Todd Robinson,1,Masters 55-59,M,Raw,CA,100,93.21,57,,,120,,,,120,B
Gabor Sonyey,2,Masters 55-59,M,Raw,CA,100,96.21,59,,,112.5,,,,112.5,B
Barry Moores,1,Masters 65-69,M,Raw,CA,100,90.36,68,,,139,,,,139,B
Adam Herrera,1,Masters 40-44,M,Raw,CA,110,107.91,41,,,125,,,,125,B
Wayne Jandoc,1,Masters 55-59,M,Raw,CA,110,107.41,56,,,158,,,,158,B
Steve Gutierrez,1,Masters 50-54,M,Raw,CA,125,123.56,50,,,152.5,,,,152.5,B
David Fitzgerald,1,Masters 45-49,M,Raw,CA,140,139.39,46,,,165,,,,165,B
Quinn Bremes,1,Masters 50-54,M,Raw,CA,140,139.43,52,,,213,,,,213,B
Alan Aerts,1,Masters 55-59,M,Raw,NV,140,130,57,,,187.5,190.5,,,187.5,B
Travis Heck,1,Masters 40-44,M,Raw,CA,140+,158.71,42,,,162.5,,,,162.5,B
Karen Parnow,1,Masters 55-59,F,Single-ply,CA,67.5,66.5,55,,,85.5,,,,85.5,B
Peter Pham,1,Juniors 20-23,M,Single-ply,CA,75,71.49,22,,,170,,,,170,B
Ronald Allen,1,Submasters 35-39,M,Single-ply,CA,125,111.36,39,,,182.5,,,,182.5,B
Bob Evans #1,1,Masters 65-69,M,Single-ply,CA,110,104.42,67,,,175,,,,175,B
Betsy Spann,1,Masters 55-59,F,Multi-ply,CA,75,71.49,57,,,75.5,,,,75.5,B
Alan Aerts,1,Open,M,Multi-ply,NV,140,130,57,,,212.5,,,,212.5,B
Alan Aerts,1,Masters 55-59,M,Multi-ply,NV,140,130,57,,,212.5,,,,212.5,B
Amber Fowler,1,Juniors 20-23,F,Raw,CA,90,89.77,22,,,,,135,,135,D
Tina Daneshmand,1,Open,F,Raw,CA,56,54.2,27,,,,,172.5,,172.5,D
Tatiana Buys,1,Open,F,Raw,CA,75,68.4,30,,,,,182.5,,182.5,D
Edenn Perez,1,Open,F,Raw,CA,90,89.22,36,,,,,138,,138,D
Amber Fowler,2,Open,F,Raw,CA,90,89.77,22,,,,,135,,135,D
Edenn Perez,1,Submasters 35-39,F,Raw,CA,90,89.22,36,,,,,138,,138,D
Maggie Haywood,1,Masters 70-74,F,Raw,CA,60,56.79,70,,,,,72.5,,72.5,D
Jouansi Martinez,1,Juniors 20-23,M,Raw,CA,60,59.56,20,,,,,182.5,,182.5,D
Tyler Boden,1,Juniors 18-19,M,Raw,CA,75,74.07,19,,,,,217.5,,217.5,D
Gianni Vinson,1,Juniors 13-15,M,Raw,CA,82.5,78.24,14,,,,,182.5,190,182.5,D
Luis Montano,1,Juniors 18-19,M,Raw,CA,82.5,78.56,18,,,,,182.5,,182.5,D
Allen Guevarra,1,Juniors 20-23,M,Raw,CA,82.5,81.01,21,,,,,220,,220,D
Marvin Valdez,2,Juniors 20-23,M,Raw,CA,82.5,75.57,22,,,,,205,,205,D
Edward Alvarado,1,Juniors 20-23,M,Raw,CA,100,97.34,20,,,,,215,,215,D
Nadeem Hamidy,1,Juniors 18-19,M,Raw,CA,110,108.09,18,,,,,240,,240,D
Jouansi Martinez,1,Open,M,Raw,CA,60,59.56,20,,,,,182.5,,182.5,D
Kale Rodrigues,2,Open,M,Raw,CA,60,58.33,26,,,,,165,,165,D
Gerardo Rivera,1,Open,M,Raw,CA,75,74.21,25,,,,,265,,265,D
Tyler Boden,3,Open,M,Raw,CA,75,74.07,19,,,,,217.5,,217.5,D
Jeffrey Stanley,4,Open,M,Raw,CA,75,73.3,56,,,,,210,,210,D
Chris Garcia,1,Open,M,Raw,CA,82.5,82.19,26,,,,,297.5,,297.5,D
Nick Stearns,2,Open,M,Raw,CA,82.5,81.65,29,,,,,240,,240,D
Allen Guevarra,3,Open,M,Raw,CA,82.5,81.01,21,,,,,220,,220,D
Marvin Valdez,4,Open,M,Raw,CA,82.5,75.57,22,,,,,205,,205,D
Raymond Cavileer,5,Open,M,Raw,CA,82.5,80.69,60,,,,,205,,205,D
Felipe Campos,6,Open,M,Raw,CA,82.5,82.01,37,,,,,192.5,,192.5,D
Gianni Vinson,7,Open,M,Raw,CA,82.5,78.24,14,,,,,182.5,,182.5,D
Luis Montano,8,Open,M,Raw,CA,82.5,78.56,18,,,,,182.5,,182.5,D
Michael Pennington,1,Open,M,Raw,CA,90,89.49,50,,,,,217.5,,217.5,D
Jacob Funk,2,Open,M,Raw,CA,90,86.09,28,,,,,182.5,,182.5,D
Vladimir Tsatsulin,3,Open,M,Raw,CA,90,88.5,77,,,,,180,,180,D
Josh Nichols,1,Open,M,Raw,CA,100,99.11,27,,,,,312.5,,312.5,D
Nadeem Hamidy,1,Open,M,Raw,CA,110,108.09,18,,,,,240,,240,D
Wayne Jandoc,2,Open,M,Raw,CA,110,107.41,56,,,,,238,,238,D
Michael Haas,1,Open,M,Raw,CA,125,122.29,28,,,,,295,,295,D
Matt Posselt,2,Open,M,Raw,CA,125,118.93,25,,,,,287.5,,287.5,D
Steve Gutierrez,3,Open,M,Raw,CA,125,123.56,50,,,,,227.5,,227.5,D
David Fitzgerald,1,Open,M,Raw,CA,140,139.39,46,,,,,330,340,330,D
Gordon Santee,1,Masters 65-69,M,Raw,CA,67.5,64.27,67,,,,,150,,150,D
Jeffrey Stanley,1,Masters 55-59,M,Raw,CA,75,73.3,56,,,,,210,,210,D
Raymond Cavileer,1,Masters 60-64,M,Raw,CA,82.5,80.69,60,,,,,205,,205,D
Michael Pennington,1,Masters 50-54,M,Raw,CA,90,89.49,50,,,,,217.5,,217.5,D
Roy Taylor,1,Masters 70-74,M,Raw,CA,90,84.01,73,,,,,170,,170,D
Vladimir Tsatsulin,1,Masters 75-79,M,Raw,CA,90,88.5,77,,,,,180,,180,D
Wayne Jandoc,1,Masters 55-59,M,Raw,CA,110,107.41,56,,,,,238,,238,D
Steve Gutierrez,1,Masters 50-54,M,Raw,CA,125,123.56,50,,,,,227.5,,227.5,D
David Fitzgerald,1,Masters 45-49,M,Raw,CA,140,139.39,46,,,,,330,340,330,D
Travis Heck,1,Masters 40-44,M,Raw,CA,140+,158.71,42,,,,,215,,215,D
Mayra Salas,1,Open,F,Single-ply,CA,75,73.07,27,,,,,125,,125,D
Karen Trim,1,Masters 50-54,F,Single-ply,CA,67.5,63.41,52,,,,,170,,170,D
Linda Adam,1,Masters 55-59,F,Single-ply,CA,67.5,60.96,59,,,,,147.5,150,147.5,D
Karen Parnow,2,Masters 55-59,F,Single-ply,CA,67.5,66.5,55,,,,,140,,140,D
Matthew Vizcarra,1,Open,M,Single-ply,CA,82.5,81.51,28,,,,,230,,230,D
Matt Mattison,2,Open,M,Single-ply,CA,82.5,80.51,44,,,,,210,,210,D
Zachary Trahan,1,Open,M,Single-ply,CA,90,89.58,25,,,,,287.5,,287.5,D
Mark O'Brien,2,Open,M,Single-ply,CA,90,87.91,49,,,,,210,,210,D
Justin Kinney,3,Open,M,Single-ply,CA,90,86.05,32,,,,,167.5,,167.5,D
Jason Kelske,1,Open,M,Single-ply,CA,110,102.42,32,,,,,315,,315,D
Ronald Allen,1,Submasters 35-39,M,Single-ply,CA,125,111.36,39,,,,,242.5,,242.5,D
Michael Martin,1,Masters 50-54,M,Single-ply,CA,75,72.03,52,,,,,187.5,,187.5,D
Matt Mattison,1,Masters 40-44,M,Single-ply,CA,82.5,80.51,44,,,,,210,,210,D
Mark O'Brien,1,Masters 45-49,M,Single-ply,CA,90,87.91,49,,,,,210,220.5,210,D
Betsy Spann,1,Masters 55-59,F,Multi-ply,CA,75,71.49,57,,,,,145,,145,D
